generic_adder_8bit/simulation/qsim/generic_adder_8bit.msim.vcd
$comment
	File created using the following command:
		vcd file generic_adder_8bit.msim.vcd -direction
$end
$date
	Sat Oct 30 20:41:18 2021
$end
$version
	ModelSim Version 10.1d
$end
$timescale
	1ps
$end
$scope module generic_adder_8bit_vlg_vec_tst $end
$var reg 8 ! A [7:0] $end
$var reg 8 " B [7:0] $end
$var reg 1 # c_in $end
$var wire 1 $ c_out $end
$var wire 1 % sum [7] $end
$var wire 1 & sum [6] $end
$var wire 1 ' sum [5] $end
$var wire 1 ( sum [4] $end
$var wire 1 ) sum [3] $end
$var wire 1 * sum [2] $end
$var wire 1 + sum [1] $end
$var wire 1 , sum [0] $end
$var wire 1 - sampler $end
$scope module i1 $end
$var wire 1 . gnd $end
$var wire 1 / vcc $end
$var wire 1 0 unknown $end
$var tri1 1 1 devclrn $end
$var tri1 1 2 devpor $end
$var tri1 1 3 devoe $end
$var wire 1 4 sum[0]~output_o $end
$var wire 1 5 sum[1]~output_o $end
$var wire 1 6 sum[2]~output_o $end
$var wire 1 7 sum[3]~output_o $end
$var wire 1 8 sum[4]~output_o $end
$var wire 1 9 sum[5]~output_o $end
$var wire 1 : sum[6]~output_o $end
$var wire 1 ; sum[7]~output_o $end
$var wire 1 < c_out~output_o $end
$var wire 1 = A[0]~input_o $end
$var wire 1 > B[0]~input_o $end
$var wire 1 ? c_in~input_o $end
$var wire 1 @ adder1|sum[0]~0_combout $end
$var wire 1 A B[1]~input_o $end
$var wire 1 B A[1]~input_o $end
$var wire 1 C adder1|carry~0_combout $end
$var wire 1 D adder1|carry~1_combout $end
$var wire 1 E A[2]~input_o $end
$var wire 1 F B[2]~input_o $end
$var wire 1 G adder1|carry~2_combout $end
$var wire 1 H adder1|sum[2]~1_combout $end
$var wire 1 I B[3]~input_o $end
$var wire 1 J A[3]~input_o $end
$var wire 1 K adder1|carry~3_combout $end
$var wire 1 L adder1|carry~4_combout $end
$var wire 1 M A[4]~input_o $end
$var wire 1 N B[4]~input_o $end
$var wire 1 O adder1|carry~5_combout $end
$var wire 1 P adder1|sum[4]~2_combout $end
$var wire 1 Q B[5]~input_o $end
$var wire 1 R A[5]~input_o $end
$var wire 1 S adder1|carry~6_combout $end
$var wire 1 T adder1|carry~7_combout $end
$var wire 1 U A[6]~input_o $end
$var wire 1 V B[6]~input_o $end
$var wire 1 W adder1|carry~8_combout $end
$var wire 1 X adder1|sum[6]~3_combout $end
$var wire 1 Y B[7]~input_o $end
$var wire 1 Z A[7]~input_o $end
$var wire 1 [ adder1|carry~9_combout $end
$var wire 1 \ adder1|carry~10_combout $end
$var wire 1 ] adder1|c_out~0_combout $end
$var wire 1 ^ adder1|sum [7] $end
$var wire 1 _ adder1|sum [6] $end
$var wire 1 ` adder1|sum [5] $end
$var wire 1 a adder1|sum [4] $end
$var wire 1 b adder1|sum [3] $end
$var wire 1 c adder1|sum [2] $end
$var wire 1 d adder1|sum [1] $end
$var wire 1 e adder1|sum [0] $end
$upscope $end
$upscope $end
$enddefinitions $end
#0
$dumpvars
b1010110 !
b10100011 "
0#
0$
1,
0+
0*
1)
1(
1'
1&
1%
x-
0.
1/
x0
11
12
13
14
05
06
17
18
19
1:
1;
0<
0=
1>
0?
1@
1A
1B
0C
0D
1E
0F
1G
0H
0I
0J
0K
1L
1M
0N
0O
1P
1Q
0R
0S
0T
1U
0V
0W
1X
1Y
0Z
0[
0\
0]
ze
0d
zc
1b
za
1`
z_
1^
$end
#5000
b10110 !
b110 !
b100 !
b101 !
b100011 "
b11 "
b10011 "
b11011 "
b11111 "
1F
1I
1N
0Q
0Y
1=
0B
0M
0U
0-
1K
1O
1D
0G
1H
0b
0`
0^
0@
1d
0X
1S
1G
0K
16
07
09
0;
04
15
0:
1*
0)
0'
0%
0,
1+
0&
0P
0d
0H
1K
08
05
06
0(
0+
0*
1`
1H
19
16
1'
1*
#10000
b1101 !
b1011111 "
b1011110 "
b1001101 !
b1010110 "
0>
0I
1V
1J
1U
1-
0D
1\
1@
0G
14
1,
1d
1^
0K
15
1;
1+
1%
0H
06
0*
#15000
b1101101 !
b1101111 !
b11010110 "
b1100111 !
b10010110 "
b10010111 "
b100111 !
b10011111 "
1>
1I
0V
1Y
1B
0J
1R
0U
0-
1D
0\
1G
1W
0@
1]
0^
0d
0`
1K
04
1<
0;
05
09
0,
1$
0%
0+
0'
1d
0]
1^
1H
1X
15
0<
1;
16
1:
1+
0$
1%
1*
1&
#20000
b10100111 !
b10100011 !
b10110011 !
b10110010 !
b10111111 "
b10101111 "
b101111 "
b10111010 !
0N
1Q
0Y
0=
0E
1J
1M
1Z
1-
1T
0S
0D
0L
1`
1@
0H
1b
19
14
06
17
1'
1,
0*
1)
0d
05
0+
#25000
b101101 "
b10011010 !
b10011000 !
b11011000 !
b100101 "
b11001000 !
b11001001 !
b101 "
b10000101 "
b11000001 !
1=
0B
0J
0M
0R
1U
0A
0I
0Q
1Y
0-
1D
0G
0O
0T
0W
1\
0@
1P
0X
1]
0^
0K
0\
04
18
0:
1<
0;
0,
1(
0&
1$
0%
1d
1H
0P
0`
1X
1^
15
16
08
09
1:
1;
1+
1*
0(
0'
1&
1%
0b
0^
07
0;
0)
0%
#30000
b10000001 "
b11000001 "
b11000000 "
b1000001 !
b11010000 "
b11010010 "
b1000011 !
b11 !
b11110010 "
b1110010 "
b1011 !
1B
1J
0U
0Z
0>
1A
0F
1N
1Q
1V
0Y
1-
1G
0D
1b
0]
1@
0H
1P
1`
17
0<
14
06
18
19
1)
0$
1,
0*
1(
1'
1H
0d
16
05
1*
0+
#35000
b1111 !
b1111010 "
b11111 !
b111010 "
b111011 "
b101011 "
b11101 !
b10101011 "
1>
1I
0N
0V
1Y
0B
1E
1M
0-
1D
1O
0G
1L
0@
0b
0X
1^
1d
0H
1G
1T
0L
04
07
0:
1;
15
06
0,
0)
0&
1%
1+
0*
0d
0P
1H
1b
1L
1W
05
08
16
17
0+
0(
1*
1)
0H
0`
0b
06
09
07
0*
0'
0)
1b
1X
17
1:
1)
1&
#40000
b111101 !
b111100 !
b10111100 !
b10101001 "
b11111100 !
b11111000 !
b11101000 !
b11101001 "
b11101000 "
0>
0A
1V
0=
0E
0M
1R
1U
1Z
1-
0D
0G
1\
1[
0L
0T
1d
1H
1P
1`
1]
0^
15
16
18
19
1<
0;
1+
1*
1(
1'
1$
0%
0d
0H
1^
0b
0`
05
06
1;
07
09
0+
0*
1%
0)
0'
#45000
b11101100 "
b1101100 "
b11101001 !
b1101110 "
b11111001 !
b101110 "
b101111 "
1=
1M
1>
1A
1F
0V
0Y
0-
1D
1T
0[
0P
1d
1H
0X
0^
1G
08
15
16
0:
0;
0(
1+
1*
0&
0%
0d
1`
1K
05
19
0+
1'
0H
06
0*
1b
17
1)
#50000
b1111 "
b11110001 !
b111 "
b10111 "
b1110001 !
b1110101 !
b10011 "
b1110100 !
b10001 "
b10000 "
0=
1E
0J
0Z
0>
0A
0F
0I
1N
0Q
1-
0D
1L
0O
0G
0K
1S
0]
1^
1d
1P
0`
0S
0L
0<
1;
15
18
09
0$
1%
1+
1(
0'
0d
0P
1H
05
08
16
0+
0(
1*
0b
07
0)
#55000
b1110110 !
b1010110 !
b1000110 !
b1010000 "
b1110000 "
b1001110 !
b1100000 "
b1001111 !
b1100001 "
1>
0N
1Q
1V
1=
1B
1J
0M
0R
0-
1D
0T
1[
1X
1d
1b
1G
0W
1:
15
17
1&
1+
1)
0d
1`
1L
0[
05
19
0+
1'
0H
0X
1O
06
0:
0*
0&
0b
07
0)
1P
18
1(
#60000
b1111 !
b1101001 "
b10001111 !
b10001011 !
b1101101 "
b10001001 !
b10101001 !
b10111001 !
b101101 "
b1101 "
b10110001 !
b10110000 !
b1100 "
0>
1F
1I
0Q
0V
0=
0B
0E
0J
1M
1R
0U
1Z
1-
0D
0L
1K
0\
0G
1T
1d
0P
1]
0^
0K
1W
15
08
1<
0;
1+
0(
1$
0%
0d
0]
1^
1H
0`
0O
05
0<
1;
16
09
0+
0$
1%
1*
0'
1b
1X
0T
17
1:
1)
1&
1P
0W
18
1(
1`
19
1'
0X
0:
0&
#65000
b1110 "
b110000 !
b110100 !
b1010 "
b110110 !
b10110 !
b1001010 "
b1101010 "
b1101011 "
1B
1E
0R
0Z
1>
1A
0F
1Q
1V
0-
1G
0^
1@
1X
1L
0;
14
1:
0%
1,
1&
0H
1O
06
0*
0b
1T
07
0)
0P
1W
08
0(
0`
1[
09
0'
0X
0:
0&
1^
1;
1%
#70000
b11101011 "
b11111011 "
b110 !
b111 !
b11111001 "
b11 !
b100011 !
b10111001 "
b10011001 "
b10011000 "
1=
0E
0M
1R
0>
0A
1N
0Q
0V
1Y
1-
0L
0T
0G
1S
0[
1H
1d
1X
1]
0^
0O
16
15
1:
1<
0;
1*
1+
1&
1$
0%
1b
0H
0]
1^
0S
17
06
0<
1;
1)
0*
0$
1%
1P
0W
18
1(
1`
19
1'
0X
0:
0&
#75000
b1100011 !
b10010000 "
b1101011 !
b11101011 !
b11111011 !
b11111111 !
b11010000 "
0I
1V
1E
1J
1M
1U
1Z
0-
1\
1T
1H
0P
1]
0^
1W
16
08
1<
0;
1*
0(
1$
0%
1^
0`
1[
1;
09
1%
0'
1X
1:
1&
#80000
b11111101 !
b11000000 "
b11111100 !
b11011100 !
b11000001 "
b11010100 !
b11000100 !
b11000000 !
1>
0N
0=
0B
0E
0J
0M
0R
1-
0T
0W
0d
0H
0b
1`
0[
05
06
07
19
0+
0*
0)
1'
0`
0X
09
0:
0'
0&
#85000
b11000101 "
b1000101 "
b10000000 !
b0 !
b10 !
b1010101 "
b100010 !
b101010 !
1B
1J
1R
0U
0Z
1F
1N
0Y
0-
0\
1d
1b
1`
1X
0]
1H
1P
15
17
19
1:
0<
16
18
1+
1)
1'
1&
0$
1*
1(
0^
0;
0%
#90000
b1010111 "
b1110111 "
b1111111 "
b101011 !
b111011 !
b111111 !
b1111111 !
b1111101 !
b1011101 !
b1010101 !
1=
0B
1E
0J
1M
0R
1U
1A
1I
1Q
1-
1D
1L
1T
1\
0@
0H
0P
0X
1G
1O
1W
04
06
08
0:
0,
0*
0(
0&
0d
0b
0`
1^
1K
1S
1[
05
07
09
1;
0+
0)
0'
1%
1H
1P
1X
16
18
1:
1*
1(
1&
#95000
b11111111 "
b11101111 "
b1010100 !
b10100 !
b10110 !
b110110 !
b111110 !
0=
1B
1J
1R
0U
0N
1Y
0-
0D
0\
0S
1@
1d
1b
1`
0X
0P
1]
0^
14
15
17
19
0:
08
1<
0;
1,
1+
1)
1'
0&
0(
1$
0%
0d
05
0+
#100000
b10101111 "
b10101110 "
b10101010 "
b10111110 !
b10101000 "
b10001000 "
b10000000 "
b10111010 !
b10111011 !
b11111011 !
b11111001 !
b11011001 !
1=
0B
0E
0R
1U
1Z
0>
0A
0F
0I
0Q
0V
1-
0G
0L
0W
1\
0K
0[
1^
0b
0O
0\
1;
07
1%
0)
0H
1b
1X
0T
06
17
1:
0*
1)
1&
1P
0^
18
0;
1(
0%
0`
09
0'
#105000
b11001001 !
b0 "
b1 "
b11 "
b100011 "
b101011 "
b11001101 !
b11001100 !
b11001110 !
1>
1A
1I
1Q
0Y
0=
1B
1E
0M
0-
1G
1O
0b
1`
0]
1^
1H
0P
1L
07
19
0<
1;
16
08
0)
1'
0$
1%
1*
0(
0H
1P
06
18
0*
1(
1b
17
1)
#110000
b101111 "
b1001110 !
b1101110 !
b10101111 "
b10101110 "
b10100110 "
1R
0Z
0>
1F
0I
1Y
1-
1W
1K
0`
0@
1H
0b
1\
09
04
16
07
0'
0,
1*
0)
0X
0:
0&
1]
0^
1<
0;
1$
0%
#115000
b1100110 !
b11100110 "
b100110 !
b110110 !
b110010 !
b10010 !
b1100110 "
b1101110 "
1I
1V
0Y
0E
0J
1M
0R
0U
0-
0\
1[
0L
1T
0W
0]
1^
0H
0P
1`
1W
0[
0<
1;
06
08
19
0$
1%
0*
0(
1'
0`
1X
1[
09
1:
0'
1&
0X
0^
0:
0;
0&
0%
1^
1;
1%
#120000
b1111110 "
b10011 !
b10010011 !
b11010011 !
b11000011 !
b11111110 "
b11110110 "
1=
0M
1U
1Z
0I
1N
1Y
1-
0T
1\
0O
1S
1@
1X
1]
1b
0S
14
1:
1<
17
1,
1&
1$
1)
1P
0W
18
1(
1`
0[
19
1'
0X
0:
0&
#125000
b11110010 "
b10110010 "
b10100010 "
b11000010 !
b10000010 !
b10010010 !
b100010 "
b101010 "
0=
1M
0U
0F
1I
0N
0V
0Y
0-
0\
0K
1O
0@
1H
0b
0^
0O
1T
04
16
07
0;
0,
1*
0)
0%
0]
1^
1b
0P
0T
1W
0<
1;
17
08
0$
1%
1)
0(
1P
0`
0W
18
09
1(
0'
1`
1X
19
1:
1'
1&
0X
0:
0&
#130000
b10010110 !
b101110 "
b10000110 !
b100110 "
1F
0I
1E
0M
1-
1L
1K
0b
0P
07
08
0)
0(
1b
17
1)
#135000
b100111 "
b10001110 !
b10101110 !
b110111 "
b10101111 !
b11101111 !
1=
1J
1R
1U
1>
1N
0-
1D
1O
1W
0b
0`
1X
1P
1S
1\
07
09
1:
18
0)
0'
1&
1(
1d
0P
0X
15
08
0:
1+
0(
0&
1`
1]
0^
19
1<
0;
1'
1$
0%
#140000
b10111 "
b11101101 !
b1010111 "
b11101001 !
b1010011 "
b1011011 "
b1011010 "
0B
0E
0>
0F
1I
0Q
1V
1-
0L
0D
0K
1[
0d
1@
1b
0`
1X
0G
05
14
17
09
1:
0+
1,
1)
0'
1&
0b
1d
07
15
0)
1+
0H
06
0*
#145000
b11011010 "
b11111001 !
b11110001 !
b11010001 !
b10010001 !
b10011010 "
b10010101 !
b10011011 "
1E
0J
1M
0R
0U
1>
0V
1Y
0-
0O
1T
0W
0\
1D
0[
1H
1b
1P
1`
0@
1^
0S
1G
16
17
18
19
04
1;
1*
1)
1(
1'
0,
1%
0P
0X
0^
0d
1L
08
0:
0;
05
0(
0&
0%
0+
0H
1O
06
0*
0b
1S
07
0)
1P
18
1(
#150000
b10011001 "
b10010100 !
b10111001 "
b10010110 !
b10110001 "
b10011110 !
b10111110 !
b11110001 "
b10111010 !
0=
1B
0E
1J
1R
0A
0I
1Q
1V
1-
0D
0L
1W
1@
1H
1X
0G
0O
1[
14
16
1:
1,
1*
1&
1d
1b
0X
0S
15
17
0:
1+
1)
0&
0H
0P
1^
06
08
1;
0*
0(
1%
#155000
b111010 !
b1110001 "
b101010 !
b1110000 "
b1110010 "
b1010010 "
b101000 !
b1011010 "
b100000 !
b0 !
b100 !
0>
1A
1I
0Q
0Y
0B
1E
0J
0M
0R
0Z
0-
0W
0T
0@
0]
1H
1P
0[
04
0<
16
18
0,
0$
1*
1(
1X
0`
1:
09
1&
0'
0^
0;
0%
#160000
b101 !
b11010 "
b10000101 !
b10011010 "
b10010101 !
b10011011 "
b10111011 "
b10010111 !
b10110011 "
1>
0I
1Q
0V
1Y
1=
1B
1M
1Z
1-
1D
1G
1T
0b
1`
0X
1]
0d
0P
1L
1W
07
19
0:
1<
05
08
0)
1'
0&
1$
0+
0(
1d
0H
0`
15
06
09
1+
0*
0'
1b
1X
17
1:
1)
1&
#165000
b10110111 "
b11010111 !
b11011111 !
b11011011 !
b11011010 !
b1011010 !
b110111 "
b1001010 !
b10111 "
b1001000 !
0=
0B
0E
1J
0M
1U
0Z
1F
0Q
0Y
0-
0D
0L
1O
0T
1\
1K
0W
1@
0d
0b
1P
0X
0]
1`
0G
1S
0\
14
05
07
18
0:
0<
19
1,
0+
0)
1(
0&
0$
1'
1d
0P
0`
1^
1X
0K
15
08
09
1;
1:
1+
0(
0'
1%
1&
1H
1`
0^
0O
16
19
0;
1*
1'
0%
1b
0S
17
1)
1P
18
1(
0`
09
0'
#170000
b111 "
b101 "
b100 "
b1100 "
b1000000 !
b11000000 !
b10001100 "
b11010000 !
b10101100 "
b11010010 !
1B
0J
1M
1Z
0>
0A
1I
0N
1Q
1Y
1-
1]
0@
1`
1<
04
19
1$
0,
1'
#175000
b11110010 !
b10101000 "
b10110010 !
b10111000 "
b111000 "
0F
1N
0Y
1R
0U
0-
1T
1W
0H
0P
0]
1^
0`
0X
06
08
0<
1;
09
0:
0*
0(
0$
1%
0'
0&
1`
1X
19
1:
1'
1&
#180000
b10110110 !
b10110111 !
b111010 "
b10111111 !
b111111 !
b11010 "
b1111111 !
b1010 "
1A
0N
0Q
1=
1E
1J
1U
0Z
1-
1G
0T
1O
1\
0d
1P
0`
1@
1H
0b
0X
0^
1L
0W
1T
05
18
09
14
16
07
0:
0;
0+
1(
0'
1,
1*
0)
0&
0%
0H
1`
0P
1^
0\
1W
06
19
08
1;
0*
1'
0(
1%
1b
1X
0`
1\
17
1:
09
1)
1&
0'
0^
0X
0;
0:
0%
0&
1^
1;
1%
#185000
b1001010 "
b1001011 "
b1101111 !
b1101101 !
b1001111 "
b1101100 !
b1100100 !
b100100 !
0=
0B
0J
0M
0U
1>
1F
1V
0-
0G
0T
0\
1K
1[
1d
0b
1P
1H
0K
0W
15
07
18
16
1+
0)
1(
1*
0H
1`
0[
06
19
0*
1'
1X
1:
1&
0^
0;
0%
#190000
b1000111 "
b100 !
b1010111 "
b10100 !
b10110 !
b10111 !
b1010111 !
1=
1B
1M
0R
1U
0I
1N
1-
1D
1G
1T
1\
0O
1S
0@
0d
0`
0X
1b
1K
0S
04
05
09
0:
17
0,
0+
0'
0&
1)
1d
1H
1`
1^
0P
15
16
19
1;
08
1+
1*
1'
1%
0(
#195000
b11010111 "
b1010011 !
b11010101 "
b11010011 !
b11010100 "
b11010000 "
b11110011 !
b10110011 !
0E
1R
0U
1Z
0>
0A
0F
1Y
0-
0L
1W
0\
0D
0K
0`
1X
1]
1@
0d
1[
0G
09
1:
1<
14
05
0'
1&
1$
1,
0+
0b
0X
0^
1d
07
0:
0;
15
0)
0&
0%
1+
1^
0H
1;
06
1%
0*
#200000
b11110000 "
b10111011 !
b10101011 !
b10101001 !
b10101000 !
b1110000 "
b1110010 "
b101000 !
b1110011 "
b1101000 !
0=
0B
1J
0M
1U
0Z
1>
1A
1Q
0Y
1-
0T
1\
1b
1P
1X
0]
1`
17
18
1:
0<
19
1)
1(
1&
0$
1'
0`
09
0'
#205000
b110011 "
b100011 "
b1101100 !
b100111 "
b1001100 !
b111 "
b1000100 !
b1010100 !
b1010110 !
b10000111 "
1B
1E
0J
1M
0R
1F
0N
0Q
0V
1Y
0-
1G
1L
0W
0[
0d
0b
0X
1]
0^
1K
0\
05
07
0:
1<
0;
0+
0)
0&
1$
0%
1H
1b
1X
16
17
1:
1*
1)
1&
0]
1^
0<
1;
0$
1%
#210000
b10001111 "
b1010111 !
b11010111 !
b10001110 "
b10010111 !
b10010011 !
b10101110 "
b10010001 !
1=
0B
0E
0U
1Z
0>
1I
1Q
1-
0G
0L
1O
1d
0H
0X
1]
0^
0b
1`
0K
1T
15
06
0:
1<
0;
07
19
1+
0*
0&
1$
0%
0)
1'
1H
0P
0O
1W
16
08
1*
0(
1b
0`
0T
17
09
1)
0'
1P
1X
0W
18
1:
1(
1&
1`
19
1'
0X
0:
0&
#215000
b11101110 "
b11111110 "
b1111110 "
b1110110 "
b10010000 !
b1110111 "
b10010010 !
0=
1B
1>
0I
1N
1V
0Y
0-
1G
1T
0d
0b
0P
1X
0]
1^
1K
1W
05
07
08
1:
0<
1;
0+
0)
0(
1&
0$
1%
0H
0`
1[
06
09
0*
0'
1b
0X
17
0:
1)
0&
1]
0^
1<
0;
1$
0%
#220000
b1110101 "
b1110001 "
b10011010 !
b11010 !
b11110 !
b1010001 "
b1000001 "
b1001001 "
b11111 !
b11101 !
1=
0B
1E
1J
0Z
0A
0F
1I
0N
0Q
1-
1D
0G
1L
1O
0K
0T
0W
0@
0]
1^
1P
1`
0L
1T
0[
04
0<
1;
18
19
0,
0$
1%
1(
1'
1d
1H
0P
0`
1X
15
16
08
09
1:
1+
1*
0(
0'
1&
0b
1`
0^
07
19
0;
0)
1'
0%
#225000
b111101 !
b101101 !
b1101101 !
b1001 "
b10001001 "
b10001000 "
b10001100 "
b1100101 !
b10101100 "
b1100111 !
0>
1F
1Q
0V
1Y
1B
0J
0M
1R
1U
0-
0D
1L
1W
1G
0O
0T
1@
0H
1^
0d
1b
1P
0G
1O
1\
1K
14
06
1;
05
17
18
1,
0*
1%
0+
1)
1(
1d
0b
0X
1H
0P
0`
0K
15
07
0:
16
08
09
1+
0)
0&
1*
0(
0'
0H
1P
1]
0^
06
18
1<
0;
0*
1(
1$
0%
#230000
b10101110 "
b1100011 !
b10100110 "
b100011 !
b11100110 "
b11100111 "
b11100011 "
b11000011 "
0E
0U
1>
1A
0F
0I
0Q
1V
1-
0L
0\
1D
1G
0O
0W
1[
0@
0d
1b
1`
0[
04
05
17
19
0,
0+
1)
1'
0b
1d
1H
0P
1X
07
15
16
08
1:
0)
1+
1*
0(
1&
0]
1^
0<
1;
0$
1%
#235000
b10100011 !
b10101011 !
b11101011 !
b10000011 "
b10000111 "
b10100111 "
1F
1Q
0V
1J
1U
1Z
0-
1K
1W
0H
0`
1b
1]
0^
1O
1\
06
09
17
1<
0;
0*
0'
1)
1$
0%
0b
0X
07
0:
0)
0&
1P
1^
18
1;
1(
1%
#240000
b10110111 "
b11001011 !
b10110101 "
b11001111 !
b10111101 "
b10111100 "
b10011100 "
1E
0R
0>
0A
1I
1N
0Q
1-
1L
0W
0D
1S
1H
1@
0d
1b
0P
0\
0G
16
14
05
17
08
1*
1,
0+
1)
0(
1X
1d
1`
0K
1:
15
19
1&
1+
1'
0^
0H
0;
06
0%
0*
#245000
b11011111 !
b11100 "
b11011101 !
b11010101 !
b1011100 "
b1011000 "
b1001000 "
b11110101 !
0F
0N
1V
0Y
0B
0J
1M
1R
0-
0L
1T
0S
1\
1W
1H
0X
0]
1^
0d
0b
0`
0O
1[
16
0:
0<
1;
05
07
09
1*
0&
0$
1%
0+
0)
0'
1b
1]
0^
1X
0T
17
1<
0;
1:
1)
1$
0%
1&
1P
0W
18
1(
1`
0[
19
1'
0X
0:
0&
#250000
b11110100 !
b1110100 !
b1001010 "
b1110000 !
b1000010 "
b1100000 !
b11000010 "
b1100010 !
1A
0I
1Y
0=
1B
0E
0M
0Z
1-
1G
0b
0@
0H
0P
07
04
06
08
0)
0,
0*
0(
1H
16
1*
#255000
b100010 !
b101010 !
b11000110 "
b11010110 "
b1010 !
b1011 !
b10001011 !
b11010100 "
b10001111 !
b11011100 "
b10001101 !
0A
1F
1I
1N
1=
0B
1E
1J
0R
0U
1Z
0-
0G
1L
1K
1O
0\
1P
1@
0`
1X
1^
0K
1S
18
14
09
1:
1;
1(
1,
0'
1&
1%
0H
1b
0P
0^
06
17
08
0;
0*
1)
0(
0%
1`
19
1'
#260000
b11001101 !
b11011110 "
b11001001 !
b11010110 "
1A
0I
0E
1U
1-
0L
1\
1d
0b
1H
0X
0O
15
07
16
0:
1+
0)
1*
0&
1b
1^
0S
17
1;
1)
1%
1P
18
1(
0`
09
0'
#265000
b11000001 !
b11000110 "
b11100001 !
b10100001 !
b10100101 !
0N
1E
0J
1R
0U
0-
1L
0\
0P
0H
0b
1`
1X
08
06
07
19
1:
0(
0*
0)
1'
1&
1b
0^
17
0;
1)
0%
#270000
b10110101 !
b1000110 "
b110101 !
b111101 !
b1010110 "
b11101 !
b1011101 !
1N
0Y
1J
1M
0R
1U
0Z
1-
1T
1O
1\
0]
0b
0`
0X
1S
0<
07
09
0:
0$
0)
0'
0&
1`
1P
1^
19
18
1;
1'
1(
1%
#275000
b1010111 "
b1110111 "
b1011111 !
b1011011 !
b1001011 !
b11001011 !
b11000011 !
b11100011 !
1B
0E
0J
0M
1R
1Z
1>
1Q
0-
1G
0L
0O
0T
1W
1D
0d
1H
1b
0P
1]
0^
0@
1K
0S
1[
05
16
17
08
1<
0;
04
0+
1*
1)
0(
1$
0%
0,
0H
0b
1P
1X
1d
06
07
18
1:
15
0*
0)
1(
1&
1+
1b
0`
17
09
1)
0'
#280000
b110111 "
b110011 "
b10110011 "
b10100011 "
b10000011 "
b11100001 !
b11100101 !
b11110101 !
b11111101 !
0B
1E
1J
1M
0F
0N
0Q
0V
1Y
1-
1L
1O
0K
0W
0[
0d
0b
1`
0X
1^
1T
0\
05
07
19
0:
1;
0+
0)
1'
0&
1%
0P
1X
1W
08
1:
0(
1&
0`
0^
1\
09
0;
0'
0%
0X
0:
0&
1^
1;
1%
#285000
b11111100 !
b10001011 "
b10111100 !
b10011100 !
b11001011 "
b11001111 "
b1001111 "
b1011111 "
b1111111 "
b10010100 !
1F
1I
1N
1Q
1V
0Y
0=
0J
0R
0U
0-
1K
1S
0\
1[
0D
1H
1P
0^
1@
0G
16
18
0;
14
1*
1(
0%
1,
1d
0K
15
1+
0H
06
0*
#290000
b10100 !
b10000 !
b1111011 "
b11111011 "
b11101011 "
b11001011 "
0F
0N
0Q
1Y
0E
0Z
1-
0L
0S
0W
0P
1`
0O
0[
08
19
0(
1'
1b
1X
0T
17
1:
1)
1&
1P
0]
1^
18
0<
1;
1(
0$
1%
0`
09
0'
#295000
b11001010 "
b10010 !
b10 !
b11 !
b11000010 "
b100011 !
b10100011 !
b11010010 "
b11110010 "
1=
1B
0M
1R
1Z
0>
0I
1N
1Q
0-
1G
1W
0d
1]
0^
0b
1[
05
1<
0;
07
0+
1$
0%
0)
1H
0X
16
0:
1*
0&
1^
1;
1%
#300000
b11110000 "
b11100011 !
b10110000 "
b11101011 !
b10110100 "
b10110101 "
b11111011 !
b10111101 "
b11011011 !
b10101101 "
1J
1M
0R
1U
1>
0A
1F
1I
0N
0V
1-
1O
0W
1\
1D
0G
1K
0[
1`
0@
1d
0H
1T
0\
1G
0K
19
04
15
06
1'
0,
1+
0*
0P
1X
0d
1H
1b
1W
1K
08
1:
05
16
17
0(
1&
0+
1*
1)
0`
0^
0H
0b
1\
09
0;
06
07
0'
0%
0*
0)
0X
1b
0:
17
0&
1)
1^
1;
1%
#305000
b11011010 !
b1011010 !
b10001101 "
b11010 !
b11001101 "
b11001001 "
0F
0Q
1V
0=
0U
0Z
0-
0K
0W
0\
1[
0D
1H
1`
1@
0^
0[
0G
16
19
14
0;
1*
1'
1,
0%
0b
1X
1d
07
1:
15
0)
1&
1+
0]
1^
0H
0<
1;
06
0$
1%
0*
#310000
b1001001 "
b10010 !
b1001000 "
b10 !
b100010 !
b1011000 "
b100011 !
b11000 "
1=
0J
0M
1R
0>
1N
0V
0Y
1-
0O
0T
1W
1S
1b
0`
0X
0^
0S
17
09
0:
0;
1)
0'
0&
0%
1P
1X
0W
18
1:
1(
1&
1`
19
1'
0X
0:
0&
#315000
b100001 !
b11010 "
b10100001 !
b111010 "
b111110 "
b1111110 "
1A
1F
1Q
1V
0B
1Z
0-
1W
1H
0`
1X
1^
1[
16
09
1:
1;
1*
0'
1&
1%
0X
0:
0&
1]
0^
1<
0;
1$
0%
#320000
b10100101 !
b1110110 "
b1110111 "
b1100111 "
b10100100 !
b1100101 "
b100101 "
1>
0A
0I
0N
0V
0=
1E
1-
0[
1L
0d
0b
0P
1X
0H
05
07
08
1:
06
0+
0)
0(
1&
0*
0]
1^
1b
0<
1;
17
0$
1%
1)
#325000
b10100101 "
b10101100 !
b10000101 "
b10000001 "
b10001001 "
b10001000 "
b10001010 "
1J
0>
1A
0F
1I
0Q
1Y
0-
1O
0L
0W
0@
1d
1H
1`
1]
0^
04
15
16
19
1<
0;
0,
1+
1*
1'
1$
0%
1P
0b
0X
18
07
0:
1(
0)
0&
#330000
b10001100 !
b1100 !
b10011010 "
b11011010 "
b1011010 "
b1111010 "
b1111011 "
1>
1N
1Q
1V
0Y
0R
0Z
1-
1S
1@
0P
1X
0]
1W
14
08
1:
0<
1,
0(
1&
0$
0`
1[
09
0'
0X
0:
0&
1^
1;
1%
#335000
b11100 !
b11000 !
b1110011 "
b1110001 "
b10011000 !
b110001 "
b10001 "
0A
0I
0Q
0V
0E
1M
1Z
0-
0O
0W
0[
1T
0d
1b
1`
1X
0H
1P
1]
0^
0S
05
17
19
1:
06
18
1<
0;
0+
1)
1'
1&
0*
1(
1$
0%
0P
0X
0]
1^
08
0:
0<
1;
0(
0&
0$
1%
#340000
b10011010 !
b10011011 !
b10101 "
b10111011 !
b10111111 !
b11101 "
b111101 "
1F
1I
1Q
1=
1B
1E
1R
1-
1L
1O
1W
1D
0b
0@
1d
1S
1G
07
04
15
0)
0,
1+
1b
1P
1X
0d
1K
17
18
1:
05
1)
1(
1&
0+
1H
16
1*
#345000
b10110111 !
b10111101 "
b11111101 "
b10110101 !
b11111001 "
b10110001 !
b11110001 "
0F
0I
1V
1Y
0B
0E
0J
0-
0L
0K
0O
1[
0G
0X
1]
0^
1d
0S
0:
1<
0;
15
0&
1$
0%
1+
0b
0P
1^
0H
07
08
1;
06
0)
0(
1%
0*
#350000
b11110000 "
b10100001 !
b11010000 "
b11010100 "
b10100101 !
1E
0M
0>
1F
0Q
1-
1L
0T
0D
1P
1@
0`
0W
18
14
09
1(
1,
0'
1b
1`
0d
0[
17
19
05
1)
1'
0+
1X
1:
1&
0^
0;
0%
#355000
b11000100 "
b100101 !
b100100 !
b100 !
b1100 !
b1110 !
b11000101 "
b11000001 "
0=
1B
1J
0R
0Z
1>
0F
0N
0-
1O
0L
1d
0b
0`
0]
1^
1H
0P
0O
15
07
09
0<
1;
16
08
1+
0)
0'
0$
1%
1*
0(
1P
1b
18
17
1(
1)
0P
08
0(
#360000
b10000001 "
b11110 !
b10100001 "
b11010 !
b10011010 !
b10011000 !
b10100101 "
0B
0E
1M
1Z
1F
1Q
0V
1-
0d
1P
1]
0^
1`
0X
05
18
1<
0;
19
0:
0+
1(
1$
0%
1'
0&
