adder_4bits/simulation/qsim/adder_4bits.msim.vcd
$comment
	File created using the following command:
		vcd file adder_4bits.msim.vcd -direction
$end
$date
	Sun Oct 10 14:29:59 2021
$end
$version
	ModelSim Version 10.1d
$end
$timescale
	1ps
$end
$scope module adder_4bits_vlg_vec_tst $end
$var reg 4 ! A [3:0] $end
$var reg 4 " B [3:0] $end
$var wire 1 # C $end
$var wire 1 $ S [3] $end
$var wire 1 % S [2] $end
$var wire 1 & S [1] $end
$var wire 1 ' S [0] $end
$var wire 1 ( sampler $end
$scope module i1 $end
$var wire 1 ) gnd $end
$var wire 1 * vcc $end
$var wire 1 + unknown $end
$var tri1 1 , devclrn $end
$var tri1 1 - devpor $end
$var tri1 1 . devoe $end
$var wire 1 / S[0]~output_o $end
$var wire 1 0 S[1]~output_o $end
$var wire 1 1 S[2]~output_o $end
$var wire 1 2 S[3]~output_o $end
$var wire 1 3 C~output_o $end
$var wire 1 4 B[0]~input_o $end
$var wire 1 5 A[0]~input_o $end
$var wire 1 6 Add0~0_combout $end
$var wire 1 7 B[1]~input_o $end
$var wire 1 8 A[1]~input_o $end
$var wire 1 9 Add0~1 $end
$var wire 1 : Add0~2_combout $end
$var wire 1 ; B[2]~input_o $end
$var wire 1 < A[2]~input_o $end
$var wire 1 = Add0~3 $end
$var wire 1 > Add0~4_combout $end
$var wire 1 ? B[3]~input_o $end
$var wire 1 @ A[3]~input_o $end
$var wire 1 A Add0~5 $end
$var wire 1 B Add0~6_combout $end
$var wire 1 C Add0~7 $end
$var wire 1 D Add0~8_combout $end
$upscope $end
$upscope $end
$enddefinitions $end
#0
$dumpvars
b0 !
b1 "
0#
1'
0&
0%
0$
x(
0)
1*
x+
1,
1-
1.
1/
00
01
02
03
14
05
16
07
08
09
0:
0;
0<
1=
0>
0?
0@
0A
0B
1C
0D
$end
#10000
b1 !
15
0(
19
06
0/
0'
1:
10
1&
#20000
b11 !
b11 "
b10 "
b10 !
04
17
05
18
1(
09
0=
0:
1>
00
11
0&
1%
#30000
b1010 "
b1110 "
b1100 "
b11 !
15
07
1;
1?
0(
1=
1A
16
1:
0>
1B
0A
0C
1/
10
01
12
1'
1&
0%
1$
1>
0B
1C
11
02
1%
0$
1B
1D
12
13
1$
1#
0D
03
0#
#40000
b111 !
b101 !
b1101 "
b101 "
b1 "
b11 "
b100 !
14
17
0;
0?
05
08
1<
1(
0B
02
0$
#50000
b111 "
b101 "
b101 !
15
07
1;
0(
19
1A
06
0:
0>
0/
00
01
0'
0&
0%
1:
1B
10
12
1&
1$
#60000
b111 !
b100 "
b1100 "
b1110 "
b110 !
04
17
1?
05
18
1(
09
0=
0C
0B
02
0$
0:
1>
1D
00
11
13
0&
1%
1#
#70000
b1111 "
b111 "
b111 !
15
14
0?
0(
19
1C
1B
12
1$
1:
0D
10
03
1&
0#
#80000
b1111 !
b1011 !
b1001 !
b1000 !
05
08
0<
1@
1(
09
0C
16
0:
0>
0B
1=
1/
00
01
02
1'
0&
0%
0$
1:
1D
0A
10
13
1&
1#
1>
1C
11
1%
1B
12
1$
0D
03
0#
#90000
b11 "
b1 "
b1001 !
15
07
0;
0(
19
06
0:
0>
0/
00
01
0'
0&
0%
1:
10
1&
#100000
b0 "
b1011 !
b10 "
b1010 !
05
18
04
17
1(
09
0=
0:
1>
00
11
0&
1%
#110000
b1010 "
b1110 "
b1111 "
b1011 !
15
14
1;
1?
0(
19
1A
0C
0>
0B
01
02
0%
0$
1:
1B
1D
10
12
13
1&
1$
1#
#120000
b1111 !
b1101 !
b111 "
b11 "
b1100 !
0;
0?
05
08
1<
1(
09
0B
16
0:
1=
02
1/
00
0$
1'
0&
1:
0A
10
1&
1>
1C
11
1%
1B
12
1$
0D
03
0#
#130000
b1 "
b0 "
b1000 "
b1101 !
15
04
07
1?
0(
0C
0:
0B
00
02
0&
0$
1D
13
1#
#140000
b1111 !
b1010 "
b1011 "
b1110 !
14
17
05
18
1(
0=
1A
0>
01
0%
1B
12
1$
#150000
b11 "
b1111 !
15
0?
0(
19
06
0B
0/
02
0'
0$
1:
10
1&
#160000
b111 !
b11 !
b111 "
b1 !
b101 "
b100 "
b0 !
04
07
1;
05
08
0<
0@
1(
09
1=
1C
1B
0A
12
1$
0:
1>
0D
00
11
03
0&
1%
0#
0B
02
0$
#170000
b1100 "
b1101 "
b1 !
15
14
1?
0(
19
1B
12
1$
1:
10
1&
#180000
b1001 "
b11 !
b1 "
b10 !
05
18
0;
0?
1(
09
0=
16
0:
0>
0B
1=
1/
00
01
02
1'
0&
0%
0$
1:
1>
10
11
1&
1%
0>
01
0%
#190000
b0 "
b100 "
b11 !
15
04
1;
0(
1>
11
1%
#200000
b111 !
b101 !
b0 "
b100 !
0;
05
08
1<
1(
06
0:
0/
00
0'
0&
#210000
b10 "
b1010 "
b1110 "
b101 !
15
17
1;
1?
0(
1A
16
1:
0>
1B
0C
1/
10
01
12
1'
1&
0%
1$
0B
02
0$
1D
13
1#
#220000
b111 !
b1100 "
b100 "
b110 !
07
0?
05
18
1(
1C
1B
06
12
0/
1$
0'
0D
03
0#
#230000
b0 "
b10 "
b1010 "
b111 !
15
17
0;
1?
0(
0=
0A
0C
16
0:
1>
0B
1A
1C
1/
00
11
02
1'
0&
1%
0$
0>
1B
1D
0C
01
12
13
0%
1$
1#
0B
0D
02
03
0$
0#
1D
13
1#
#240000
b1111 !
b1011 "
b1011 !
b1001 !
b1111 "
b111 "
b1000 !
14
1;
0?
05
08
0<
1@
1(
1=
1:
0A
10
1&
1>
1C
11
1%
1B
12
1$
0D
03
0#
#250000
b11 "
b1001 !
15
0;
0(
19
06
0>
0=
0/
01
0'
0%
0:
00
0&
1>
11
1%
#260000
b1 "
b1011 !
b101 "
b1010 !
05
18
07
1;
1(
09
1A
16
0>
1=
0C
1/
01
1'
0%
1:
0B
0A
10
02
1&
0$
1>
1D
1C
11
13
1%
1#
1B
12
1$
0D
03
0#
#270000
b1101 "
b1011 !
15
1?
0(
19
0C
06
0B
0=
0/
02
0'
0$
0:
1D
1A
00
13
0&
1#
0>
01
0%
1B
12
1$
#280000
b1100 "
b1111 !
b1110 "
b1101 !
b1010 "
b1100 !
05
08
1<
04
17
0;
1(
09
1=
1:
0A
10
1&
1>
11
1%
0B
02
0$
#290000
b1011 "
b1111 "
b1101 !
15
14
1;
0(
19
1A
0>
0=
01
0%
0:
1B
00
12
0&
1$
1>
11
1%
#300000
b1101 "
b1111 !
b1100 "
b1000 "
b1110 !
05
18
04
07
0;
1(
09
0>
1=
01
0%
1:
0A
10
1&
1>
11
1%
0B
02
0$
#310000
b0 "
b100 "
b1111 !
15
1;
0?
0(
1A
1C
16
0>
1B
0C
1/
01
12
1'
0%
1$
0B
0D
02
03
0$
0#
1D
13
1#
#320000
b111 !
b11 !
b1 !
b1100 "
b0 !
1?
05
08
0<
0@
1(
0A
06
0:
1>
1C
0/
00
11
0'
0&
1%
1B
12
1$
0D
03
0#
#330000
b1110 "
b1111 "
b1011 "
b11 "
b1 !
15
14
17
0;
0?
0(
19
1:
0>
0B
0=
10
01
02
1&
0%
0$
0:
00
0&
1>
11
1%
#340000
b11 !
b1 "
b0 "
b10 !
04
07
05
18
1(
09
1=
1:
10
1&
0>
01
0%
#350000
b10 "
b11 !
15
17
0(
0=
16
0:
1/
00
1'
0&
1>
11
1%
#360000
b111 !
b110 "
b1110 "
b101 !
b1111 "
b1101 "
b100 !
14
07
1;
1?
05
08
1<
1(
1=
1A
1B
0C
12
1$
0>
0B
01
02
0%
0$
1D
13
1#
#370000
b101 "
b100 "
b101 !
15
04
0?
0(
1C
1B
12
1$
0D
03
0#
#380000
b111 !
b110 "
b1110 "
b110 !
17
1?
05
18
1(
0=
0C
0B
06
02
0/
0$
0'
1>
1D
11
13
1%
1#
#390000
b1010 "
b1000 "
b111 !
15
07
0;
0(
1=
16
1:
0>
0A
1/
10
01
1'
1&
0%
1>
1C
11
1%
1B
12
1$
0D
03
0#
#400000
b1111 !
b1011 !
b1001 !
b1000 !
05
08
0<
1@
1(
0C
06
0:
0>
0B
0/
00
01
02
0'
0&
0%
0$
1D
13
1#
#410000
b0 "
b10 "
b1001 !
15
17
0?
0(
1C
16
1:
1B
1/
10
12
1'
1&
1$
0D
03
0#
#420000
b11 "
b1011 !
b1010 !
05
18
14
1(
0=
0:
00
0&
1>
11
1%
#430000
b1011 "
b1001 "
b1011 !
15
07
1?
0(
19
1=
0C
06
1:
0B
0=
0/
10
02
0'
1&
0$
0:
0>
1D
00
01
13
0&
0%
1#
1>
11
1%
#440000
b1111 !
b1101 !
b1100 !
05
08
1<
1(
09
1=
1A
16
1:
0>
0A
1/
10
01
1'
1&
0%
0:
1>
1B
00
11
12
0&
1%
1$
0B
02
0$
#450000
b1000 "
b0 "
b1101 !
15
04
0?
0(
1C
1B
12
1$
0D
03
0#
#460000
b1111 !
b1 "
b1110 !
14
05
18
1(
1:
10
1&
#470000
b101 "
b111 "
b1111 "
b1110 "
b1111 !
15
04
17
1;
1?
0(
0=
1A
0C
0:
0>
0B
00
01
02
0&
0%
0$
1>
1B
1D
11
12
13
1%
1$
1#
#480000
b111 !
b11 !
b1 !
b1010 "
b1000 "
b0 !
07
0;
05
08
0<
0@
1(
1=
0A
06
0B
1C
0/
02
0'
0$
0>
1B
01
12
0%
1$
0D
03
0#
#490000
b0 "
b100 "
b110 "
b1 !
15
17
1;
0?
0(
16
1:
1>
0B
1/
10
11
02
1'
1&
1%
0$
#500000
b111 "
b11 !
b1111 "
b1011 "
b1001 "
b10 !
05
18
14
07
0;
1?
1(
0>
1B
01
12
0%
1$
#510000
b11 !
15
0(
19
06
0=
0/
0'
0:
00
0&
1>
11
1%
#520000
b111 !
b1000 "
b101 !
b0 "
b100 "
b110 "
b100 !
04
17
1;
0?
05
08
1<
1(
09
1A
0B
1=
02
0$
1:
1B
10
12
1&
1$
0>
01
0%
#530000
b1110 "
b1100 "
b101 !
15
07
1?
0(
0C
16
0:
0B
1/
00
02
1'
0&
0$
1D
13
1#
#540000
b111 !
b1000 "
b0 "
b10 "
b110 !
17
0;
0?
05
18
1(
0=
0A
1C
1>
1B
06
1A
11
12
0/
1%
1$
0'
0>
0B
0D
01
02
03
0%
0$
0#
1B
12
1$
#550000
b110 "
b1110 "
b1100 "
b111 !
15
07
1;
1?
0(
1=
0C
16
1:
1>
0B
1/
10
11
02
1'
1&
1%
0$
0>
1D
01
13
0%
1#
#560000
b1111 !
b1011 !
b1101 "
b1001 !
b101 "
b1000 !
14
0?
05
08
0<
1@
1(
0A
0:
1>
1C
00
11
0&
1%
1B
12
1$
0D
03
0#
#570000
b1101 "
b1001 !
15
1?
0(
19
0C
06
0B
0/
02
0'
0$
1:
1D
10
13
1&
1#
#580000
b1001 "
b1011 "
b1011 !
b1010 !
05
18
17
0;
1(
09
0=
16
0>
1/
01
1'
0%
0:
1>
00
11
0&
1%
#590000
b1010 "
b10 "
b110 "
b1011 !
15
04
1;
0?
0(
1A
1C
0>
1B
0C
01
12
0%
1$
0B
0D
02
03
0$
0#
1D
13
1#
#600000
b1111 !
b1101 !
b10 "
b1100 !
0;
05
08
1<
1(
1=
06
1:
0A
0/
10
0'
1&
1>
1C
11
1%
1B
12
1$
0D
03
0#
#610000
b0 "
b1 "
b101 "
b1101 !
15
14
07
1;
0(
19
1A
0:
0>
0C
00
01
0&
0%
1:
0B
10
02
1&
0$
1D
13
1#
#620000
b1101 "
b1111 !
b1111 "
b1110 !
05
18
17
1?
1(
09
0=
16
1B
1/
12
1'
1$
0:
1>
00
11
0&
1%
#630000
b111 "
b1111 !
15
0?
0(
19
06
0B
0/
02
0'
0$
1:
10
1&
#640000
b111 !
b11 !
b110 "
b1 !
b0 !
04
05
08
0<
0@
1(
09
1C
0:
0>
1B
1=
00
01
12
0&
0%
1$
1:
0D
0A
10
03
1&
0#
1>
11
1%
0B
02
0$
#650000
b100 "
b1 !
15
07
0(
16
0:
1/
00
1'
0&
#660000
b1100 "
b1101 "
b11 !
b10 !
05
18
14
1?
1(
1:
1B
10
12
1&
1$
#670000
b1001 "
b11 !
15
0;
0(
19
06
0>
0=
0/
01
0'
0%
0:
00
0&
1>
11
1%
#680000
b111 !
b101 !
b1101 "
b100 !
1;
05
08
1<
1(
1A
09
1=
16
1:
0C
1/
10
1'
1&
0B
0:
0>
02
00
01
0$
0&
0%
1D
13
1#
#690000
b1111 "
b111 "
b110 "
b101 !
15
04
17
0?
0(
1C
1:
1B
10
12
1&
1$
0D
03
0#
#700000
b111 !
b110 !
05
18
1(
0=
06
0:
0/
00
0'
0&
1>
11
1%
#710000
b10 "
b1010 "
b1011 "
b111 !
15
14
0;
1?
0(
19
0C
0>
0B
01
02
0%
0$
1:
1D
10
13
1&
1#
#720000
b1111 !
b1011 !
b1001 !
b11 "
b1000 !
0?
05
08
0<
1@
1(
09
0A
16
0:
1>
1=
1C
1/
00
11
1'
0&
1%
1:
1B
10
12
1&
1$
0>
0D
01
03
0%
0#
#730000
b1 "
b1001 "
b1001 !
15
07
1?
0(
19
0C
06
0:
0B
0/
00
02
0'
0&
0$
1:
1D
10
13
1&
1#
#740000
b1101 "
b1011 !
b1010 !
05
18
1;
1(
09
0=
16
0:
1>
1=
1A
1/
00
11
1'
0&
1%
1:
0>
0A
10
01
1&
0%
1>
1B
11
12
1%
1$
0B
02
0$
#750000
b101 "
b1011 !
15
0?
0(
19
1C
06
1B
0=
0/
12
0'
1$
0:
0D
1A
00
03
0&
0#
0>
0C
01
0%
0B
02
0$
1D
13
1#
#760000
b100 "
b1111 !
b110 "
b10 "
b1101 !
b1010 "
b1100 !
05
08
1<
04
17
0;
1?
1(
09
1B
1=
12
1$
1:
0A
10
1&
1>
11
1%
0B
02
0$
#770000
b1011 "
b1111 "
b111 "
b1101 !
15
14
1;
0?
0(
19
1A
1C
0>
1B
0=
0C
01
12
0%
1$
0:
0B
0D
00
02
03
0&
0$
0#
1>
1D
11
13
1%
1#
#780000
b1111 !
b110 "
b10 "
b1010 "
b1110 !
04
0;
1?
05
18
1(
09
0>
1B
1:
01
12
10
0%
1$
1&
0:
00
0&
#790000
b1110 "
b1111 !
15
1;
0(
16
1>
1/
11
1'
1%
#800000
b111 !
b11 !
b1100 "
b1 !
b100 "
b0 !
07
0?
05
08
0<
0@
1(
1=
1C
06
0>
0A
0/
01
0'
0%
1>
0D
11
03
1%
0#
0B
02
0$
#810000
b110 "
b1 !
15
17
0(
16
1:
1/
10
1'
1&
#820000
b111 "
b11 "
b11 !
b1011 "
b1001 "
b10 !
05
18
14
07
0;
1?
1(
0>
1B
01
12
0%
1$
#830000
b1 "
b11 !
15
0?
0(
19
06
0B
0=
0/
02
0'
0$
0:
00
0&
1>
11
1%
#840000
b111 !
b0 "
b100 "
b101 !
b110 "
b1110 "
b100 !
04
17
1;
1?
05
08
1<
1(
09
1A
1B
1=
0C
12
1$
1:
0B
10
02
1&
0$
0>
1D
01
13
0%
1#
#850000
b1111 "
b1011 "
b101 !
15
14
0;
0(
19
0A
1>
0=
1C
11
1%
0:
1B
1A
00
12
0&
1$
0>
0D
0C
01
03
0%
0#
0B
02
0$
1D
13
1#
#860000
b111 !
b1001 "
b1 "
b110 !
07
0?
05
18
1(
1C
09
1B
16
1=
12
1/
1$
1'
0D
1:
0A
03
10
0#
1&
1>
11
1%
0B
02
0$
#870000
b11 "
b1011 "
b111 !
15
17
1?
0(
19
0=
06
0:
1B
1A
0/
00
12
0'
0&
1$
1:
0>
0C
10
01
1&
0%
0B
02
0$
1D
13
1#
#880000
b1111 !
b1011 !
b1010 "
b1110 "
b1001 !
b1100 "
b100 "
b1000 !
04
07
1;
0?
05
08
0<
1@
1(
09
1=
0A
0:
1>
1C
00
11
0&
1%
1B
12
1$
0D
03
0#
#890000
b0 "
b10 "
b1001 !
15
17
0;
0(
16
1:
0>
1/
10
01
1'
1&
0%
#900000
b1011 !
b1010 "
b1110 "
b1010 !
1;
1?
05
18
1(
0C
0=
1>
0B
06
0:
1A
11
02
0/
00
1%
0$
0'
0&
1D
0>
13
01
1#
0%
1B
12
1$
#910000
b1100 "
b100 "
b1011 !
15
07
0?
0(
1=
16
1:
0B
0A
1/
10
02
1'
1&
0$
1>
1C
11
1%
1B
12
1$
0D
03
0#
#920000
b1111 !
b101 "
b1101 !
b1 "
b11 "
b1100 !
14
17
0;
05
08
1<
1(
#930000
b1011 "
b1111 "
b1101 "
b1101 !
15
07
1;
1?
0(
19
1A
0C
06
0:
0>
0B
0/
00
01
02
0'
0&
0%
0$
1:
1B
1D
10
12
13
1&
1$
1#
#940000
b1100 "
b1111 !
b1110 !
05
18
04
1(
09
0=
0:
1=
00
0&
1:
1>
10
11
1&
1%
0>
01
0%
#950000
b1000 "
b1010 "
b1111 !
15
17
0;
0(
0=
0A
16
0:
1>
1A
1/
00
11
1'
0&
1%
0>
0B
01
02
0%
0$
1B
12
1$
#960000
b111 !
b11 !
b10 "
b1 !
b110 "
b0 !
1;
0?
05
08
0<
0@
1(
1C
1=
06
1:
0A
0/
10
0'
1&
0D
1>
03
11
0#
1%
0B
02
0$
#970000
b1 !
15
0(
16
1/
1'
#980000
b11 !
b10 !
05
18
1(
0=
06
0:
1A
0/
00
0'
0&
0>
01
0%
1B
12
1$
#990000
b100 "
b1100 "
b1000 "
b11 !
15
07
0;
1?
0(
1=
0A
0C
16
1:
1>
0B
1C
1/
10
11
02
1'
1&
1%
0$
0>
1B
1D
01
12
13
0%
1$
1#
0D
03
0#
