counter_20_to_A0/simulation/qsim/counter_20_to_A0.msim.vcd
$comment
	File created using the following command:
		vcd file counter_20_to_A0.msim.vcd -direction
$end
$date
	Sun Oct 10 15:03:02 2021
$end
$version
	ModelSim Version 10.1d
$end
$timescale
	1ps
$end
$scope module counter_20_to_A0_vlg_vec_tst $end
$var reg 1 ! clk $end
$var reg 1 " reset $end
$var reg 1 # up_or_down $end
$var wire 1 $ output_num [7] $end
$var wire 1 % output_num [6] $end
$var wire 1 & output_num [5] $end
$var wire 1 ' output_num [4] $end
$var wire 1 ( output_num [3] $end
$var wire 1 ) output_num [2] $end
$var wire 1 * output_num [1] $end
$var wire 1 + output_num [0] $end
$var wire 1 , sampler $end
$scope module i1 $end
$var wire 1 - gnd $end
$var wire 1 . vcc $end
$var wire 1 / unknown $end
$var tri1 1 0 devclrn $end
$var tri1 1 1 devpor $end
$var tri1 1 2 devoe $end
$var wire 1 3 output_num[0]~output_o $end
$var wire 1 4 output_num[1]~output_o $end
$var wire 1 5 output_num[2]~output_o $end
$var wire 1 6 output_num[3]~output_o $end
$var wire 1 7 output_num[4]~output_o $end
$var wire 1 8 output_num[5]~output_o $end
$var wire 1 9 output_num[6]~output_o $end
$var wire 1 : output_num[7]~output_o $end
$var wire 1 ; clk~input_o $end
$var wire 1 < Add1~0_combout $end
$var wire 1 = up_or_down~input_o $end
$var wire 1 > Add1~1 $end
$var wire 1 ? Add1~2_combout $end
$var wire 1 @ Add0~2 $end
$var wire 1 A Add0~3_combout $end
$var wire 1 B Add0~5_combout $end
$var wire 1 C reset~input_o $end
$var wire 1 D output_num[1]~reg0_q $end
$var wire 1 E Add1~3 $end
$var wire 1 F Add1~4_combout $end
$var wire 1 G Add0~4 $end
$var wire 1 H Add0~6_combout $end
$var wire 1 I Add0~8_combout $end
$var wire 1 J output_num[2]~reg0_q $end
$var wire 1 K Add1~5 $end
$var wire 1 L Add1~6_combout $end
$var wire 1 M Add0~7 $end
$var wire 1 N Add0~9_combout $end
$var wire 1 O Add0~11_combout $end
$var wire 1 P output_num[3]~reg0_q $end
$var wire 1 Q Add1~7 $end
$var wire 1 R Add1~8_combout $end
$var wire 1 S Add0~10 $end
$var wire 1 T Add0~12_combout $end
$var wire 1 U Add0~14_combout $end
$var wire 1 V output_num[4]~reg0_q $end
$var wire 1 W Add0~13 $end
$var wire 1 X Add0~15_combout $end
$var wire 1 Y Equal1~0_combout $end
$var wire 1 Z Equal1~1_combout $end
$var wire 1 [ Equal1~2_combout $end
$var wire 1 \ Add1~9 $end
$var wire 1 ] Add1~10_combout $end
$var wire 1 ^ Add0~17_combout $end
$var wire 1 _ output_num[5]~reg0_q $end
$var wire 1 ` Add1~11 $end
$var wire 1 a Add1~12_combout $end
$var wire 1 b Add0~16 $end
$var wire 1 c Add0~18_combout $end
$var wire 1 d Add0~20_combout $end
$var wire 1 e output_num[6]~reg0_q $end
$var wire 1 f Add1~13 $end
$var wire 1 g Add1~14_combout $end
$var wire 1 h Add0~19 $end
$var wire 1 i Add0~21_combout $end
$var wire 1 j output_num~5_combout $end
$var wire 1 k output_num~4_combout $end
$var wire 1 l output_num[7]~reg0_q $end
$var wire 1 m Add0~0_combout $end
$var wire 1 n Add0~1_combout $end
$var wire 1 o output_num~2_combout $end
$var wire 1 p output_num~3_combout $end
$var wire 1 q output_num[0]~reg0_q $end
$upscope $end
$upscope $end
$enddefinitions $end
#0
$dumpvars
0!
0"
0#
0+
0*
0)
0(
0'
1&
0%
0$
x,
0-
1.
x/
10
11
12
03
04
05
06
07
18
09
0:
0;
1<
0=
0>
1?
0@
0A
0B
0C
0D
1E
1F
1G
0H
0I
0J
0K
1L
0M
0N
0O
0P
1Q
1R
1S
0T
0U
0V
0W
1X
1Y
1Z
1[
0\
0]
0^
0_
0`
0a
1b
0c
0d
0e
1f
0g
0h
0i
1j
0k
0l
0m
1n
1o
1p
0q
$end
#5000
1!
1;
0,
#10000
0!
0;
1,
#15000
1!
1;
0,
#20000
1"
0!
1C
0;
1,
#25000
1!
1;
0,
1q
0Y
1@
0n
1>
0<
13
1+
0Z
1A
0o
0E
0?
0p
0[
1B
1K
0F
0Q
0L
1\
0R
1]
#30000
0!
0;
1,
#35000
1!
1;
0,
0q
1D
1Y
0@
1n
0>
1<
0G
0A
1?
03
14
0+
1*
1G
1A
1o
0?
1H
0B
0H
1B
1p
1I
0I
#40000
0!
0;
1,
#45000
1!
1;
0,
1q
0Y
1@
0n
1>
0<
13
1+
0G
0A
0o
1?
1H
0B
0p
1I
#50000
0!
0;
1,
#55000
1!
1;
0,
0q
1J
0D
1Y
0@
1n
0>
1<
1M
0H
1F
1G
1A
0?
03
15
04
0+
1)
0*
0A
1o
1E
1?
1N
0I
0M
1H
1B
0B
1p
0F
1O
0N
1I
0O
#60000
0!
0;
1,
#65000
1!
1;
0,
1q
0Y
1@
0n
1>
0<
13
1+
1A
0o
0E
0?
1B
0p
1F
#70000
0!
0;
1,
#75000
1!
1;
0,
0q
1D
1Y
0@
1n
0>
1<
0G
0A
1?
03
14
0+
1*
1G
1A
1o
0?
1M
0H
0B
0M
1H
1B
1p
1N
0I
0N
1I
1O
0O
#80000
0!
0;
1,
#85000
1!
1;
0,
1q
0Y
1@
0n
1>
0<
13
1+
0G
0A
0o
1?
1M
0H
0B
0p
1N
0I
1O
#90000
0!
0;
1,
#95000
1!
1;
0,
0q
1P
0J
0D
1Y
0@
1n
0>
1<
0S
0N
1L
0M
1H
0F
1G
1A
0?
03
16
05
04
0+
1(
0)
0*
0A
1o
1E
1?
1T
0O
1S
1N
1I
0H
1B
0B
1p
0K
1F
1U
0T
1O
0I
0L
0U
#100000
0!
0;
1,
#105000
1!
1;
0,
1q
0Y
1@
0n
1>
0<
13
1+
1A
0o
0E
0?
1B
0p
1K
0F
1L
#110000
0!
0;
1,
#115000
1!
1;
0,
0q
1D
1Y
0@
1n
0>
1<
0G
0A
1?
03
14
0+
1*
1G
1A
1o
0?
1H
0B
0H
1B
1p
1I
0I
#120000
0!
0;
1,
#125000
1!
1;
0,
1q
0Y
1@
0n
1>
0<
13
1+
0G
0A
0o
1?
1H
0B
0p
1I
#130000
0!
0;
1,
#135000
1!
1;
0,
0q
1J
0D
1Y
0@
1n
0>
1<
1M
0H
1F
1G
1A
0?
03
15
04
0+
1)
0*
0A
1o
1E
1?
0S
0N
0I
0M
1H
1B
0B
1p
0F
1T
0O
1S
1N
1I
1U
0T
1O
0U
#140000
0!
0;
1,
#145000
1!
1;
0,
1q
0Y
1@
0n
1>
0<
13
1+
1A
0o
0E
0?
1B
0p
1F
#150000
0!
0;
1,
#155000
1!
1;
0,
0q
1D
1Y
0@
1n
0>
1<
0G
0A
1?
03
14
0+
1*
1G
1A
1o
0?
1M
0H
0B
0M
1H
1B
1p
0S
0N
0I
1S
1N
1I
1T
0O
0T
1O
1U
0U
#160000
0!
0;
1,
#165000
1!
1;
0,
1q
0Y
1@
0n
1>
0<
13
1+
0G
0A
0o
1?
1M
0H
0B
0p
0S
0N
0I
1T
0O
1U
#170000
0!
0;
1,
#175000
1!
1;
0,
0q
1V
0P
0J
0D
0@
1n
0>
1<
1W
0T
1R
1S
1N
0L
0M
1H
0F
1G
1A
0?
03
17
06
05
04
0+
1'
0(
0)
0*
0A
1o
1E
1?
0b
0X
0U
0W
1T
1O
0N
1I
0H
1B
0B
1p
0K
1F
1c
1^
1b
1X
1U
0O
0I
1Q
1L
1d
0c
0^
0R
0d
#180000
0!
0;
1,
#185000
1!
1;
0,
1q
1@
0n
1>
0<
13
1+
1A
0o
0E
0?
1B
0p
1K
0F
0Q
0L
1R
#190000
0!
0;
1,
#195000
1!
1;
0,
0q
1D
0@
1n
0>
1<
0G
0A
1?
03
14
0+
1*
1G
1A
1o
0?
1H
0B
0H
1B
1p
1I
0I
#200000
0!
0;
1,
#205000
1!
1;
0,
1q
1@
0n
1>
0<
13
1+
0G
0A
0o
1?
1H
0B
0p
1I
#210000
0!
0;
1,
#215000
1!
1;
0,
0q
1J
0D
0@
1n
0>
1<
1M
0H
1F
1G
1A
0?
03
15
04
0+
1)
0*
0A
1o
1E
1?
1N
0I
0M
1H
1B
0B
1p
0F
1O
0N
1I
0O
#220000
0!
0;
1,
#225000
1!
1;
0,
1q
1@
0n
1>
0<
13
1+
1A
0o
0E
0?
1B
0p
1F
#230000
0!
0;
1,
#235000
1!
1;
0,
0q
1D
0@
1n
0>
1<
0G
0A
1?
03
14
0+
1*
1G
1A
1o
0?
1M
0H
0B
0M
1H
1B
1p
1N
0I
0N
1I
1O
0O
#240000
0!
0;
1,
#245000
1!
1;
0,
1q
1@
0n
1>
0<
13
1+
0G
0A
0o
1?
1M
0H
0B
0p
1N
0I
1O
#250000
0!
0;
1,
#255000
1!
1;
0,
0q
1P
0J
0D
0@
1n
0>
1<
0S
0N
1L
0M
1H
0F
1G
1A
0?
03
16
05
04
0+
1(
0)
0*
0A
1o
1E
1?
1W
0T
0O
1S
1N
1I
0H
1B
0B
1p
0K
1F
0b
0X
0U
0W
1T
1O
0I
0L
1c
1^
1b
1X
1U
1d
0c
0^
0d
#260000
0!
0;
1,
#265000
1!
1;
0,
1q
1@
0n
1>
0<
13
1+
1A
0o
0E
0?
1B
0p
1K
0F
1L
#270000
0!
0;
1,
#275000
1!
1;
0,
0q
1D
0@
1n
0>
1<
0G
0A
1?
03
14
0+
1*
1G
1A
1o
0?
1H
0B
0H
1B
1p
1I
0I
#280000
0!
0;
1,
#285000
1!
1;
0,
1q
1@
0n
1>
0<
13
1+
0G
0A
0o
1?
1H
0B
0p
1I
#290000
0!
0;
1,
#295000
1!
1;
0,
0q
1J
0D
0@
1n
0>
1<
1M
0H
1F
1G
1A
0?
03
15
04
0+
1)
0*
0A
1o
1E
1?
0S
0N
0I
0M
1H
1B
0B
1p
0F
1W
0T
0O
1S
1N
1I
0b
0X
0U
0W
1T
1O
1c
1^
1b
1X
1U
1d
0c
0^
0d
#300000
0!
0;
1,
#305000
1!
1;
0,
1q
1@
0n
1>
0<
13
1+
1A
0o
0E
0?
1B
0p
1F
#310000
0!
0;
1,
#315000
1!
1;
0,
0q
1D
0@
1n
0>
1<
0G
0A
1?
03
14
0+
1*
1G
1A
1o
0?
1M
0H
0B
0M
1H
1B
1p
0S
0N
0I
1S
1N
1I
1W
0T
0O
0W
1T
1O
0b
0X
0U
1b
1X
1U
1c
1^
0c
0^
1d
0d
#320000
0!
0;
1,
#325000
1!
1;
0,
1q
1@
0n
1>
0<
13
1+
0G
0A
0o
1?
1M
0H
0B
0p
0S
0N
0I
1W
0T
0O
0b
0X
0U
1c
1^
1d
#330000
0!
0;
1,
#335000
1!
1;
0,
1_
0q
1e
0V
0P
0J
0D
0]
1b
1X
0@
1n
0>
1<
1h
0c
1a
0W
1T
0R
1S
1N
0L
0M
1H
0F
1G
1A
0?
08
03
19
07
06
05
04
0&
0+
1%
0'
0(
0)
0*
0^
0h
1c
0A
1o
1E
1?
1i
0d
0X
1U
0T
1O
0N
1I
0H
1B
0i
1d
0B
1p
0K
1F
1k
1^
0U
0O
0I
0k
1Q
1L
0\
1R
1`
1]
0a
#340000
0!
0;
1,
#345000
1!
1;
0,
1q
1@
0n
1>
0<
13
1+
1A
0o
0E
0?
1B
0p
1K
0F
0Q
0L
1\
0R
0`
0]
1a
#350000
0!
0;
1,
#355000
1!
1;
0,
0q
1D
0@
1n
0>
1<
0G
0A
1?
03
14
0+
1*
1G
1A
1o
0?
1H
0B
0H
1B
1p
1I
0I
#360000
0!
0;
1,
#365000
1!
1;
0,
1q
1@
0n
1>
0<
13
1+
0G
0A
0o
1?
1H
0B
0p
1I
#370000
0!
0;
1,
#375000
1!
1;
0,
0q
1J
0D
0@
1n
0>
1<
1M
0H
1F
1G
1A
0?
03
15
04
0+
1)
0*
0A
1o
1E
1?
1N
0I
0M
1H
1B
0B
1p
0F
1O
0N
1I
0O
#380000
0!
0;
1,
#385000
1!
1;
0,
1q
1@
0n
1>
0<
13
1+
1A
0o
0E
0?
1B
0p
1F
#390000
0!
0;
1,
#395000
1!
1;
0,
0q
1D
0@
1n
0>
1<
0G
0A
1?
03
14
0+
1*
1G
1A
1o
0?
1M
0H
0B
0M
1H
1B
1p
1N
0I
0N
1I
1O
0O
#400000
0!
0;
1,
#405000
1!
1;
0,
1q
1@
0n
1>
0<
13
1+
0G
0A
0o
1?
1M
0H
0B
0p
1N
0I
1O
#410000
0!
0;
1,
#415000
1!
1;
0,
0q
1P
0J
0D
0@
1n
0>
1<
0S
0N
1L
0M
1H
0F
1G
1A
0?
03
16
05
04
0+
1(
0)
0*
0A
1o
1E
1?
1T
0O
1S
1N
1I
0H
1B
0B
1p
0K
1F
1U
0T
1O
0I
0L
0U
#420000
0!
0;
1,
#425000
1!
1;
0,
1q
1@
0n
1>
0<
13
1+
1A
0o
0E
0?
1B
0p
1K
0F
1L
#430000
0!
0;
1,
#435000
1!
1;
0,
0q
1D
0@
1n
0>
1<
0G
0A
1?
03
14
0+
1*
1G
1A
1o
0?
1H
0B
0H
1B
1p
1I
0I
#440000
0!
0;
1,
#445000
1!
1;
0,
1q
1@
0n
1>
0<
13
1+
0G
0A
0o
1?
1H
0B
0p
1I
#450000
0!
0;
1,
#455000
1!
1;
0,
0q
1J
0D
0@
1n
0>
1<
1M
0H
1F
1G
1A
0?
03
15
04
0+
1)
0*
0A
1o
1E
1?
0S
0N
0I
0M
1H
1B
0B
1p
0F
1T
0O
1S
1N
1I
1U
0T
1O
0U
#460000
0!
0;
1,
#465000
1!
1;
0,
1q
1@
0n
1>
0<
13
1+
1A
0o
0E
0?
1B
0p
1F
#470000
0!
0;
1,
#475000
1!
1;
0,
0q
1D
0@
1n
0>
1<
0G
0A
1?
03
14
0+
1*
1G
1A
1o
0?
1M
0H
0B
0M
1H
1B
1p
0S
0N
0I
1S
1N
1I
1T
0O
0T
1O
1U
0U
#480000
0!
0;
1,
#485000
1!
1;
0,
1q
1@
0n
1>
0<
13
1+
0G
0A
0o
1?
1M
0H
0B
0p
0S
0N
0I
1T
0O
1U
#490000
0!
0;
1,
#495000
1!
1;
0,
0q
1V
0P
0J
0D
0@
1n
0>
1<
1W
0T
1R
1S
1N
0L
0M
1H
0F
1G
1A
0?
03
17
06
05
04
0+
1'
0(
0)
0*
0A
1o
1E
1?
1X
0U
0W
1T
1O
0N
1I
0H
1B
0B
1p
0K
1F
0^
0X
1U
0O
0I
1Q
1L
1^
0R
#500000
0!
0;
1,
#505000
1!
1;
0,
1q
1@
0n
1>
0<
13
1+
1A
0o
0E
0?
1B
0p
1K
0F
0Q
0L
1R
#510000
0!
0;
1,
#515000
1!
1;
0,
0q
1D
0@
1n
0>
1<
0G
0A
1?
03
14
0+
1*
1G
1A
1o
0?
1H
0B
0H
1B
1p
1I
0I
#520000
0!
0;
1,
#525000
1!
1;
0,
1q
1@
0n
1>
0<
13
1+
0G
0A
0o
1?
1H
0B
0p
1I
#530000
0!
0;
1,
#535000
1!
1;
0,
0q
1J
0D
0@
1n
0>
1<
1M
0H
1F
1G
1A
0?
03
15
04
0+
1)
0*
0A
1o
1E
1?
1N
0I
0M
1H
1B
0B
1p
0F
1O
0N
1I
0O
#540000
0!
0;
1,
#545000
1!
1;
0,
1q
1@
0n
1>
0<
13
1+
1A
0o
0E
0?
1B
0p
1F
#550000
0!
0;
1,
#555000
1!
1;
0,
0q
1D
0@
1n
0>
1<
0G
0A
1?
03
14
0+
1*
1G
1A
1o
0?
1M
0H
0B
0M
1H
1B
1p
1N
0I
0N
1I
1O
0O
#560000
0!
0;
1,
#565000
1!
1;
0,
1q
1@
0n
1>
0<
13
1+
0G
0A
0o
1?
1M
0H
0B
0p
1N
0I
1O
#570000
0!
0;
1,
#575000
1!
1;
0,
0q
1P
0J
0D
0@
1n
0>
1<
0S
0N
1L
0M
1H
0F
1G
1A
0?
03
16
05
04
0+
1(
0)
0*
0A
1o
1E
1?
1W
0T
0O
1S
1N
1I
0H
1B
0B
1p
0K
1F
1X
0U
0W
1T
1O
0I
0L
0^
0X
1U
1^
#580000
0!
0;
1,
#585000
1!
1;
0,
1q
1@
0n
1>
0<
13
1+
1A
0o
0E
0?
1B
0p
1K
0F
1L
#590000
0!
0;
1,
#595000
1!
1;
0,
0q
1D
0@
1n
0>
1<
0G
0A
1?
03
14
0+
1*
1G
1A
1o
0?
1H
0B
0H
1B
1p
1I
0I
#600000
0!
0;
1,
#605000
1!
1;
0,
1q
1@
0n
1>
0<
13
1+
0G
0A
0o
1?
1H
0B
0p
1I
#610000
0!
0;
1,
#615000
1!
1;
0,
0q
1J
0D
0@
1n
0>
1<
1M
0H
1F
1G
1A
0?
03
15
04
0+
1)
0*
0A
1o
1E
1?
0S
0N
0I
0M
1H
1B
0B
1p
0F
1W
0T
0O
1S
1N
1I
1X
0U
0W
1T
1O
0^
0X
1U
1^
#620000
0!
0;
1,
#625000
1!
1;
0,
1q
1@
0n
1>
0<
13
1+
1A
0o
0E
0?
1B
0p
1F
#630000
0!
0;
1,
#635000
1!
1;
0,
0q
1D
0@
1n
0>
1<
0G
0A
1?
03
14
0+
1*
1G
1A
1o
0?
1M
0H
0B
0M
1H
1B
1p
0S
0N
0I
1S
1N
1I
1W
0T
0O
0W
1T
1O
1X
0U
0X
1U
0^
1^
#640000
0!
0;
1,
#645000
1!
1;
0,
1q
1@
0n
1>
0<
13
1+
0G
0A
0o
1?
1M
0H
0B
0p
0S
0N
0I
1W
0T
0O
1X
0U
0^
#650000
0!
0;
1,
#655000
1!
1;
0,
0_
0q
0V
0P
0J
0D
1]
0b
0X
0@
1n
0>
1<
0W
1T
0R
1S
1N
0L
0M
1H
0F
1G
1A
0?
18
03
07
06
05
04
1&
0+
0'
0(
0)
0*
1^
1h
0c
0A
1o
1E
1?
1b
1X
1U
0T
1O
0N
1I
0H
1B
1i
0d
0B
1p
0K
1F
0h
1c
0^
0U
0O
0I
1k
1Q
1L
0i
1d
0\
1R
0k
0]
#660000
0!
0;
1,
#665000
1!
1;
0,
1q
1@
0n
1>
0<
13
1+
1A
0o
0E
0?
1B
0p
1K
0F
0Q
0L
1\
0R
1]
#670000
0!
0;
1,
#675000
1!
1;
0,
0q
1D
0@
1n
0>
1<
0G
0A
1?
03
14
0+
1*
1G
1A
1o
0?
1H
0B
0H
1B
1p
1I
0I
#680000
0!
0;
1,
#685000
1!
1;
0,
1q
1@
0n
1>
0<
13
1+
0G
0A
0o
1?
1H
0B
0p
1I
#690000
0!
0;
1,
#695000
1!
1;
0,
0q
1J
0D
0@
1n
0>
1<
1M
0H
1F
1G
1A
0?
03
15
04
0+
1)
0*
0A
1o
1E
1?
1N
0I
0M
1H
1B
0B
1p
0F
1O
0N
1I
0O
#700000
0!
0;
1,
#705000
1!
1;
0,
1q
1@
0n
1>
0<
13
1+
1A
0o
0E
0?
1B
0p
1F
#710000
0!
0;
1,
#715000
1!
1;
0,
0q
1D
0@
1n
0>
1<
0G
0A
1?
03
14
0+
1*
1G
1A
1o
0?
1M
0H
0B
0M
1H
1B
1p
1N
0I
0N
1I
1O
0O
#720000
0!
0;
1,
#725000
1!
1;
0,
1q
1@
0n
1>
0<
13
1+
0G
0A
0o
1?
1M
0H
0B
0p
1N
0I
1O
#730000
0!
0;
1,
#735000
1!
1;
0,
0q
1P
0J
0D
0@
1n
0>
1<
0S
0N
1L
0M
1H
0F
1G
1A
0?
03
16
05
04
0+
1(
0)
0*
0A
1o
1E
1?
1T
0O
1S
1N
1I
0H
1B
0B
1p
0K
1F
1U
0T
1O
0I
0L
0U
#740000
0!
0;
1,
#745000
1!
1;
0,
1q
1@
0n
1>
0<
13
1+
1A
0o
0E
0?
1B
0p
1K
0F
1L
#750000
0!
0;
1,
#755000
1!
1;
0,
0q
1D
0@
1n
0>
1<
0G
0A
1?
03
14
0+
1*
1G
1A
1o
0?
1H
0B
0H
1B
1p
1I
0I
#760000
0!
0;
1,
#765000
1!
1;
0,
1q
1@
0n
1>
0<
13
1+
0G
0A
0o
1?
1H
0B
0p
1I
#770000
0!
0;
1,
#775000
1!
1;
0,
0q
1J
0D
0@
1n
0>
1<
1M
0H
1F
1G
1A
0?
03
15
04
0+
1)
0*
0A
1o
1E
1?
0S
0N
0I
0M
1H
1B
0B
1p
0F
1T
0O
1S
1N
1I
1U
0T
1O
0U
#780000
0!
0;
1,
#785000
1!
1;
0,
1q
1@
0n
1>
0<
13
1+
1A
0o
0E
0?
1B
0p
1F
#790000
0!
0;
1,
#795000
1!
1;
0,
0q
1D
0@
1n
0>
1<
0G
0A
1?
03
14
0+
1*
1G
1A
1o
0?
1M
0H
0B
0M
1H
1B
1p
0S
0N
0I
1S
1N
1I
1T
0O
0T
1O
1U
0U
#800000
0!
0;
1,
#805000
1!
1;
0,
1q
1@
0n
1>
0<
13
1+
0G
0A
0o
1?
1M
0H
0B
0p
0S
0N
0I
1T
0O
1U
#810000
0!
0;
1,
#815000
1!
1;
0,
0q
1V
0P
0J
0D
0@
1n
0>
1<
1W
0T
1R
1S
1N
0L
0M
1H
0F
1G
1A
0?
03
17
06
05
04
0+
1'
0(
0)
0*
0A
1o
1E
1?
0b
0X
0U
0W
1T
1O
0N
1I
0H
1B
0B
1p
0K
1F
1h
0c
1^
1b
1X
1U
0O
0I
1Q
1L
1i
0d
0h
1c
0^
0R
1k
0i
1d
0k
#820000
0!
0;
1,
#825000
1!
1;
0,
1q
1@
0n
1>
0<
13
1+
1A
0o
0E
0?
1B
0p
1K
0F
0Q
0L
1R
#830000
0!
0;
1,
#835000
1!
1;
0,
0q
1D
0@
1n
0>
1<
0G
0A
1?
03
14
0+
1*
1G
1A
1o
0?
1H
0B
0H
1B
1p
1I
0I
#840000
0!
0;
1,
#845000
1!
1;
0,
1q
1@
0n
1>
0<
13
1+
0G
0A
0o
1?
1H
0B
0p
1I
#850000
0!
0;
1,
#855000
1!
1;
0,
0q
1J
0D
0@
1n
0>
1<
1M
0H
1F
1G
1A
0?
03
15
04
0+
1)
0*
0A
1o
1E
1?
1N
0I
0M
1H
1B
0B
1p
0F
1O
0N
1I
0O
#860000
0!
0;
1,
#865000
1!
1;
0,
1q
1@
0n
1>
0<
13
1+
1A
0o
0E
0?
1B
0p
1F
#870000
0!
0;
1,
#875000
1!
1;
0,
0q
1D
0@
1n
0>
1<
0G
0A
1?
03
14
0+
1*
1G
1A
1o
0?
1M
0H
0B
0M
1H
1B
1p
1N
0I
0N
1I
1O
0O
#880000
0!
0;
1,
#885000
1!
1;
0,
1q
1@
0n
1>
0<
13
1+
0G
0A
0o
1?
1M
0H
0B
0p
1N
0I
1O
#890000
0!
0;
1,
#895000
1!
1;
0,
0q
1P
0J
0D
0@
1n
0>
1<
0S
0N
1L
0M
1H
0F
1G
1A
0?
03
16
05
04
0+
1(
0)
0*
0A
1o
1E
1?
1W
0T
0O
1S
1N
1I
0H
1B
0B
1p
0K
1F
0b
0X
0U
0W
1T
1O
0I
0L
1h
0c
1^
1b
1X
1U
1i
0d
0h
1c
0^
1k
0i
1d
0k
#900000
0!
0;
1,
#905000
1!
1;
0,
1q
1@
0n
1>
0<
13
1+
1A
0o
0E
0?
1B
0p
1K
0F
1L
#910000
0!
0;
1,
#915000
1!
1;
0,
0q
1D
0@
1n
0>
1<
0G
0A
1?
03
14
0+
1*
1G
1A
1o
0?
1H
0B
0H
1B
1p
1I
0I
#920000
0!
0;
1,
#925000
1!
1;
0,
1q
1@
0n
1>
0<
13
1+
0G
0A
0o
1?
1H
0B
0p
1I
#930000
0!
0;
1,
#935000
1!
1;
0,
0q
1J
0D
0@
1n
0>
1<
1M
0H
1F
1G
1A
0?
03
15
04
0+
1)
0*
0A
1o
1E
1?
0S
0N
0I
0M
1H
1B
0B
1p
0F
1W
0T
0O
1S
1N
1I
0b
0X
0U
0W
1T
1O
1h
0c
1^
1b
1X
1U
1i
0d
0h
1c
0^
1k
0i
1d
0k
#940000
0!
0;
1,
#945000
1!
1;
0,
1q
1@
0n
1>
0<
13
1+
1A
0o
0E
0?
1B
0p
1F
#950000
0!
0;
1,
#955000
1!
1;
0,
0q
1D
0@
1n
0>
1<
0G
0A
1?
03
14
0+
1*
1G
1A
1o
0?
1M
0H
0B
0M
1H
1B
1p
0S
0N
0I
1S
1N
1I
1W
0T
0O
0W
1T
1O
0b
0X
0U
1b
1X
1U
1h
0c
1^
0h
1c
0^
1i
0d
0i
1d
1k
0k
#960000
0!
0;
1,
#965000
1!
1;
0,
1q
1@
0n
1>
0<
13
1+
0G
0A
0o
1?
1M
0H
0B
0p
0S
0N
0I
1W
0T
0O
0b
0X
0U
1h
0c
1^
1i
0d
1k
#970000
0!
0;
1,
#975000
1!
1;
0,
1_
0q
1l
0e
0V
0P
0J
0D
0]
1b
1X
0@
1n
0>
1<
0i
1g
0h
1c
0a
0W
1T
0R
1S
1N
0L
0M
1H
0F
1G
1A
0?
08
03
1:
09
07
06
05
04
0&
0+
1$
0%
0'
0(
0)
0*
0^
0c
0A
1o
1E
1?
0k
1i
1d
0X
1U
0T
1O
0N
1I
0H
1B
0d
0B
1p
0K
1F
1k
1^
0U
0O
0I
1Q
1L
0\
1R
1`
1]
0f
1a
0g
#980000
0!
0;
1,
#985000
1!
1;
0,
1q
1@
0n
1>
0<
13
1+
1A
0o
0E
0?
1B
0p
1K
0F
0Q
0L
1\
0R
0`
0]
1f
0a
1g
#990000
0!
0;
1,
#995000
1!
1;
0,
0q
1D
0@
1n
0>
1<
0G
0A
1?
03
14
0+
1*
1G
1A
1o
0?
1H
0B
0H
1B
1p
1I
0I
#1000000
0!
0;
1,
#1005000
1!
1;
0,
1q
1@
0n
1>
0<
13
1+
0G
0A
0o
1?
1H
0B
0p
1I
#1010000
0!
0;
1,
#1015000
1!
1;
0,
0q
1J
0D
0@
1n
0>
1<
1M
0H
1F
1G
1A
0?
03
15
04
0+
1)
0*
0A
1o
1E
1?
1N
0I
0M
1H
1B
0B
1p
0F
1O
0N
1I
0O
#1020000
0!
0;
1,
#1025000
1!
1;
0,
1q
1@
0n
1>
0<
13
1+
1A
0o
0E
0?
1B
0p
1F
#1030000
0!
0;
1,
#1035000
1!
1;
0,
0q
1D
0@
1n
0>
1<
0G
0A
1?
03
14
0+
1*
1G
1A
1o
0?
1M
0H
0B
0M
1H
1B
1p
1N
0I
0N
1I
1O
0O
#1040000
0!
0;
1,
#1045000
1!
1;
0,
1q
1@
0n
1>
0<
13
1+
0G
0A
0o
1?
1M
0H
0B
0p
1N
0I
1O
#1050000
0!
0;
1,
#1055000
1!
1;
0,
0q
1P
0J
0D
0@
1n
0>
1<
0S
0N
1L
0M
1H
0F
1G
1A
0?
03
16
05
04
0+
1(
0)
0*
0A
1o
1E
1?
1T
0O
1S
1N
1I
0H
1B
0B
1p
0K
1F
1U
0T
1O
0I
0L
0U
#1060000
0!
0;
1,
#1065000
1!
1;
0,
1q
1@
0n
1>
0<
13
1+
1A
0o
0E
0?
1B
0p
1K
0F
1L
#1070000
0!
0;
1,
#1075000
1!
1;
0,
0q
1D
0@
1n
0>
1<
0G
0A
1?
03
14
0+
1*
1G
1A
1o
0?
1H
0B
0H
1B
1p
1I
0I
#1080000
0!
0;
1,
#1085000
1!
1;
0,
1q
1@
0n
1>
0<
13
1+
0G
0A
0o
1?
1H
0B
0p
1I
#1090000
0!
0;
1,
#1095000
1!
1;
0,
0q
1J
0D
0@
1n
0>
1<
1M
0H
1F
1G
1A
0?
03
15
04
0+
1)
0*
0A
1o
1E
1?
0S
0N
0I
0M
1H
1B
0B
1p
0F
1T
0O
1S
1N
1I
1U
0T
1O
0U
#1100000
0!
0;
1,
#1105000
1!
1;
0,
1q
1@
0n
1>
0<
13
1+
1A
0o
0E
0?
1B
0p
1F
#1110000
0!
0;
1,
#1115000
1!
1;
0,
0q
1D
0@
1n
0>
1<
0G
0A
1?
03
14
0+
1*
1G
1A
1o
0?
1M
0H
0B
0M
1H
1B
1p
0S
0N
0I
1S
1N
1I
1T
0O
0T
1O
1U
0U
#1120000
0!
0;
1,
#1125000
1!
1;
0,
1q
1@
0n
1>
0<
13
1+
0G
0A
0o
1?
1M
0H
0B
0p
0S
0N
0I
1T
0O
1U
#1130000
0!
0;
1,
#1135000
1!
1;
0,
0q
1V
0P
0J
0D
0@
1n
0>
1<
1W
0T
1R
1S
1N
0L
0M
1H
0F
1G
1A
0?
03
17
06
05
04
0+
1'
0(
0)
0*
0A
1o
1E
1?
1X
0U
0W
1T
1O
0N
1I
0H
1B
0B
1p
0K
1F
0^
0X
1U
0O
0I
1Q
1L
1^
0R
#1140000
0!
0;
1,
#1145000
1!
1;
0,
1q
1@
0n
1>
0<
13
1+
1A
0o
0E
0?
1B
0p
1K
0F
0Q
0L
1R
#1150000
0!
0;
1,
#1155000
1!
1;
0,
0q
1D
0@
1n
0>
1<
0G
0A
1?
03
14
0+
1*
1G
1A
1o
0?
1H
0B
0H
1B
1p
1I
0I
#1160000
0!
0;
1,
#1165000
1!
1;
0,
1q
1@
0n
1>
0<
13
1+
0G
0A
0o
1?
1H
0B
0p
1I
#1170000
0!
0;
1,
#1175000
1!
1;
0,
0q
1J
0D
0@
1n
0>
1<
1M
0H
1F
1G
1A
0?
03
15
04
0+
1)
0*
0A
1o
1E
1?
1N
0I
0M
1H
1B
0B
1p
0F
1O
0N
1I
0O
#1180000
0!
0;
1,
#1185000
1!
1;
0,
1q
1@
0n
1>
0<
13
1+
1A
0o
0E
0?
1B
0p
1F
#1190000
0!
0;
1,
#1195000
1!
1;
0,
0q
1D
0@
1n
0>
1<
0G
0A
1?
03
14
0+
1*
1G
1A
1o
0?
1M
0H
0B
0M
1H
1B
1p
1N
0I
0N
1I
1O
0O
#1200000
0!
0;
1,
