BCD_cascading_counter/simulation/qsim/BCD_cascading_counter.msim.vcd
$comment
	File created using the following command:
		vcd file BCD_cascading_counter.msim.vcd -direction
$end
$date
	Sun Oct 17 14:25:58 2021
$end
$version
	ModelSim Version 10.1d
$end
$timescale
	1ps
$end
$scope module BCD_cascading_counting_0_to_99_vlg_vec_tst $end
$var reg 1 ! cascade_in $end
$var reg 1 " clk $end
$var reg 1 # reset $end
$var wire 1 $ cascade_out $end
$var wire 1 % Cout [7] $end
$var wire 1 & Cout [6] $end
$var wire 1 ' Cout [5] $end
$var wire 1 ( Cout [4] $end
$var wire 1 ) Cout [3] $end
$var wire 1 * Cout [2] $end
$var wire 1 + Cout [1] $end
$var wire 1 , Cout [0] $end
$var wire 1 - sampler $end
$scope module i1 $end
$var wire 1 . gnd $end
$var wire 1 / vcc $end
$var wire 1 0 unknown $end
$var tri1 1 1 devclrn $end
$var tri1 1 2 devpor $end
$var tri1 1 3 devoe $end
$var wire 1 4 cascade_out~output_o $end
$var wire 1 5 Cout[7]~output_o $end
$var wire 1 6 Cout[6]~output_o $end
$var wire 1 7 Cout[5]~output_o $end
$var wire 1 8 Cout[4]~output_o $end
$var wire 1 9 Cout[3]~output_o $end
$var wire 1 : Cout[2]~output_o $end
$var wire 1 ; Cout[1]~output_o $end
$var wire 1 < Cout[0]~output_o $end
$var wire 1 = cascade_in~input_o $end
$var wire 1 > clk~input_o $end
$var wire 1 ? inst|Cout[0]~3_combout $end
$var wire 1 @ reset~input_o $end
$var wire 1 A inst|Cout[2]~2_combout $end
$var wire 1 B inst|Cout~1_combout $end
$var wire 1 C inst|Cout~0_combout $end
$var wire 1 D inst|Equal0~0_combout $end
$var wire 1 E inst1|Cout[0]~3_combout $end
$var wire 1 F inst|cascade_out~0_combout $end
$var wire 1 G inst|cascade_out~combout $end
$var wire 1 H inst1|Cout[2]~2_combout $end
$var wire 1 I inst1|Cout~1_combout $end
$var wire 1 J inst1|Cout~0_combout $end
$var wire 1 K inst1|Equal0~0_combout $end
$var wire 1 L inst1|cascade_out~combout $end
$var wire 1 M inst1|Cout [3] $end
$var wire 1 N inst1|Cout [2] $end
$var wire 1 O inst1|Cout [1] $end
$var wire 1 P inst1|Cout [0] $end
$var wire 1 Q inst|Cout [3] $end
$var wire 1 R inst|Cout [2] $end
$var wire 1 S inst|Cout [1] $end
$var wire 1 T inst|Cout [0] $end
$upscope $end
$upscope $end
$enddefinitions $end
#0
$dumpvars
0!
0"
0#
0$
0,
0+
0*
0)
0(
0'
0&
0%
x-
0.
1/
x0
11
12
13
04
05
06
07
08
09
0:
0;
0<
0=
0>
1?
0@
0A
0B
0C
0D
1E
0F
0G
0H
0I
0J
0K
0L
0P
0O
0N
0M
0T
0S
0R
0Q
$end
#5000
1"
1>
0-
#10000
0"
0>
1-
#15000
1"
1>
0-
#20000
0"
0>
1-
#25000
1"
1>
0-
#30000
1#
0"
1@
0>
1-
#35000
1"
1>
0-
#40000
0"
0>
1-
#45000
1"
1>
0-
#50000
0"
0>
1-
#55000
1"
1>
0-
#60000
0"
0>
1-
#65000
1"
1>
0-
#70000
0"
0>
1-
#75000
1"
1>
0-
#80000
0"
0>
1-
#85000
1"
1>
0-
#90000
1!
0"
1=
0>
1-
1F
#95000
1"
1>
0-
1T
1B
0?
1<
1,
#100000
0"
0>
1-
#105000
1"
1>
0-
1S
0T
1?
1;
0<
1+
0,
#110000
0"
0>
1-
#115000
1"
1>
0-
1T
0B
1A
0?
1<
1,
#120000
0"
0>
1-
#125000
1"
1>
0-
0S
1R
0T
0F
1?
0;
1:
0<
0+
1*
0,
#130000
0"
0>
1-
#135000
1"
1>
0-
1T
1B
0?
1<
1,
#140000
0"
0>
1-
#145000
1"
1>
0-
1S
0T
1?
1;
0<
1+
0,
#150000
0"
0>
1-
#155000
1"
1>
0-
1T
1C
0B
0A
0?
1<
1,
#160000
0"
0>
1-
#165000
1"
1>
0-
1Q
0S
0R
0T
1F
1?
19
0;
0:
0<
1)
0+
0*
0,
#170000
0"
0>
1-
#175000
1"
1>
0-
1T
1G
1D
0C
0?
1<
1,
#180000
0"
0>
1-
#185000
1"
1>
0-
1P
0Q
0T
1I
0E
0G
0D
1?
18
09
0<
1(
0)
0,
#190000
0"
0>
1-
#195000
1"
1>
0-
1T
1B
0?
1<
1,
#200000
0"
0>
1-
#205000
1"
1>
0-
1S
0T
1?
1;
0<
1+
0,
#210000
0"
0>
1-
#215000
1"
1>
0-
1T
0B
1A
0?
1<
1,
#220000
0"
0>
1-
#225000
1"
1>
0-
0S
1R
0T
0F
1?
0;
1:
0<
0+
1*
0,
#230000
0"
0>
1-
#235000
1"
1>
0-
1T
1B
0?
1<
1,
#240000
0"
0>
1-
#245000
1"
1>
0-
1S
0T
1?
1;
0<
1+
0,
#250000
0"
0>
1-
#255000
1"
1>
0-
1T
1C
0B
0A
0?
1<
1,
#260000
0"
0>
1-
#265000
1"
1>
0-
1Q
0S
0R
0T
1F
1?
19
0;
0:
0<
1)
0+
0*
0,
#270000
0"
0>
1-
#275000
1"
1>
0-
1T
1G
1D
0C
0?
1<
1,
#280000
0"
0>
1-
#285000
1"
1>
0-
1O
0P
0Q
0T
1E
0G
0D
1?
17
08
09
0<
1'
0(
0)
0,
#290000
0"
0>
1-
#295000
1"
1>
0-
1T
1B
0?
1<
1,
#300000
0"
0>
1-
#305000
1"
1>
0-
1S
0T
1?
1;
0<
1+
0,
#310000
0"
0>
1-
#315000
1"
1>
0-
1T
0B
1A
0?
1<
1,
#320000
0"
0>
1-
#325000
1"
1>
0-
0S
1R
0T
0F
1?
0;
1:
0<
0+
1*
0,
#330000
0"
0>
1-
#335000
1"
1>
0-
1T
1B
0?
1<
1,
#340000
0"
0>
1-
#345000
1"
1>
0-
1S
0T
1?
1;
0<
1+
0,
#350000
0"
0>
1-
#355000
1"
1>
0-
1T
1C
0B
0A
0?
1<
1,
#360000
0"
0>
1-
#365000
1"
1>
0-
1Q
0S
0R
0T
1F
1?
19
0;
0:
0<
1)
0+
0*
0,
#370000
0"
0>
1-
#375000
1"
1>
0-
1T
1G
1D
0C
0?
1<
1,
#380000
0"
0>
1-
#385000
1"
1>
0-
1P
0Q
0T
0I
1H
0E
0G
0D
1?
18
09
0<
1(
0)
0,
0H
#390000
0"
0>
1-
#395000
1"
1>
0-
1T
1B
0?
1<
1,
#400000
0"
0>
1-
#405000
1"
1>
0-
1S
0T
1?
1;
0<
1+
0,
#410000
0"
0>
1-
#415000
1"
1>
0-
1T
0B
1A
0?
1<
1,
#420000
0"
0>
1-
#425000
1"
1>
0-
0S
1R
0T
0F
1?
0;
1:
0<
0+
1*
0,
#430000
0"
0>
1-
#435000
1"
1>
0-
1T
1B
0?
1<
1,
#440000
0"
0>
1-
#445000
1"
1>
0-
1S
0T
1?
1;
0<
1+
0,
#450000
0"
0>
1-
#455000
1"
1>
0-
1T
1C
0B
0A
0?
1<
1,
#460000
0"
0>
1-
#465000
1"
1>
0-
1Q
0S
0R
0T
1F
1?
19
0;
0:
0<
1)
0+
0*
0,
#470000
0"
0>
1-
#475000
1"
1>
0-
1T
1G
1D
0C
0?
1<
1,
1H
#480000
0"
0>
1-
#485000
1"
1>
0-
0O
1N
0P
0Q
0T
1E
0G
0D
1?
07
16
08
09
0<
0'
1&
0(
0)
0,
#490000
0"
0>
1-
#495000
1"
1>
0-
1T
1B
0?
1<
1,
#500000
0"
0>
1-
#505000
1"
1>
0-
1S
0T
1?
1;
0<
1+
0,
#510000
0"
0>
1-
#515000
1"
1>
0-
1T
0B
1A
0?
1<
1,
#520000
0"
0>
1-
#525000
1"
1>
0-
0S
1R
0T
0F
1?
0;
1:
0<
0+
1*
0,
#530000
0"
0>
1-
#535000
1"
1>
0-
1T
1B
0?
1<
1,
#540000
0"
0>
1-
#545000
1"
1>
0-
1S
0T
1?
1;
0<
1+
0,
#550000
0"
0>
1-
#555000
1"
1>
0-
1T
1C
0B
0A
0?
1<
1,
#560000
0"
0>
1-
#565000
1"
1>
0-
1Q
0S
0R
0T
1F
1?
19
0;
0:
0<
1)
0+
0*
0,
#570000
0"
0>
1-
#575000
1"
1>
0-
1T
1G
1D
0C
0?
1<
1,
#580000
0"
0>
1-
#585000
1"
1>
0-
1P
0Q
0T
1I
0E
0G
0D
1?
18
09
0<
1(
0)
0,
#590000
0"
0>
1-
#595000
1"
1>
0-
1T
1B
0?
1<
1,
#600000
0"
0>
1-
#605000
1"
1>
0-
1S
0T
1?
1;
0<
1+
0,
#610000
0"
0>
1-
#615000
1"
1>
0-
1T
0B
1A
0?
1<
1,
#620000
0"
0>
1-
#625000
1"
1>
0-
0S
1R
0T
0F
1?
0;
1:
0<
0+
1*
0,
#630000
0"
0>
1-
#635000
1"
1>
0-
1T
1B
0?
1<
1,
#640000
0"
0>
1-
#645000
1"
1>
0-
1S
0T
1?
1;
0<
1+
0,
#650000
0"
0>
1-
#655000
1"
1>
0-
1T
1C
0B
0A
0?
1<
1,
#660000
0"
0>
1-
#665000
1"
1>
0-
1Q
0S
0R
0T
1F
1?
19
0;
0:
0<
1)
0+
0*
0,
#670000
0"
0>
1-
#675000
1"
1>
0-
1T
1G
1D
0C
0?
1<
1,
#680000
0"
0>
1-
#685000
1"
1>
0-
1O
0P
0Q
0T
1E
0G
0D
1?
17
08
09
0<
1'
0(
0)
0,
#690000
0"
0>
1-
#695000
1"
1>
0-
1T
1B
0?
1<
1,
#700000
0"
0>
1-
#705000
1"
1>
0-
1S
0T
1?
1;
0<
1+
0,
#710000
0"
0>
1-
#715000
1"
1>
0-
1T
0B
1A
0?
1<
1,
#720000
0"
0>
1-
#725000
1"
1>
0-
0S
1R
0T
0F
1?
0;
1:
0<
0+
1*
0,
#730000
0"
0>
1-
#735000
1"
1>
0-
1T
1B
0?
1<
1,
#740000
0"
0>
1-
#745000
1"
1>
0-
1S
0T
1?
1;
0<
1+
0,
#750000
0"
0>
1-
#755000
1"
1>
0-
1T
1C
0B
0A
0?
1<
1,
#760000
0"
0>
1-
#765000
1"
1>
0-
1Q
0S
0R
0T
1F
1?
19
0;
0:
0<
1)
0+
0*
0,
#770000
0"
0>
1-
#775000
1"
1>
0-
1T
1G
1D
0C
0?
1<
1,
#780000
0"
0>
1-
#785000
1"
1>
0-
1P
0Q
0T
1J
0I
0H
0E
0G
0D
1?
18
09
0<
1(
0)
0,
1H
#790000
0"
0>
1-
#795000
1"
1>
0-
1T
1B
0?
1<
1,
#800000
0"
0>
1-
#805000
1"
1>
0-
1S
0T
1?
1;
0<
1+
0,
#810000
0"
0>
1-
#815000
1"
1>
0-
1T
0B
1A
0?
1<
1,
#820000
0"
0>
1-
#825000
1"
1>
0-
0S
1R
0T
0F
1?
0;
1:
0<
0+
1*
0,
#830000
0"
0>
1-
#835000
1"
1>
0-
1T
1B
0?
1<
1,
#840000
0"
0>
1-
#845000
1"
1>
0-
1S
0T
1?
1;
0<
1+
0,
#850000
0"
0>
1-
#855000
1"
1>
0-
1T
1C
0B
0A
0?
1<
1,
#860000
0"
0>
1-
#865000
1"
1>
0-
1Q
0S
0R
0T
1F
1?
19
0;
0:
0<
1)
0+
0*
0,
#870000
0"
0>
1-
#875000
1"
1>
0-
1T
1G
1D
0C
0?
1<
1,
0H
#880000
0"
0>
1-
#885000
1"
1>
0-
1M
0O
0N
0P
0Q
0T
1E
0G
0D
1?
15
07
06
08
09
0<
1%
0'
0&
0(
0)
0,
#890000
0"
0>
1-
#895000
1"
1>
0-
1T
1B
0?
1<
1,
#900000
0"
0>
1-
#905000
1"
1>
0-
1S
0T
1?
1;
0<
1+
0,
#910000
0"
0>
1-
#915000
1"
1>
0-
1T
0B
1A
0?
1<
1,
#920000
0"
0>
1-
#925000
1"
1>
0-
0S
1R
0T
0F
1?
0;
1:
0<
0+
1*
0,
#930000
0"
0>
1-
#935000
1"
1>
0-
1T
1B
0?
1<
1,
#940000
0"
0>
1-
#945000
1"
1>
0-
1S
0T
1?
1;
0<
1+
0,
#950000
0"
0>
1-
#955000
1"
1>
0-
1T
1C
0B
0A
0?
1<
1,
#960000
0"
0>
1-
#965000
1"
1>
0-
1Q
0S
0R
0T
1F
1?
19
0;
0:
0<
1)
0+
0*
0,
#970000
0"
0>
1-
#975000
1"
1>
0-
1T
1G
1D
0C
0?
1<
1,
#980000
0"
0>
1-
#985000
1"
1>
0-
1P
0Q
0T
1K
0J
0E
0G
0D
1?
18
09
0<
1(
0)
0,
#990000
0"
0>
1-
#995000
1"
1>
0-
1T
1B
0?
1<
1,
#1000000
0"
0>
1-
#1005000
1"
1>
0-
1S
0T
1?
1;
0<
1+
0,
#1010000
0"
0>
1-
#1015000
1"
1>
0-
1T
0B
1A
0?
1<
1,
#1020000
0"
0>
1-
#1025000
1"
1>
0-
0S
1R
0T
0F
1?
0;
1:
0<
0+
1*
0,
#1030000
0"
0>
1-
#1035000
1"
1>
0-
1T
1B
0?
1<
1,
#1040000
0"
0>
1-
#1045000
1"
1>
0-
1S
0T
1?
1;
0<
1+
0,
#1050000
0"
0>
1-
#1055000
1"
1>
0-
1T
1C
0B
0A
0?
1<
1,
#1060000
0"
0>
1-
#1065000
1"
1>
0-
1Q
0S
0R
0T
1F
1?
19
0;
0:
0<
1)
0+
0*
0,
#1070000
0"
0>
1-
#1075000
1"
1>
0-
1T
1G
1D
0C
0?
1<
1,
1L
14
1$
#1080000
0"
0>
1-
#1085000
1"
1>
0-
0M
0P
0Q
0T
0K
1E
0G
0D
1?
05
08
09
0<
0%
0(
0)
0,
0L
04
0$
#1090000
0"
0>
1-
#1095000
1"
1>
0-
1T
1B
0?
1<
1,
#1100000
0"
0>
1-
#1105000
1"
1>
0-
1S
0T
1?
1;
0<
1+
0,
#1110000
0"
0>
1-
#1115000
1"
1>
0-
1T
0B
1A
0?
1<
1,
#1120000
0"
0>
1-
#1125000
1"
1>
0-
0S
1R
0T
0F
1?
0;
1:
0<
0+
1*
0,
#1130000
0"
0>
1-
#1135000
1"
1>
0-
1T
1B
0?
1<
1,
#1140000
0"
0>
1-
#1145000
1"
1>
0-
1S
0T
1?
1;
0<
1+
0,
#1150000
0"
0>
1-
#1155000
1"
1>
0-
1T
1C
0B
0A
0?
1<
1,
#1160000
0"
0>
1-
#1165000
1"
1>
0-
1Q
0S
0R
0T
1F
1?
19
0;
0:
0<
1)
0+
0*
0,
#1170000
0"
0>
1-
#1175000
1"
1>
0-
1T
1G
1D
0C
0?
1<
1,
#1180000
0"
0>
1-
#1185000
1"
1>
0-
1P
0Q
0T
1I
0E
0G
0D
1?
18
09
0<
1(
0)
0,
#1190000
0"
0>
1-
#1195000
1"
1>
0-
1T
1B
0?
1<
1,
#1200000
0"
0>
1-
#1205000
1"
1>
0-
1S
0T
1?
1;
0<
1+
0,
#1210000
0"
0>
1-
#1215000
1"
1>
0-
1T
0B
1A
0?
1<
1,
#1220000
0"
0>
1-
#1225000
1"
1>
0-
0S
1R
0T
0F
1?
0;
1:
0<
0+
1*
0,
#1230000
0"
0>
1-
#1235000
1"
1>
0-
1T
1B
0?
1<
1,
#1240000
0"
0>
1-
#1245000
1"
1>
0-
1S
0T
1?
1;
0<
1+
0,
#1250000
0"
0>
1-
#1255000
1"
1>
0-
1T
1C
0B
0A
0?
1<
1,
#1260000
0"
0>
1-
#1265000
1"
1>
0-
1Q
0S
0R
0T
1F
1?
19
0;
0:
0<
1)
0+
0*
0,
#1270000
0"
0>
1-
#1275000
1"
1>
0-
1T
1G
1D
0C
0?
1<
1,
#1280000
0"
0>
1-
#1285000
1"
1>
0-
1O
0P
0Q
0T
1E
0G
0D
1?
17
08
09
0<
1'
0(
0)
0,
#1290000
0"
0>
1-
#1295000
1"
1>
0-
1T
1B
0?
1<
1,
#1300000
0"
0>
1-
#1305000
1"
1>
0-
1S
0T
1?
1;
0<
1+
0,
#1310000
0"
0>
1-
#1315000
1"
1>
0-
1T
0B
1A
0?
1<
1,
#1320000
0"
0>
1-
#1325000
1"
1>
0-
0S
1R
0T
0F
1?
0;
1:
0<
0+
1*
0,
#1330000
0"
0>
1-
#1335000
1"
1>
0-
1T
1B
0?
1<
1,
#1340000
0"
0>
1-
#1345000
1"
1>
0-
1S
0T
1?
1;
0<
1+
0,
#1350000
0"
0>
1-
#1355000
1"
1>
0-
1T
1C
0B
0A
0?
1<
1,
#1360000
0"
0>
1-
#1365000
1"
1>
0-
1Q
0S
0R
0T
1F
1?
19
0;
0:
0<
1)
0+
0*
0,
#1370000
0"
0>
1-
#1375000
1"
1>
0-
1T
1G
1D
0C
0?
1<
1,
#1380000
0"
0>
1-
#1385000
1"
1>
0-
1P
0Q
0T
0I
1H
0E
0G
0D
1?
18
09
0<
1(
0)
0,
0H
#1390000
0"
0>
1-
#1395000
1"
1>
0-
1T
1B
0?
1<
1,
#1400000
0"
0>
1-
#1405000
1"
1>
0-
1S
0T
1?
1;
0<
1+
0,
#1410000
0"
0>
1-
#1415000
1"
1>
0-
1T
0B
1A
0?
1<
1,
#1420000
0"
0>
1-
#1425000
1"
1>
0-
0S
1R
0T
0F
1?
0;
1:
0<
0+
1*
0,
#1430000
0"
0>
1-
#1435000
1"
1>
0-
1T
1B
0?
1<
1,
#1440000
0"
0>
1-
#1445000
1"
1>
0-
1S
0T
1?
1;
0<
1+
0,
#1450000
0"
0>
1-
#1455000
1"
1>
0-
1T
1C
0B
0A
0?
1<
1,
#1460000
0"
0>
1-
#1465000
1"
1>
0-
1Q
0S
0R
0T
1F
1?
19
0;
0:
0<
1)
0+
0*
0,
#1470000
0"
0>
1-
#1475000
1"
1>
0-
1T
1G
1D
0C
0?
1<
1,
1H
#1480000
0"
0>
1-
#1485000
1"
1>
0-
0O
1N
0P
0Q
0T
1E
0G
0D
1?
07
16
08
09
0<
0'
1&
0(
0)
0,
#1490000
0"
0>
1-
#1495000
1"
1>
0-
1T
1B
0?
1<
1,
#1500000
0"
0>
1-
#1505000
1"
1>
0-
1S
0T
1?
1;
0<
1+
0,
#1510000
0"
0>
1-
#1515000
1"
1>
0-
1T
0B
1A
0?
1<
1,
#1520000
0"
0>
1-
#1525000
1"
1>
0-
0S
1R
0T
0F
1?
0;
1:
0<
0+
1*
0,
#1530000
0"
0>
1-
#1535000
1"
1>
0-
1T
1B
0?
1<
1,
#1540000
0"
0>
1-
#1545000
1"
1>
0-
1S
0T
1?
1;
0<
1+
0,
#1550000
0"
0>
1-
#1555000
1"
1>
0-
1T
1C
0B
0A
0?
1<
1,
#1560000
0"
0>
1-
#1565000
1"
1>
0-
1Q
0S
0R
0T
1F
1?
19
0;
0:
0<
1)
0+
0*
0,
#1570000
0"
0>
1-
#1575000
1"
1>
0-
1T
1G
1D
0C
0?
1<
1,
#1580000
0"
0>
1-
#1585000
1"
1>
0-
1P
0Q
0T
1I
0E
0G
0D
1?
18
09
0<
1(
0)
0,
#1590000
0"
0>
1-
#1595000
1"
1>
0-
1T
1B
0?
1<
1,
#1600000
0"
0>
1-
#1605000
1"
1>
0-
1S
0T
1?
1;
0<
1+
0,
#1610000
0"
0>
1-
#1615000
1"
1>
0-
1T
0B
1A
0?
1<
1,
#1620000
0"
0>
1-
#1625000
1"
1>
0-
0S
1R
0T
0F
1?
0;
1:
0<
0+
1*
0,
#1630000
0"
0>
1-
#1635000
1"
1>
0-
1T
1B
0?
1<
1,
#1640000
0"
0>
1-
#1645000
1"
1>
0-
1S
0T
1?
1;
0<
1+
0,
#1650000
0"
0>
1-
#1655000
1"
1>
0-
1T
1C
0B
0A
0?
1<
1,
#1660000
0"
0>
1-
#1665000
1"
1>
0-
1Q
0S
0R
0T
1F
1?
19
0;
0:
0<
1)
0+
0*
0,
#1670000
0"
0>
1-
#1675000
1"
1>
0-
1T
1G
1D
0C
0?
1<
1,
#1680000
0"
0>
1-
#1685000
1"
1>
0-
1O
0P
0Q
0T
1E
0G
0D
1?
17
08
09
0<
1'
0(
0)
0,
#1690000
0"
0>
1-
#1695000
1"
1>
0-
1T
1B
0?
1<
1,
#1700000
0"
0>
1-
#1705000
1"
1>
0-
1S
0T
1?
1;
0<
1+
0,
#1710000
0"
0>
1-
#1715000
1"
1>
0-
1T
0B
1A
0?
1<
1,
#1720000
0"
0>
1-
#1725000
1"
1>
0-
0S
1R
0T
0F
1?
0;
1:
0<
0+
1*
0,
#1730000
0"
0>
1-
#1735000
1"
1>
0-
1T
1B
0?
1<
1,
#1740000
0"
0>
1-
#1745000
1"
1>
0-
1S
0T
1?
1;
0<
1+
0,
#1750000
0"
0>
1-
#1755000
1"
1>
0-
1T
1C
0B
0A
0?
1<
1,
#1760000
0"
0>
1-
#1765000
1"
1>
0-
1Q
0S
0R
0T
1F
1?
19
0;
0:
0<
1)
0+
0*
0,
#1770000
0"
0>
1-
#1775000
1"
1>
0-
1T
1G
1D
0C
0?
1<
1,
#1780000
0"
0>
1-
#1785000
1"
1>
0-
1P
0Q
0T
1J
0I
0H
0E
0G
0D
1?
18
09
0<
1(
0)
0,
1H
#1790000
0"
0>
1-
#1795000
1"
1>
0-
1T
1B
0?
1<
1,
#1800000
0"
0>
1-
#1805000
1"
1>
0-
1S
0T
1?
1;
0<
1+
0,
#1810000
0"
0>
1-
#1815000
1"
1>
0-
1T
0B
1A
0?
1<
1,
#1820000
0"
0>
1-
#1825000
1"
1>
0-
0S
1R
0T
0F
1?
0;
1:
0<
0+
1*
0,
#1830000
0"
0>
1-
#1835000
1"
1>
0-
1T
1B
0?
1<
1,
#1840000
0"
0>
1-
#1845000
1"
1>
0-
1S
0T
1?
1;
0<
1+
0,
#1850000
0"
0>
1-
#1855000
1"
1>
0-
1T
1C
0B
0A
0?
1<
1,
#1860000
0"
0>
1-
#1865000
1"
1>
0-
1Q
0S
0R
0T
1F
1?
19
0;
0:
0<
1)
0+
0*
0,
#1870000
0"
0>
1-
#1875000
1"
1>
0-
1T
1G
1D
0C
0?
1<
1,
0H
#1880000
0"
0>
1-
#1885000
1"
1>
0-
1M
0O
0N
0P
0Q
0T
1E
0G
0D
1?
15
07
06
08
09
0<
1%
0'
0&
0(
0)
0,
#1890000
0"
0>
1-
#1895000
1"
1>
0-
1T
1B
0?
1<
1,
#1900000
0"
0>
1-
#1905000
1"
1>
0-
1S
0T
1?
1;
0<
1+
0,
#1910000
0"
0>
1-
#1915000
1"
1>
0-
1T
0B
1A
0?
1<
1,
#1920000
0"
0>
1-
#1925000
1"
1>
0-
0S
1R
0T
0F
1?
0;
1:
0<
0+
1*
0,
#1930000
0"
0>
1-
#1935000
1"
1>
0-
1T
1B
0?
1<
1,
#1940000
0"
0>
1-
#1945000
1"
1>
0-
1S
0T
1?
1;
0<
1+
0,
#1950000
0"
0>
1-
#1955000
1"
1>
0-
1T
1C
0B
0A
0?
1<
1,
#1960000
0"
0>
1-
#1965000
1"
1>
0-
1Q
0S
0R
0T
1F
1?
19
0;
0:
0<
1)
0+
0*
0,
#1970000
0"
0>
1-
#1975000
1"
1>
0-
1T
1G
1D
0C
0?
1<
1,
#1980000
0"
0>
1-
#1985000
1"
1>
0-
1P
0Q
0T
1K
0J
0E
0G
0D
1?
18
09
0<
1(
0)
0,
#1990000
0"
0>
1-
#1995000
1"
1>
0-
1T
1B
0?
1<
1,
#2000000
0"
0>
1-
#2005000
1"
1>
0-
1S
0T
1?
1;
0<
1+
0,
#2010000
0"
0>
1-
#2015000
1"
1>
0-
1T
0B
1A
0?
1<
1,
#2020000
0"
0>
1-
#2025000
1"
1>
0-
0S
1R
0T
0F
1?
0;
1:
0<
0+
1*
0,
#2030000
0"
0>
1-
#2035000
1"
1>
0-
1T
1B
0?
1<
1,
#2040000
0"
0>
1-
#2045000
1"
1>
0-
1S
0T
1?
1;
0<
1+
0,
#2050000
0"
0>
1-
#2055000
1"
1>
0-
1T
1C
0B
0A
0?
1<
1,
#2060000
0"
0>
1-
#2065000
1"
1>
0-
1Q
0S
0R
0T
1F
1?
19
0;
0:
0<
1)
0+
0*
0,
#2070000
0"
0>
1-
#2075000
1"
1>
0-
1T
1G
1D
0C
0?
1<
1,
1L
14
1$
#2080000
0"
0>
1-
#2085000
1"
1>
0-
0M
0P
0Q
0T
0K
1E
0G
0D
1?
05
08
09
0<
0%
0(
0)
0,
0L
04
0$
#2090000
0"
0>
1-
#2095000
1"
1>
0-
1T
1B
0?
1<
1,
#2100000
0"
0>
1-
#2105000
1"
1>
0-
1S
0T
1?
1;
0<
1+
0,
#2110000
0"
0>
1-
#2115000
1"
1>
0-
1T
0B
1A
0?
1<
1,
#2120000
0"
0>
1-
#2125000
1"
1>
0-
0S
1R
0T
0F
1?
0;
1:
0<
0+
1*
0,
#2130000
0"
0>
1-
#2135000
1"
1>
0-
1T
1B
0?
1<
1,
#2140000
0"
0>
1-
#2145000
1"
1>
0-
1S
0T
1?
1;
0<
1+
0,
#2150000
0"
0>
1-
#2155000
1"
1>
0-
1T
1C
0B
0A
0?
1<
1,
#2160000
0"
0>
1-
#2165000
1"
1>
0-
1Q
0S
0R
0T
1F
1?
19
0;
0:
0<
1)
0+
0*
0,
#2170000
0"
0>
1-
#2175000
1"
1>
0-
1T
1G
1D
0C
0?
1<
1,
#2180000
0"
0>
1-
#2185000
1"
1>
0-
1P
0Q
0T
1I
0E
0G
0D
1?
18
09
0<
1(
0)
0,
#2190000
0"
0>
1-
#2195000
1"
1>
0-
1T
1B
0?
1<
1,
#2200000
0"
0>
1-
#2205000
1"
1>
0-
1S
0T
1?
1;
0<
1+
0,
#2210000
0"
0>
1-
#2215000
1"
1>
0-
1T
0B
1A
0?
1<
1,
#2220000
0"
0>
1-
#2225000
1"
1>
0-
0S
1R
0T
0F
1?
0;
1:
0<
0+
1*
0,
#2230000
0"
0>
1-
#2235000
1"
1>
0-
1T
1B
0?
1<
1,
#2240000
0"
0>
1-
#2245000
1"
1>
0-
1S
0T
1?
1;
0<
1+
0,
#2250000
0"
0>
1-
#2255000
1"
1>
0-
1T
1C
0B
0A
0?
1<
1,
#2260000
0"
0>
1-
#2265000
1"
1>
0-
1Q
0S
0R
0T
1F
1?
19
0;
0:
0<
1)
0+
0*
0,
#2270000
0"
0>
1-
#2275000
1"
1>
0-
1T
1G
1D
0C
0?
1<
1,
#2280000
0"
0>
1-
#2285000
1"
1>
0-
1O
0P
0Q
0T
1E
0G
0D
1?
17
08
09
0<
1'
0(
0)
0,
#2290000
0"
0>
1-
#2295000
1"
1>
0-
1T
1B
0?
1<
1,
#2300000
0"
0>
1-
#2305000
1"
1>
0-
1S
0T
1?
1;
0<
1+
0,
#2310000
0"
0>
1-
#2315000
1"
1>
0-
1T
0B
1A
0?
1<
1,
#2320000
0"
0>
1-
#2325000
1"
1>
0-
0S
1R
0T
0F
1?
0;
1:
0<
0+
1*
0,
#2330000
0"
0>
1-
#2335000
1"
1>
0-
1T
1B
0?
1<
1,
#2340000
0"
0>
1-
#2345000
1"
1>
0-
1S
0T
1?
1;
0<
1+
0,
#2350000
0"
0>
1-
#2355000
1"
1>
0-
1T
1C
0B
0A
0?
1<
1,
#2360000
0"
0>
1-
#2365000
1"
1>
0-
1Q
0S
0R
0T
1F
1?
19
0;
0:
0<
1)
0+
0*
0,
#2370000
0"
0>
1-
#2375000
1"
1>
0-
1T
1G
1D
0C
0?
1<
1,
#2380000
0"
0>
1-
#2385000
1"
1>
0-
1P
0Q
0T
0I
1H
0E
0G
0D
1?
18
09
0<
1(
0)
0,
0H
#2390000
0"
0>
1-
#2395000
1"
1>
0-
1T
1B
0?
1<
1,
#2400000
0"
0>
1-
#2405000
1"
1>
0-
1S
0T
1?
1;
0<
1+
0,
#2410000
0"
0>
1-
#2415000
1"
1>
0-
1T
0B
1A
0?
1<
1,
#2420000
0"
0>
1-
#2425000
1"
1>
0-
0S
1R
0T
0F
1?
0;
1:
0<
0+
1*
0,
#2430000
0"
0>
1-
#2435000
1"
1>
0-
1T
1B
0?
1<
1,
#2440000
0"
0>
1-
#2445000
1"
1>
0-
1S
0T
1?
1;
0<
1+
0,
#2450000
0"
0>
1-
#2455000
1"
1>
0-
1T
1C
0B
0A
0?
1<
1,
#2460000
0"
0>
1-
#2465000
1"
1>
0-
1Q
0S
0R
0T
1F
1?
19
0;
0:
0<
1)
0+
0*
0,
#2470000
0"
0>
1-
#2475000
1"
1>
0-
1T
1G
1D
0C
0?
1<
1,
1H
#2480000
0"
0>
1-
#2485000
1"
1>
0-
0O
1N
0P
0Q
0T
1E
0G
0D
1?
07
16
08
09
0<
0'
1&
0(
0)
0,
#2490000
0"
0>
1-
#2495000
1"
1>
0-
1T
1B
0?
1<
1,
#2500000
0"
0>
1-
#2505000
1"
1>
0-
1S
0T
1?
1;
0<
1+
0,
#2510000
0"
0>
1-
#2515000
1"
1>
0-
1T
0B
1A
0?
1<
1,
#2520000
0"
0>
1-
#2525000
1"
1>
0-
0S
1R
0T
0F
1?
0;
1:
0<
0+
1*
0,
#2530000
0"
0>
1-
#2535000
1"
1>
0-
1T
1B
0?
1<
1,
#2540000
0"
0>
1-
#2545000
1"
1>
0-
1S
0T
1?
1;
0<
1+
0,
#2550000
0"
0>
1-
#2555000
1"
1>
0-
1T
1C
0B
0A
0?
1<
1,
#2560000
0"
0>
1-
#2565000
1"
1>
0-
1Q
0S
0R
0T
1F
1?
19
0;
0:
0<
1)
0+
0*
0,
#2570000
0"
0>
1-
#2575000
1"
1>
0-
1T
1G
1D
0C
0?
1<
1,
#2580000
0"
0>
1-
#2585000
1"
1>
0-
1P
0Q
0T
1I
0E
0G
0D
1?
18
09
0<
1(
0)
0,
#2590000
0"
0>
1-
#2595000
1"
1>
0-
1T
1B
0?
1<
1,
#2600000
0"
0>
1-
#2605000
1"
1>
0-
1S
0T
1?
1;
0<
1+
0,
#2610000
0"
0>
1-
#2615000
1"
1>
0-
1T
0B
1A
0?
1<
1,
