BCD_cascading_counter_12bit/simulation/qsim/BCD_cascading_counter_12bit.msim.vcd
$comment
	File created using the following command:
		vcd file BCD_cascading_counter_12bit.msim.vcd -direction
$end
$date
	Sat Oct 23 20:38:00 2021
$end
$version
	ModelSim Version 10.1d
$end
$timescale
	1ps
$end
$scope module BCD_cascading_counter_12bit_vlg_vec_tst $end
$var reg 1 ! casin $end
$var reg 1 " clk $end
$var reg 1 # reset $end
$var wire 1 $ casout $end
$var wire 1 % count [11] $end
$var wire 1 & count [10] $end
$var wire 1 ' count [9] $end
$var wire 1 ( count [8] $end
$var wire 1 ) count [7] $end
$var wire 1 * count [6] $end
$var wire 1 + count [5] $end
$var wire 1 , count [4] $end
$var wire 1 - count [3] $end
$var wire 1 . count [2] $end
$var wire 1 / count [1] $end
$var wire 1 0 count [0] $end
$var wire 1 1 sampler $end
$scope module i1 $end
$var wire 1 2 gnd $end
$var wire 1 3 vcc $end
$var wire 1 4 unknown $end
$var tri1 1 5 devclrn $end
$var tri1 1 6 devpor $end
$var tri1 1 7 devoe $end
$var wire 1 8 count[0]~output_o $end
$var wire 1 9 count[1]~output_o $end
$var wire 1 : count[2]~output_o $end
$var wire 1 ; count[3]~output_o $end
$var wire 1 < count[4]~output_o $end
$var wire 1 = count[5]~output_o $end
$var wire 1 > count[6]~output_o $end
$var wire 1 ? count[7]~output_o $end
$var wire 1 @ count[8]~output_o $end
$var wire 1 A count[9]~output_o $end
$var wire 1 B count[10]~output_o $end
$var wire 1 C count[11]~output_o $end
$var wire 1 D casout~output_o $end
$var wire 1 E clk~input_o $end
$var wire 1 F counter1|count[0]~3_combout $end
$var wire 1 G reset~input_o $end
$var wire 1 H casin~input_o $end
$var wire 1 I counter1|count[2]~1_combout $end
$var wire 1 J counter1|count~2_combout $end
$var wire 1 K counter1|count~0_combout $end
$var wire 1 L counter2|count[0]~3_combout $end
$var wire 1 M counter1|Equal0~0_combout $end
$var wire 1 N counter1|casout~combout $end
$var wire 1 O counter2|count[2]~1_combout $end
$var wire 1 P counter2|count~2_combout $end
$var wire 1 Q counter2|count~0_combout $end
$var wire 1 R counter3|count[0]~3_combout $end
$var wire 1 S counter2|casout~0_combout $end
$var wire 1 T counter2|casout~1_combout $end
$var wire 1 U counter2|casout~combout $end
$var wire 1 V counter3|count[2]~1_combout $end
$var wire 1 W counter3|count~2_combout $end
$var wire 1 X counter3|count~0_combout $end
$var wire 1 Y counter2|Equal0~0_combout $end
$var wire 1 Z counter3|Equal0~0_combout $end
$var wire 1 [ counter3|casout~combout $end
$var wire 1 \ counter3|count [3] $end
$var wire 1 ] counter3|count [2] $end
$var wire 1 ^ counter3|count [1] $end
$var wire 1 _ counter3|count [0] $end
$var wire 1 ` counter2|count [3] $end
$var wire 1 a counter2|count [2] $end
$var wire 1 b counter2|count [1] $end
$var wire 1 c counter2|count [0] $end
$var wire 1 d counter1|count [3] $end
$var wire 1 e counter1|count [2] $end
$var wire 1 f counter1|count [1] $end
$var wire 1 g counter1|count [0] $end
$upscope $end
$upscope $end
$enddefinitions $end
#0
$dumpvars
0!
0"
0#
0$
00
0/
0.
0-
0,
0+
0*
0)
0(
0'
0&
0%
x1
02
13
x4
15
16
17
08
09
0:
0;
0<
0=
0>
0?
0@
0A
0B
0C
0D
0E
1F
0G
0H
0I
0J
0K
1L
0M
0N
0O
0P
0Q
1R
0S
0T
0U
0V
0W
0X
0Y
0Z
0[
0_
0^
0]
0\
0c
0b
0a
0`
0g
0f
0e
0d
$end
#2500
1"
1E
01
#5000
0"
0E
11
#7500
1"
1E
01
#10000
0"
0E
11
#12500
1"
1E
01
#15000
0"
0E
11
#17500
1"
1E
01
#20000
0"
0E
11
#22500
1"
1E
01
#25000
0"
0E
11
#27500
1"
1E
01
#30000
1#
0"
1G
0E
11
#32500
1"
1E
01
#35000
0"
0E
11
#37500
1"
1E
01
#40000
0"
0E
11
#42500
1"
1E
01
#45000
0"
0E
11
#47500
1"
1E
01
#50000
0"
0E
11
#52500
1"
1E
01
#55000
0"
0E
11
#57500
1"
1E
01
#60000
0"
0E
11
#62500
1"
1E
01
#65000
0"
0E
11
#67500
1"
1E
01
#70000
1!
0"
1H
0E
11
#72500
1"
1E
01
1g
1K
0F
18
10
#75000
0"
0E
11
#77500
1"
1E
01
1f
0g
1F
19
08
1/
00
#80000
0"
0E
11
#82500
1"
1E
01
1g
0K
1I
0F
18
10
#85000
0"
0E
11
#87500
1"
1E
01
0f
1e
0g
1F
09
1:
08
0/
1.
00
#90000
0"
0E
11
#92500
1"
1E
01
1g
1K
0F
18
10
#95000
0"
0E
11
#97500
1"
1E
01
1f
0g
1F
19
08
1/
00
#100000
0"
0E
11
#102500
1"
1E
01
1g
0K
1J
0I
0F
18
10
#105000
0"
0E
11
#107500
1"
1E
01
0f
1d
0e
0g
1F
09
1;
0:
08
0/
1-
0.
00
#110000
0"
0E
11
#112500
1"
1E
01
1g
1M
0J
0F
18
10
1N
#115000
0"
0E
11
#117500
1"
1E
01
1c
0d
0g
1Q
0L
0M
1F
1<
0;
08
1,
0-
00
0N
#120000
0"
0E
11
#122500
1"
1E
01
1g
1K
0F
18
10
#125000
0"
0E
11
#127500
1"
1E
01
1f
0g
1F
19
08
1/
00
#130000
0"
0E
11
#132500
1"
1E
01
1g
0K
1I
0F
18
10
#135000
0"
0E
11
#137500
1"
1E
01
0f
1e
0g
1F
09
1:
08
0/
1.
00
#140000
0"
0E
11
#142500
1"
1E
01
1g
1K
0F
18
10
#145000
0"
0E
11
#147500
1"
1E
01
1f
0g
1F
19
08
1/
00
#150000
0"
0E
11
#152500
1"
1E
01
1g
0K
1J
0I
0F
18
10
#155000
0"
0E
11
#157500
1"
1E
01
0f
1d
0e
0g
1T
1F
09
1;
0:
08
0/
1-
0.
00
#160000
0"
0E
11
#162500
1"
1E
01
1g
1M
0J
0F
18
10
1N
#165000
0"
0E
11
#167500
1"
1E
01
1b
0c
0d
0g
0T
1L
0M
1F
1=
0<
0;
08
1+
0,
0-
00
0N
#170000
0"
0E
11
#172500
1"
1E
01
1g
1K
0F
18
10
#175000
0"
0E
11
#177500
1"
1E
01
1f
0g
1F
19
08
1/
00
#180000
0"
0E
11
#182500
1"
1E
01
1g
0K
1I
0F
18
10
#185000
0"
0E
11
#187500
1"
1E
01
0f
1e
0g
1F
09
1:
08
0/
1.
00
#190000
0"
0E
11
#192500
1"
1E
01
1g
1K
0F
18
10
#195000
0"
0E
11
#197500
1"
1E
01
1f
0g
1F
19
08
1/
00
#200000
0"
0E
11
#202500
1"
1E
01
1g
0K
1J
0I
0F
18
10
#205000
0"
0E
11
#207500
1"
1E
01
0f
1d
0e
0g
1F
09
1;
0:
08
0/
1-
0.
00
#210000
0"
0E
11
#212500
1"
1E
01
1g
1M
0J
0F
18
10
1N
#215000
0"
0E
11
#217500
1"
1E
01
1c
0d
0g
0Q
1O
0L
0M
1F
1<
0;
08
1,
0-
00
0N
0O
#220000
0"
0E
11
#222500
1"
1E
01
1g
1K
0F
18
10
#225000
0"
0E
11
#227500
1"
1E
01
1f
0g
1F
19
08
1/
00
#230000
0"
0E
11
#232500
1"
1E
01
1g
0K
1I
0F
18
10
#235000
0"
0E
11
#237500
1"
1E
01
0f
1e
0g
1F
09
1:
08
0/
1.
00
#240000
0"
0E
11
#242500
1"
1E
01
1g
1K
0F
18
10
#245000
0"
0E
11
#247500
1"
1E
01
1f
0g
1F
19
08
1/
00
#250000
0"
0E
11
#252500
1"
1E
01
1g
0K
1J
0I
0F
18
10
#255000
0"
0E
11
#257500
1"
1E
01
0f
1d
0e
0g
1T
1F
09
1;
0:
08
0/
1-
0.
00
#260000
0"
0E
11
#262500
1"
1E
01
1g
1M
0J
0F
18
10
1N
1O
#265000
0"
0E
11
#267500
1"
1E
01
0b
1a
0c
0d
0g
0T
1L
0M
1F
0=
1>
0<
0;
08
0+
1*
0,
0-
00
0N
#270000
0"
0E
11
#272500
1"
1E
01
1g
1K
0F
18
10
#275000
0"
0E
11
#277500
1"
1E
01
1f
0g
1F
19
08
1/
00
#280000
0"
0E
11
#282500
1"
1E
01
1g
0K
1I
0F
18
10
#285000
0"
0E
11
#287500
1"
1E
01
0f
1e
0g
1F
09
1:
08
0/
1.
00
#290000
0"
0E
11
#292500
1"
1E
01
1g
1K
0F
18
10
#295000
0"
0E
11
#297500
1"
1E
01
1f
0g
1F
19
08
1/
00
#300000
0"
0E
11
#302500
1"
1E
01
1g
0K
1J
0I
0F
18
10
#305000
0"
0E
11
#307500
1"
1E
01
0f
1d
0e
0g
1F
09
1;
0:
08
0/
1-
0.
00
#310000
0"
0E
11
#312500
1"
1E
01
1g
1M
0J
0F
18
10
1N
#315000
0"
0E
11
#317500
1"
1E
01
1c
0d
0g
1Q
0L
0M
1F
1<
0;
08
1,
0-
00
0N
#320000
0"
0E
11
#322500
1"
1E
01
1g
1K
0F
18
10
#325000
0"
0E
11
#327500
1"
1E
01
1f
0g
1F
19
08
1/
00
#330000
0"
0E
11
#332500
1"
1E
01
1g
0K
1I
0F
18
10
#335000
0"
0E
11
#337500
1"
1E
01
0f
1e
0g
1F
09
1:
08
0/
1.
00
#340000
0"
0E
11
#342500
1"
1E
01
1g
1K
0F
18
10
#345000
0"
0E
11
#347500
1"
1E
01
1f
0g
1F
19
08
1/
00
#350000
0"
0E
11
#352500
1"
1E
01
1g
0K
1J
0I
0F
18
10
#355000
0"
0E
11
#357500
1"
1E
01
0f
1d
0e
0g
1T
1F
09
1;
0:
08
0/
1-
0.
00
#360000
0"
0E
11
#362500
1"
1E
01
1g
1M
0J
0F
18
10
1N
#365000
0"
0E
11
#367500
1"
1E
01
1b
0c
0d
0g
0T
1L
0M
1F
1=
0<
0;
08
1+
0,
0-
00
0N
#370000
0"
0E
11
#372500
1"
1E
01
1g
1K
0F
18
10
#375000
0"
0E
11
#377500
1"
1E
01
1f
0g
1F
19
08
1/
00
#380000
0"
0E
11
#382500
1"
1E
01
1g
0K
1I
0F
18
10
#385000
0"
0E
11
#387500
1"
1E
01
0f
1e
0g
1F
09
1:
08
0/
1.
00
#390000
0"
0E
11
#392500
1"
1E
01
1g
1K
0F
18
10
#395000
0"
0E
11
#397500
1"
1E
01
1f
0g
1F
19
08
1/
00
#400000
0"
0E
11
#402500
1"
1E
01
1g
0K
1J
0I
0F
18
10
#405000
0"
0E
11
#407500
1"
1E
01
0f
1d
0e
0g
1F
09
1;
0:
08
0/
1-
0.
00
#410000
0"
0E
11
#412500
1"
1E
01
1g
1M
0J
0F
18
10
1N
#415000
0"
0E
11
#417500
1"
1E
01
1c
0d
0g
0Q
1P
0O
0L
0M
1F
1<
0;
08
1,
0-
00
0N
1O
#420000
0"
0E
11
#422500
1"
1E
01
1g
1K
0F
18
10
#425000
0"
0E
11
#427500
1"
1E
01
1f
0g
1F
19
08
1/
00
#430000
0"
0E
11
#432500
1"
1E
01
1g
0K
1I
0F
18
10
#435000
0"
0E
11
#437500
1"
1E
01
0f
1e
0g
1F
09
1:
08
0/
1.
00
#440000
0"
0E
11
#442500
1"
1E
01
1g
1K
0F
18
10
#445000
0"
0E
11
#447500
1"
1E
01
1f
0g
1F
19
08
1/
00
#450000
0"
0E
11
#452500
1"
1E
01
1g
0K
1J
0I
0F
18
10
#455000
0"
0E
11
#457500
1"
1E
01
0f
1d
0e
0g
1T
1F
09
1;
0:
08
0/
1-
0.
00
#460000
0"
0E
11
#462500
1"
1E
01
1g
1M
0J
0F
18
10
1N
0O
#465000
0"
0E
11
#467500
1"
1E
01
0b
1`
0a
0c
0d
0g
1S
0T
1L
0M
1F
0=
1?
0>
0<
0;
08
0+
1)
0*
0,
0-
00
0N
#470000
0"
0E
11
#472500
1"
1E
01
1g
1K
0F
18
10
#475000
0"
0E
11
#477500
1"
1E
01
1f
0g
1F
19
08
1/
00
#480000
0"
0E
11
#482500
1"
1E
01
1g
0K
1I
0F
18
10
#485000
0"
0E
11
#487500
1"
1E
01
0f
1e
0g
1F
09
1:
08
0/
1.
00
#490000
0"
0E
11
#492500
1"
1E
01
1g
1K
0F
18
10
#495000
0"
0E
11
#497500
1"
1E
01
1f
0g
1F
19
08
1/
00
#500000
0"
0E
11
#502500
1"
1E
01
1g
0K
1J
0I
0F
18
10
#505000
0"
0E
11
#507500
1"
1E
01
0f
1d
0e
0g
1F
09
1;
0:
08
0/
1-
0.
00
#510000
0"
0E
11
#512500
1"
1E
01
1g
1M
0J
0F
18
10
1N
#515000
0"
0E
11
#517500
1"
1E
01
1c
0d
0g
1Y
0P
0L
0M
1F
1<
0;
08
1,
0-
00
0N
#520000
0"
0E
11
#522500
1"
1E
01
1g
1K
0F
18
10
#525000
0"
0E
11
#527500
1"
1E
01
1f
0g
1F
19
08
1/
00
#530000
0"
0E
11
#532500
1"
1E
01
1g
0K
1I
0F
18
10
#535000
0"
0E
11
#537500
1"
1E
01
0f
1e
0g
1F
09
1:
08
0/
1.
00
#540000
0"
0E
11
#542500
1"
1E
01
1g
1K
0F
18
10
#545000
0"
0E
11
#547500
1"
1E
01
1f
0g
1F
19
08
1/
00
#550000
0"
0E
11
#552500
1"
1E
01
1g
0K
1J
0I
0F
18
10
#555000
0"
0E
11
#557500
1"
1E
01
0f
1d
0e
0g
1T
1F
09
1;
0:
08
0/
1-
0.
00
#560000
0"
0E
11
#562500
1"
1E
01
1g
1U
1M
0J
0F
18
10
1N
#565000
0"
0E
11
#567500
1"
1E
01
1_
0`
0c
0d
0g
1X
0R
0Y
0S
0T
1L
0M
0U
1F
1@
0?
0<
0;
08
1(
0)
0,
0-
00
0N
#570000
0"
0E
11
#572500
1"
1E
01
1g
1K
0F
18
10
#575000
0"
0E
11
#577500
1"
1E
01
1f
0g
1F
19
08
1/
00
#580000
0"
0E
11
#582500
1"
1E
01
1g
0K
1I
0F
18
10
#585000
0"
0E
11
#587500
1"
1E
01
0f
1e
0g
1F
09
1:
08
0/
1.
00
#590000
0"
0E
11
#592500
1"
1E
01
1g
1K
0F
18
10
#595000
0"
0E
11
#597500
1"
1E
01
1f
0g
1F
19
08
1/
00
#600000
0"
0E
11
#602500
1"
1E
01
1g
0K
1J
0I
0F
18
10
#605000
0"
0E
11
#607500
1"
1E
01
0f
1d
0e
0g
1F
09
1;
0:
08
0/
1-
0.
00
#610000
0"
0E
11
#612500
1"
1E
01
1g
1M
0J
0F
18
10
1N
#615000
0"
0E
11
#617500
1"
1E
01
1c
0d
0g
1Q
0L
0M
1F
1<
0;
08
1,
0-
00
0N
#620000
0"
0E
11
#622500
1"
1E
01
1g
1K
0F
18
10
#625000
0"
0E
11
#627500
1"
1E
01
1f
0g
1F
19
08
1/
00
#630000
0"
0E
11
#632500
1"
1E
01
1g
0K
1I
0F
18
10
#635000
0"
0E
11
#637500
1"
1E
01
0f
1e
0g
1F
09
1:
08
0/
1.
00
#640000
0"
0E
11
#642500
1"
1E
01
1g
1K
0F
18
10
#645000
0"
0E
11
#647500
1"
1E
01
1f
0g
1F
19
08
1/
00
#650000
0"
0E
11
#652500
1"
1E
01
1g
0K
1J
0I
0F
18
10
#655000
0"
0E
11
#657500
1"
1E
01
0f
1d
0e
0g
1T
1F
09
1;
0:
08
0/
1-
0.
00
#660000
0"
0E
11
#662500
1"
1E
01
1g
1M
0J
0F
18
10
1N
#665000
0"
0E
11
#667500
1"
1E
01
1b
0c
0d
0g
0T
1L
0M
1F
1=
0<
0;
08
1+
0,
0-
00
0N
#670000
0"
0E
11
#672500
1"
1E
01
1g
1K
0F
18
10
#675000
0"
0E
11
#677500
1"
1E
01
1f
0g
1F
19
08
1/
00
#680000
0"
0E
11
#682500
1"
1E
01
1g
0K
1I
0F
18
10
#685000
0"
0E
11
#687500
1"
1E
01
0f
1e
0g
1F
09
1:
08
0/
1.
00
#690000
0"
0E
11
#692500
1"
1E
01
1g
1K
0F
18
10
#695000
0"
0E
11
#697500
1"
1E
01
1f
0g
1F
19
08
1/
00
#700000
0"
0E
11
#702500
1"
1E
01
1g
0K
1J
0I
0F
18
10
#705000
0"
0E
11
#707500
1"
1E
01
0f
1d
0e
0g
1F
09
1;
0:
08
0/
1-
0.
00
#710000
0"
0E
11
#712500
1"
1E
01
1g
1M
0J
0F
18
10
1N
#715000
0"
0E
11
#717500
1"
1E
01
1c
0d
0g
0Q
1O
0L
0M
1F
1<
0;
08
1,
0-
00
0N
0O
#720000
0"
0E
11
#722500
1"
1E
01
1g
1K
0F
18
10
#725000
0"
0E
11
#727500
1"
1E
01
1f
0g
1F
19
08
1/
00
#730000
0"
0E
11
#732500
1"
1E
01
1g
0K
1I
0F
18
10
#735000
0"
0E
11
#737500
1"
1E
01
0f
1e
0g
1F
09
1:
08
0/
1.
00
#740000
0"
0E
11
#742500
1"
1E
01
1g
1K
0F
18
10
#745000
0"
0E
11
#747500
1"
1E
01
1f
0g
1F
19
08
1/
00
#750000
0"
0E
11
#752500
1"
1E
01
1g
0K
1J
0I
0F
18
10
#755000
0"
0E
11
#757500
1"
1E
01
0f
1d
0e
0g
1T
1F
09
1;
0:
08
0/
1-
0.
00
#760000
0"
0E
11
#762500
1"
1E
01
1g
1M
0J
0F
18
10
1N
1O
#765000
0"
0E
11
#767500
1"
1E
01
0b
1a
0c
0d
0g
0T
1L
0M
1F
0=
1>
0<
0;
08
0+
1*
0,
0-
00
0N
#770000
0"
0E
11
#772500
1"
1E
01
1g
1K
0F
18
10
#775000
0"
0E
11
#777500
1"
1E
01
1f
0g
1F
19
08
1/
00
#780000
0"
0E
11
#782500
1"
1E
01
1g
0K
1I
0F
18
10
#785000
0"
0E
11
#787500
1"
1E
01
0f
1e
0g
1F
09
1:
08
0/
1.
00
#790000
0"
0E
11
#792500
1"
1E
01
1g
1K
0F
18
10
#795000
0"
0E
11
#797500
1"
1E
01
1f
0g
1F
19
08
1/
00
#800000
0"
0E
11
#802500
1"
1E
01
1g
0K
1J
0I
0F
18
10
#805000
0"
0E
11
#807500
1"
1E
01
0f
1d
0e
0g
1F
09
1;
0:
08
0/
1-
0.
00
#810000
0"
0E
11
#812500
1"
1E
01
1g
1M
0J
0F
18
10
1N
#815000
0"
0E
11
#817500
1"
1E
01
1c
0d
0g
1Q
0L
0M
1F
1<
0;
08
1,
0-
00
0N
#820000
0"
0E
11
#822500
1"
1E
01
1g
1K
0F
18
10
#825000
0"
0E
11
#827500
1"
1E
01
1f
0g
1F
19
08
1/
00
#830000
0"
0E
11
#832500
1"
1E
01
1g
0K
1I
0F
18
10
#835000
0"
0E
11
#837500
1"
1E
01
0f
1e
0g
1F
09
1:
08
0/
1.
00
#840000
0"
0E
11
#842500
1"
1E
01
1g
1K
0F
18
10
#845000
0"
0E
11
#847500
1"
1E
01
1f
0g
1F
19
08
1/
00
#850000
0"
0E
11
#852500
1"
1E
01
1g
0K
1J
0I
0F
18
10
#855000
0"
0E
11
#857500
1"
1E
01
0f
1d
0e
0g
1T
1F
09
1;
0:
08
0/
1-
0.
00
#860000
0"
0E
11
#862500
1"
1E
01
1g
1M
0J
0F
18
10
1N
#865000
0"
0E
11
#867500
1"
1E
01
1b
0c
0d
0g
0T
1L
0M
1F
1=
0<
0;
08
1+
0,
0-
00
0N
#870000
0"
0E
11
#872500
1"
1E
01
1g
1K
0F
18
10
#875000
0"
0E
11
#877500
1"
1E
01
1f
0g
1F
19
08
1/
00
#880000
0"
0E
11
#882500
1"
1E
01
1g
0K
1I
0F
18
10
#885000
0"
0E
11
#887500
1"
1E
01
0f
1e
0g
1F
09
1:
08
0/
1.
00
#890000
0"
0E
11
#892500
1"
1E
01
1g
1K
0F
18
10
#895000
0"
0E
11
#897500
1"
1E
01
1f
0g
1F
19
08
1/
00
#900000
0"
0E
11
#902500
1"
1E
01
1g
0K
1J
0I
0F
18
10
#905000
0"
0E
11
#907500
1"
1E
01
0f
1d
0e
0g
1F
09
1;
0:
08
0/
1-
0.
00
#910000
0"
0E
11
#912500
1"
1E
01
1g
1M
0J
0F
18
10
1N
#915000
0"
0E
11
#917500
1"
1E
01
1c
0d
0g
0Q
1P
0O
0L
0M
1F
1<
0;
08
1,
0-
00
0N
1O
#920000
0"
0E
11
#922500
1"
1E
01
1g
1K
0F
18
10
#925000
0"
0E
11
#927500
1"
1E
01
1f
0g
1F
19
08
1/
00
#930000
0"
0E
11
#932500
1"
1E
01
1g
0K
1I
0F
18
10
#935000
0"
0E
11
#937500
1"
1E
01
0f
1e
0g
1F
09
1:
08
0/
1.
00
#940000
0"
0E
11
#942500
1"
1E
01
1g
1K
0F
18
10
#945000
0"
0E
11
#947500
1"
1E
01
1f
0g
1F
19
08
1/
00
#950000
0"
0E
11
#952500
1"
1E
01
1g
0K
1J
0I
0F
18
10
#955000
0"
0E
11
#957500
1"
1E
01
0f
1d
0e
0g
1T
1F
09
1;
0:
08
0/
1-
0.
00
#960000
0"
0E
11
#962500
1"
1E
01
1g
1M
0J
0F
18
10
1N
0O
#965000
0"
0E
11
#967500
1"
1E
01
0b
1`
0a
0c
0d
0g
1S
0T
1L
0M
1F
0=
1?
0>
0<
0;
08
0+
1)
0*
0,
0-
00
0N
#970000
0"
0E
11
#972500
1"
1E
01
1g
1K
0F
18
10
#975000
0"
0E
11
#977500
1"
1E
01
1f
0g
1F
19
08
1/
00
#980000
0"
0E
11
#982500
1"
1E
01
1g
0K
1I
0F
18
10
#985000
0"
0E
11
#987500
1"
1E
01
0f
1e
0g
1F
09
1:
08
0/
1.
00
#990000
0"
0E
11
#992500
1"
1E
01
1g
1K
0F
18
10
#995000
0"
0E
11
#997500
1"
1E
01
1f
0g
1F
19
08
1/
00
#1000000
0"
0E
11
#1002500
1"
1E
01
1g
0K
1J
0I
0F
18
10
#1005000
0"
0E
11
#1007500
1"
1E
01
0f
1d
0e
0g
1F
09
1;
0:
08
0/
1-
0.
00
#1010000
0"
0E
11
#1012500
1"
1E
01
1g
1M
0J
0F
18
10
1N
#1015000
0"
0E
11
#1017500
1"
1E
01
1c
0d
0g
1Y
0P
0L
0M
1F
1<
0;
08
1,
0-
00
0N
#1020000
0"
0E
11
#1022500
1"
1E
01
1g
1K
0F
18
10
#1025000
0"
0E
11
#1027500
1"
1E
01
1f
0g
1F
19
08
1/
00
#1030000
0"
0E
11
#1032500
1"
1E
01
1g
0K
1I
0F
18
10
#1035000
0"
0E
11
#1037500
1"
1E
01
0f
1e
0g
1F
09
1:
08
0/
1.
00
#1040000
0"
0E
11
#1042500
1"
1E
01
1g
1K
0F
18
10
#1045000
0"
0E
11
#1047500
1"
1E
01
1f
0g
1F
19
08
1/
00
#1050000
0"
0E
11
#1052500
1"
1E
01
1g
0K
1J
0I
0F
18
10
#1055000
0"
0E
11
#1057500
1"
1E
01
0f
1d
0e
0g
1T
1F
09
1;
0:
08
0/
1-
0.
00
#1060000
0"
0E
11
#1062500
1"
1E
01
1g
1U
1M
0J
0F
18
10
1N
#1065000
0"
0E
11
#1067500
1"
1E
01
1^
0_
0`
0c
0d
0g
1R
0Y
0S
0T
1L
0M
0U
1F
1A
0@
0?
0<
0;
08
1'
0(
0)
0,
0-
00
0N
#1070000
0"
0E
11
#1072500
1"
1E
01
1g
1K
0F
18
10
#1075000
0"
0E
11
#1077500
1"
1E
01
1f
0g
1F
19
08
1/
00
#1080000
0"
0E
11
#1082500
1"
1E
01
1g
0K
1I
0F
18
10
#1085000
0"
0E
11
#1087500
1"
1E
01
0f
1e
0g
1F
09
1:
08
0/
1.
00
#1090000
0"
0E
11
#1092500
1"
1E
01
1g
1K
0F
18
10
#1095000
0"
0E
11
#1097500
1"
1E
01
1f
0g
1F
19
08
1/
00
#1100000
0"
0E
11
#1102500
1"
1E
01
1g
0K
1J
0I
0F
18
10
#1105000
0"
0E
11
#1107500
1"
1E
01
0f
1d
0e
0g
1F
09
1;
0:
08
0/
1-
0.
00
#1110000
0"
0E
11
#1112500
1"
1E
01
1g
1M
0J
0F
18
10
1N
#1115000
0"
0E
11
#1117500
1"
1E
01
1c
0d
0g
1Q
0L
0M
1F
1<
0;
08
1,
0-
00
0N
#1120000
0"
0E
11
#1122500
1"
1E
01
1g
1K
0F
18
10
#1125000
0"
0E
11
#1127500
1"
1E
01
1f
0g
1F
19
08
1/
00
#1130000
0"
0E
11
#1132500
1"
1E
01
1g
0K
1I
0F
18
10
#1135000
0"
0E
11
#1137500
1"
1E
01
0f
1e
0g
1F
09
1:
08
0/
1.
00
#1140000
0"
0E
11
#1142500
1"
1E
01
1g
1K
0F
18
10
#1145000
0"
0E
11
#1147500
1"
1E
01
1f
0g
1F
19
08
1/
00
#1150000
0"
0E
11
#1152500
1"
1E
01
1g
0K
1J
0I
0F
18
10
#1155000
0"
0E
11
#1157500
1"
1E
01
0f
1d
0e
0g
1T
1F
09
1;
0:
08
0/
1-
0.
00
#1160000
0"
0E
11
#1162500
1"
1E
01
1g
1M
0J
0F
18
10
1N
#1165000
0"
0E
11
#1167500
1"
1E
01
1b
0c
0d
0g
0T
1L
0M
1F
1=
0<
0;
08
1+
0,
0-
00
0N
#1170000
0"
0E
11
#1172500
1"
1E
01
1g
1K
0F
18
10
#1175000
0"
0E
11
#1177500
1"
1E
01
1f
0g
1F
19
08
1/
00
#1180000
0"
0E
11
#1182500
1"
1E
01
1g
0K
1I
0F
18
10
#1185000
0"
0E
11
#1187500
1"
1E
01
0f
1e
0g
1F
09
1:
08
0/
1.
00
#1190000
0"
0E
11
#1192500
1"
1E
01
1g
1K
0F
18
10
#1195000
0"
0E
11
#1197500
1"
1E
01
1f
0g
1F
19
08
1/
00
#1200000
0"
0E
11
#1202500
1"
1E
01
1g
0K
1J
0I
0F
18
10
#1205000
0"
0E
11
#1207500
1"
1E
01
0f
1d
0e
0g
1F
09
1;
0:
08
0/
1-
0.
00
#1210000
0"
0E
11
#1212500
1"
1E
01
1g
1M
0J
0F
18
10
1N
#1215000
0"
0E
11
#1217500
1"
1E
01
1c
0d
0g
0Q
1O
0L
0M
1F
1<
0;
08
1,
0-
00
0N
0O
#1220000
0"
0E
11
#1222500
1"
1E
01
1g
1K
0F
18
10
#1225000
0"
0E
11
#1227500
1"
1E
01
1f
0g
1F
19
08
1/
00
#1230000
0"
0E
11
#1232500
1"
1E
01
1g
0K
1I
0F
18
10
#1235000
0"
0E
11
#1237500
1"
1E
01
0f
1e
0g
1F
09
1:
08
0/
1.
00
#1240000
0"
0E
11
#1242500
1"
1E
01
1g
1K
0F
18
10
#1245000
0"
0E
11
#1247500
1"
1E
01
1f
0g
1F
19
08
1/
00
#1250000
0"
0E
11
#1252500
1"
1E
01
1g
0K
1J
0I
0F
18
10
#1255000
0"
0E
11
#1257500
1"
1E
01
0f
1d
0e
0g
1T
1F
09
1;
0:
08
0/
1-
0.
00
#1260000
0"
0E
11
#1262500
1"
1E
01
1g
1M
0J
0F
18
10
1N
1O
#1265000
0"
0E
11
#1267500
1"
1E
01
0b
1a
0c
0d
0g
0T
1L
0M
1F
0=
1>
0<
0;
08
0+
1*
0,
0-
00
0N
#1270000
0"
0E
11
#1272500
1"
1E
01
1g
1K
0F
18
10
#1275000
0"
0E
11
#1277500
1"
1E
01
1f
0g
1F
19
08
1/
00
#1280000
0"
0E
11
#1282500
1"
1E
01
1g
0K
1I
0F
18
10
#1285000
0"
0E
11
#1287500
1"
1E
01
0f
1e
0g
1F
09
1:
08
0/
1.
00
#1290000
0"
0E
11
#1292500
1"
1E
01
1g
1K
0F
18
10
#1295000
0"
0E
11
#1297500
1"
1E
01
1f
0g
1F
19
08
1/
00
#1300000
0"
0E
11
#1302500
1"
1E
01
1g
0K
1J
0I
0F
18
10
#1305000
0"
0E
11
#1307500
1"
1E
01
0f
1d
0e
0g
1F
09
1;
0:
08
0/
1-
0.
00
#1310000
0"
0E
11
#1312500
1"
1E
01
1g
1M
0J
0F
18
10
1N
#1315000
0"
0E
11
#1317500
1"
1E
01
1c
0d
0g
1Q
0L
0M
1F
1<
0;
08
1,
0-
00
0N
#1320000
0"
0E
11
#1322500
1"
1E
01
1g
1K
0F
18
10
#1325000
0"
0E
11
#1327500
1"
1E
01
1f
0g
1F
19
08
1/
00
#1330000
0"
0E
11
#1332500
1"
1E
01
1g
0K
1I
0F
18
10
#1335000
0"
0E
11
#1337500
1"
1E
01
0f
1e
0g
1F
09
1:
08
0/
1.
00
#1340000
0"
0E
11
#1342500
1"
1E
01
1g
1K
0F
18
10
#1345000
0"
0E
11
#1347500
1"
1E
01
1f
0g
1F
19
08
1/
00
#1350000
0"
0E
11
#1352500
1"
1E
01
1g
0K
1J
0I
0F
18
10
#1355000
0"
0E
11
#1357500
1"
1E
01
0f
1d
0e
0g
1T
1F
09
1;
0:
08
0/
1-
0.
00
#1360000
0"
0E
11
#1362500
1"
1E
01
1g
1M
0J
0F
18
10
1N
#1365000
0"
0E
11
#1367500
1"
1E
01
1b
0c
0d
0g
0T
1L
0M
1F
1=
0<
0;
08
1+
0,
0-
00
0N
#1370000
0"
0E
11
#1372500
1"
1E
01
1g
1K
0F
18
10
#1375000
0"
0E
11
#1377500
1"
1E
01
1f
0g
1F
19
08
1/
00
#1380000
0"
0E
11
#1382500
1"
1E
01
1g
0K
1I
0F
18
10
#1385000
0"
0E
11
#1387500
1"
1E
01
0f
1e
0g
1F
09
1:
08
0/
1.
00
#1390000
0"
0E
11
#1392500
1"
1E
01
1g
1K
0F
18
10
#1395000
0"
0E
11
#1397500
1"
1E
01
1f
0g
1F
19
08
1/
00
#1400000
0"
0E
11
#1402500
1"
1E
01
1g
0K
1J
0I
0F
18
10
#1405000
0"
0E
11
#1407500
1"
1E
01
0f
1d
0e
0g
1F
09
1;
0:
08
0/
1-
0.
00
#1410000
0"
0E
11
#1412500
1"
1E
01
1g
1M
0J
0F
18
10
1N
#1415000
0"
0E
11
