fast_multiplier_8bit/simulation/qsim/fast_multiplier_8bit.msim.vcd
$comment
	File created using the following command:
		vcd file fast_multiplier_8bit.msim.vcd -direction
$end
$date
	Tue Nov 09 23:24:11 2021
$end
$version
	ModelSim Version 10.1d
$end
$timescale
	1ps
$end
$scope module fast_multiplier_8bit_vlg_vec_tst $end
$var reg 8 ! X [7:0] $end
$var reg 8 " Y [7:0] $end
$var wire 1 # mult_out [15] $end
$var wire 1 $ mult_out [14] $end
$var wire 1 % mult_out [13] $end
$var wire 1 & mult_out [12] $end
$var wire 1 ' mult_out [11] $end
$var wire 1 ( mult_out [10] $end
$var wire 1 ) mult_out [9] $end
$var wire 1 * mult_out [8] $end
$var wire 1 + mult_out [7] $end
$var wire 1 , mult_out [6] $end
$var wire 1 - mult_out [5] $end
$var wire 1 . mult_out [4] $end
$var wire 1 / mult_out [3] $end
$var wire 1 0 mult_out [2] $end
$var wire 1 1 mult_out [1] $end
$var wire 1 2 mult_out [0] $end
$var wire 1 3 sampler $end
$scope module i1 $end
$var wire 1 4 gnd $end
$var wire 1 5 vcc $end
$var wire 1 6 unknown $end
$var tri1 1 7 devclrn $end
$var tri1 1 8 devpor $end
$var tri1 1 9 devoe $end
$var wire 1 : mult_out[0]~output_o $end
$var wire 1 ; mult_out[1]~output_o $end
$var wire 1 < mult_out[2]~output_o $end
$var wire 1 = mult_out[3]~output_o $end
$var wire 1 > mult_out[4]~output_o $end
$var wire 1 ? mult_out[5]~output_o $end
$var wire 1 @ mult_out[6]~output_o $end
$var wire 1 A mult_out[7]~output_o $end
$var wire 1 B mult_out[8]~output_o $end
$var wire 1 C mult_out[9]~output_o $end
$var wire 1 D mult_out[10]~output_o $end
$var wire 1 E mult_out[11]~output_o $end
$var wire 1 F mult_out[12]~output_o $end
$var wire 1 G mult_out[13]~output_o $end
$var wire 1 H mult_out[14]~output_o $end
$var wire 1 I mult_out[15]~output_o $end
$var wire 1 J X[0]~input_o $end
$var wire 1 K Y[0]~input_o $end
$var wire 1 L K0~0_combout $end
$var wire 1 M X[1]~input_o $end
$var wire 1 N Y[1]~input_o $end
$var wire 1 O A1|Add0~0_combout $end
$var wire 1 P X[2]~input_o $end
$var wire 1 Q A1|Add0~1 $end
$var wire 1 R A1|Add0~2_combout $end
$var wire 1 S Y[2]~input_o $end
$var wire 1 T A2|Add0~0_combout $end
$var wire 1 U X[3]~input_o $end
$var wire 1 V A1|Add0~3 $end
$var wire 1 W A1|Add0~4_combout $end
$var wire 1 X A2|Add0~1 $end
$var wire 1 Y A2|Add0~2_combout $end
$var wire 1 Z Y[3]~input_o $end
$var wire 1 [ A3|Add0~0_combout $end
$var wire 1 \ X[4]~input_o $end
$var wire 1 ] A1|Add0~5 $end
$var wire 1 ^ A1|Add0~6_combout $end
$var wire 1 _ A2|Add0~3 $end
$var wire 1 ` A2|Add0~4_combout $end
$var wire 1 a A3|Add0~1 $end
$var wire 1 b A3|Add0~2_combout $end
$var wire 1 c Y[4]~input_o $end
$var wire 1 d A4|Add0~0_combout $end
$var wire 1 e X[5]~input_o $end
$var wire 1 f A1|Add0~7 $end
$var wire 1 g A1|Add0~8_combout $end
$var wire 1 h A2|Add0~5 $end
$var wire 1 i A2|Add0~6_combout $end
$var wire 1 j A3|Add0~3 $end
$var wire 1 k A3|Add0~4_combout $end
$var wire 1 l A4|Add0~1 $end
$var wire 1 m A4|Add0~2_combout $end
$var wire 1 n Y[5]~input_o $end
$var wire 1 o A5|Add0~0_combout $end
$var wire 1 p X[6]~input_o $end
$var wire 1 q A1|Add0~9 $end
$var wire 1 r A1|Add0~10_combout $end
$var wire 1 s A2|Add0~7 $end
$var wire 1 t A2|Add0~8_combout $end
$var wire 1 u A3|Add0~5 $end
$var wire 1 v A3|Add0~6_combout $end
$var wire 1 w A4|Add0~3 $end
$var wire 1 x A4|Add0~4_combout $end
$var wire 1 y A5|Add0~1 $end
$var wire 1 z A5|Add0~2_combout $end
$var wire 1 { Y[6]~input_o $end
$var wire 1 | A6|Add0~0_combout $end
$var wire 1 } X[7]~input_o $end
$var wire 1 ~ A1|Add0~11 $end
$var wire 1 !! A1|Add0~12_combout $end
$var wire 1 "! A2|Add0~9 $end
$var wire 1 #! A2|Add0~10_combout $end
$var wire 1 $! A3|Add0~7 $end
$var wire 1 %! A3|Add0~8_combout $end
$var wire 1 &! A4|Add0~5 $end
$var wire 1 '! A4|Add0~6_combout $end
$var wire 1 (! A5|Add0~3 $end
$var wire 1 )! A5|Add0~4_combout $end
$var wire 1 *! A6|Add0~1 $end
$var wire 1 +! A6|Add0~2_combout $end
$var wire 1 ,! Y[7]~input_o $end
$var wire 1 -! A7|Add0~0_combout $end
$var wire 1 .! A1|Add0~13 $end
$var wire 1 /! A1|Add0~14_combout $end
$var wire 1 0! A2|Add0~11 $end
$var wire 1 1! A2|Add0~12_combout $end
$var wire 1 2! A3|Add0~9 $end
$var wire 1 3! A3|Add0~10_combout $end
$var wire 1 4! A4|Add0~7 $end
$var wire 1 5! A4|Add0~8_combout $end
$var wire 1 6! A5|Add0~5 $end
$var wire 1 7! A5|Add0~6_combout $end
$var wire 1 8! A6|Add0~3 $end
$var wire 1 9! A6|Add0~4_combout $end
$var wire 1 :! A7|Add0~1 $end
$var wire 1 ;! A7|Add0~2_combout $end
$var wire 1 <! A1|Add0~15 $end
$var wire 1 =! A1|Add0~16_combout $end
$var wire 1 >! A2|Add0~13 $end
$var wire 1 ?! A2|Add0~14_combout $end
$var wire 1 @! A3|Add0~11 $end
$var wire 1 A! A3|Add0~12_combout $end
$var wire 1 B! A4|Add0~9 $end
$var wire 1 C! A4|Add0~10_combout $end
$var wire 1 D! A5|Add0~7 $end
$var wire 1 E! A5|Add0~8_combout $end
$var wire 1 F! A6|Add0~5 $end
$var wire 1 G! A6|Add0~6_combout $end
$var wire 1 H! A7|Add0~3 $end
$var wire 1 I! A7|Add0~4_combout $end
$var wire 1 J! A2|Add0~15 $end
$var wire 1 K! A2|Add0~16_combout $end
$var wire 1 L! A3|Add0~13 $end
$var wire 1 M! A3|Add0~14_combout $end
$var wire 1 N! A4|Add0~11 $end
$var wire 1 O! A4|Add0~12_combout $end
$var wire 1 P! A5|Add0~9 $end
$var wire 1 Q! A5|Add0~10_combout $end
$var wire 1 R! A6|Add0~7 $end
$var wire 1 S! A6|Add0~8_combout $end
$var wire 1 T! A7|Add0~5 $end
$var wire 1 U! A7|Add0~6_combout $end
$var wire 1 V! A3|Add0~15 $end
$var wire 1 W! A3|Add0~16_combout $end
$var wire 1 X! A4|Add0~13 $end
$var wire 1 Y! A4|Add0~14_combout $end
$var wire 1 Z! A5|Add0~11 $end
$var wire 1 [! A5|Add0~12_combout $end
$var wire 1 \! A6|Add0~9 $end
$var wire 1 ]! A6|Add0~10_combout $end
$var wire 1 ^! A7|Add0~7 $end
$var wire 1 _! A7|Add0~8_combout $end
$var wire 1 `! A4|Add0~15 $end
$var wire 1 a! A4|Add0~16_combout $end
$var wire 1 b! A5|Add0~13 $end
$var wire 1 c! A5|Add0~14_combout $end
$var wire 1 d! A6|Add0~11 $end
$var wire 1 e! A6|Add0~12_combout $end
$var wire 1 f! A7|Add0~9 $end
$var wire 1 g! A7|Add0~10_combout $end
$var wire 1 h! A5|Add0~15 $end
$var wire 1 i! A5|Add0~16_combout $end
$var wire 1 j! A6|Add0~13 $end
$var wire 1 k! A6|Add0~14_combout $end
$var wire 1 l! A7|Add0~11 $end
$var wire 1 m! A7|Add0~12_combout $end
$var wire 1 n! A6|Add0~15 $end
$var wire 1 o! A6|Add0~16_combout $end
$var wire 1 p! A7|Add0~13 $end
$var wire 1 q! A7|Add0~14_combout $end
$var wire 1 r! A7|Add0~15 $end
$var wire 1 s! A7|Add0~16_combout $end
$var wire 1 t! K2 [7] $end
$var wire 1 u! K2 [6] $end
$var wire 1 v! K2 [5] $end
$var wire 1 w! K2 [4] $end
$var wire 1 x! K2 [3] $end
$var wire 1 y! K2 [2] $end
$var wire 1 z! K2 [1] $end
$var wire 1 {! K2 [0] $end
$var wire 1 |! K6 [7] $end
$var wire 1 }! K6 [6] $end
$var wire 1 ~! K6 [5] $end
$var wire 1 !" K6 [4] $end
$var wire 1 "" K6 [3] $end
$var wire 1 #" K6 [2] $end
$var wire 1 $" K6 [1] $end
$var wire 1 %" K6 [0] $end
$var wire 1 &" K4 [7] $end
$var wire 1 '" K4 [6] $end
$var wire 1 (" K4 [5] $end
$var wire 1 )" K4 [4] $end
$var wire 1 *" K4 [3] $end
$var wire 1 +" K4 [2] $end
$var wire 1 ," K4 [1] $end
$var wire 1 -" K4 [0] $end
$var wire 1 ." K0 [7] $end
$var wire 1 /" K0 [6] $end
$var wire 1 0" K0 [5] $end
$var wire 1 1" K0 [4] $end
$var wire 1 2" K0 [3] $end
$var wire 1 3" K0 [2] $end
$var wire 1 4" K0 [1] $end
$var wire 1 5" K0 [0] $end
$var wire 1 6" K5 [7] $end
$var wire 1 7" K5 [6] $end
$var wire 1 8" K5 [5] $end
$var wire 1 9" K5 [4] $end
$var wire 1 :" K5 [3] $end
$var wire 1 ;" K5 [2] $end
$var wire 1 <" K5 [1] $end
$var wire 1 =" K5 [0] $end
$var wire 1 >" K7 [7] $end
$var wire 1 ?" K7 [6] $end
$var wire 1 @" K7 [5] $end
$var wire 1 A" K7 [4] $end
$var wire 1 B" K7 [3] $end
$var wire 1 C" K7 [2] $end
$var wire 1 D" K7 [1] $end
$var wire 1 E" K7 [0] $end
$var wire 1 F" K3 [7] $end
$var wire 1 G" K3 [6] $end
$var wire 1 H" K3 [5] $end
$var wire 1 I" K3 [4] $end
$var wire 1 J" K3 [3] $end
$var wire 1 K" K3 [2] $end
$var wire 1 L" K3 [1] $end
$var wire 1 M" K3 [0] $end
$var wire 1 N" K1 [7] $end
$var wire 1 O" K1 [6] $end
$var wire 1 P" K1 [5] $end
$var wire 1 Q" K1 [4] $end
$var wire 1 R" K1 [3] $end
$var wire 1 S" K1 [2] $end
$var wire 1 T" K1 [1] $end
$var wire 1 U" K1 [0] $end
$upscope $end
$upscope $end
$enddefinitions $end
#0
$dumpvars
b11100 !
b10110000 "
02
01
00
0/
0.
0-
1,
0+
1*
1)
0(
0'
1&
0%
0$
0#
x3
04
15
x6
17
18
19
0:
0;
0<
0=
0>
0?
1@
0A
1B
1C
0D
0E
1F
0G
0H
0I
0J
0K
0L
0M
0N
0O
1P
0Q
0R
0S
0T
1U
1V
0W
0X
0Y
0Z
0[
1\
0]
0^
1_
0`
0a
0b
1c
0d
0e
1f
0g
0h
0i
1j
0k
0l
0m
1n
0o
0p
0q
0r
1s
0t
0u
0v
1w
1x
0y
1z
0{
1|
0}
1~
0!!
0"!
0#!
1$!
0%!
0&!
1'!
1(!
0)!
0*!
0+!
1,!
0-!
0.!
0/!
10!
01!
02!
03!
14!
15!
16!
17!
18!
19!
0:!
1;!
1<!
0=!
0>!
0?!
1@!
0A!
0B!
0C!
0D!
0E!
0F!
0G!
1H!
1I!
1J!
0K!
0L!
0M!
1N!
0O!
1P!
1Q!
1R!
1S!
0T!
0U!
1V!
0W!
0X!
0Y!
1Z!
0[!
0\!
0]!
0^!
0_!
1`!
0a!
0b!
0c!
1d!
0e!
1f!
1g!
1h!
0i!
0j!
0k!
1l!
0m!
1n!
0o!
0p!
0q!
1r!
0s!
0{!
0z!
0y!
0x!
0w!
0v!
0u!
0t!
0%"
0$"
0#"
0""
0!"
0~!
0}!
0|!
0-"
0,"
1+"
1*"
1)"
0("
0'"
0&"
z5"
04"
03"
02"
01"
00"
0/"
0."
0="
0<"
1;"
1:"
19"
08"
07"
06"
0E"
0D"
1C"
1B"
1A"
0@"
0?"
0>"
0M"
0L"
0K"
0J"
0I"
0H"
0G"
0F"
0U"
0T"
0S"
0R"
0Q"
0P"
0O"
zN"
$end
#10000
b10011100 !
b10111100 !
b10111101 !
b110000 "
b10000 "
b0 "
b1000 "
b1100 "
b1101 "
1K
1S
1Z
0c
0n
0,!
1J
1e
1}
03
1."
10"
11"
12"
13"
1t!
1v!
1w!
1x!
1y!
1{!
1F"
1H"
1I"
1J"
1K"
1M"
0)"
0*"
0+"
09"
0:"
0;"
0A"
0B"
0C"
1L
1!!
1g
1^
1W
1R
1?!
1#!
1t
1i
1`
1M!
13!
1%!
1v
1k
05!
0'!
0x
0P!
1E!
07!
06!
1)!
0f!
1^!
1:
12
1T
1[
1_!
1U!
0I!
00!
0#!
0s
0i
1h
0`
1Y
1X
1A!
12!
0%!
0$!
0v
1u
0k
1b
1O!
15!
1'!
1x
1m
1D!
0)!
0z
0Q!
1G!
09!
1+!
1<
1=
1E
1D
0C
10
1/
1'
1(
0)
0T
0g!
0_!
11!
1"!
0t
0u
1k
1i
0b
1a
0_
0Y
1C!
0@!
03!
0'!
0x
1v
0m
1Q!
17!
1)!
1z
0E!
0+!
0S!
0<
0F
0E
00
0&
0'
0[
1d
1o
0|
1I!
0;!
1-!
13!
1#!
1$!
1m
1u
0k
1b
1`
0a
1E!
1L!
0A!
05!
0)!
0z
1x
1S!
19!
1+!
0G!
0=
1>
1?
0@
1C
0B
1A
0/
1.
1-
0,
1)
0*
1+
0d
1[
0o
1|
0-!
0U!
15!
0$!
0v
0m
1G!
0V!
0M!
0C!
07!
0+!
1z
0>
1=
0?
1@
0A
0D
0.
1/
0-
1,
0+
0(
1o
1d
0|
1U!
1;!
1-!
0I!
17!
1%!
0x
1W!
0O!
0E!
09!
1?
1>
0@
1D
1B
1A
0C
1-
1.
0,
1(
1*
1+
0)
0o
1I!
0-!
1|
19!
1'!
0z
1Y!
0Q!
0G!
0?
1C
0A
1@
0-
1)
0+
1,
0;!
1)!
1[!
0S!
0B
0*
1;!
0|
0I!
1+!
1]!
1B
0@
0C
1*
0,
0)
0U!
0D
0(
1-!
1_!
1A
1E
1+
1'
#20000
b10111100 !
b11101 "
b10101 "
b10001 "
b10000 "
0K
0S
0Z
1c
0J
13
0."
00"
01"
02"
03"
0t!
0v!
0w!
0x!
0y!
0{!
0F"
0H"
0I"
0J"
0K"
0M"
1&"
1("
1)"
1*"
1+"
0L
0!!
0g
0^
0W
0R
0?!
0#!
0"!
1t
0i
0`
0X
1V!
1M!
03!
0%!
1$!
1v
0u
1k
0`!
0Y!
1C!
1B!
05!
04!
0'!
1x
0:
02
1T
0[
10!
1s
1i
0h
1`
1_
0L!
1A!
02!
0k
0b
0W!
1O!
14!
1'!
1&!
0x
1m
1a!
0[!
1E!
0N!
0C!
07!
0)!
1z
1<
0=
10
0/
0T
01!
0t
1k
0i
1b
0`
0M!
1C!
1@!
13!
0m
1`!
1Y!
1Q!
0B!
15!
1)!
04!
0'!
0z
1c!
0]!
1G!
1X!
0O!
0E!
09!
0+!
0<
00
0d
1o
1|
03!
0v
1m
0k
0b
0X!
1O!
1E!
0A!
1B!
0a!
1[!
1S!
0C!
17!
1+!
0)!
1e!
0`!
0Y!
0Q!
0G!
0>
1?
1@
0.
1-
1,
1d
0o
0|
0_!
1I!
0;!
0-!
05!
0&!
1x
0m
1`!
1Y!
1Q!
1G!
0c!
1]!
0E!
19!
0+!
1a!
0[!
0S!
1>
0?
0@
0E
1C
0B
0A
1.
0-
0,
0'
1)
0*
0+
1o
0d
1U!
1-!
1g!
0I!
07!
14!
1'!
1z
0a!
1[!
1S!
0e!
0G!
1c!
0]!
1?
0>
1D
1A
1F
0C
1-
0.
1(
1+
1&
0)
0o
1I!
1_!
1;!
0-!
0U!
09!
0B!
15!
1)!
0c!
1]!
1e!
0?
1C
1E
1B
0A
0D
0-
1)
1'
1*
0+
0(
1|
1U!
0g!
0I!
0_!
1N!
1C!
17!
1+!
0e!
1@
1D
0F
0C
0E
1,
1(
0&
0)
0'
0;!
1_!
1g!
0O!
1E!
19!
0B
1E
1F
0*
1'
1&
1-!
0g!
0Q!
1G!
1A
0F
1+
0&
1;!
0S!
1B
1*
1I!
1C
1)
0U!
0D
0(
#30000
b11111100 !
b11101100 !
b11100100 !
b11100000 !
b1010000 "
b1110000 "
b11100001 !
b1100000 "
0c
1n
1{
1J
0P
0U
0\
1p
03
0&"
0("
0)"
0*"
0+"
16"
17"
18"
1="
1|!
1}!
1~!
1%"
0Y!
0C!
05!
0'!
0x
1c!
1b!
0[!
1Q!
1k!
1e!
0d!
0]!
1*!
1o
0|
0b!
1[!
0E!
07!
0)!
0z
1j!
0h!
0c!
1d!
1]!
1S!
08!
0+!
1?
0@
1-
0,
1m!
1g!
0_!
1h!
1c!
0d!
0]!
0G!
18!
1+!
0*!
0n!
0k!
1i!
0j!
1G
1F
0E
1%
1&
0'
1|
1_!
1U!
0-!
0i!
1j!
09!
0+!
1o!
1@
1E
1D
0A
1,
1'
1(
0+
0_!
0I!
1-!
0m!
0E
0C
1A
0G
0'
0)
1+
0%
0;!
0-!
1q!
0B
0A
1H
0*
0+
1$
#40000
b1100010 "
b1101010 "
b1101110 "
b1101111 "
b10100001 !
b10101001 !
b10101101 !
b1001111 "
1P
1U
0p
1K
1N
1S
1Z
0n
13
1#"
1K"
1y!
1S"
13"
1""
1J"
1x!
1R"
12"
0}!
07"
1."
10"
1/!
1P"
1U"
1t!
1v!
1{!
1F"
1H"
1M"
06"
08"
0="
1L
19!
1k
1`
1]
1R
1G!
1v
1i
1^
0e!
0[!
1!!
1g
11!
1r
1?!
1#!
1M!
13!
0c!
0Q!
1:
12
1O
1T
1[
0o
1m
1b
0f
0^
1X
1x
1u
0k
1h
0`
1d!
1]!
00!
0#!
0s
0i
0@!
03!
1t
1A!
1%!
1O!
15!
0j!
1e!
0S!
1;
1<
1=
0?
11
10
1/
0-
1;!
0T
1I!
0g!
1q
0g
0h
1`
1Y
1z
0$!
0m
1i
0b
0e!
1>!
01!
0%!
1"!
0t
0u
1k
1L!
0A!
05!
1C!
1'!
1Q!
17!
1n!
1k!
1B
0<
1C
0F
1*
00
1)
0&
1o
1d
1_!
1g!
0U!
0~
0r
1s
1b
1a
1*!
1%!
1u
0k
0J!
0?!
1@!
13!
0'!
1#!
1$!
1m
0V!
0M!
0C!
07!
1E!
1)!
1S!
1F!
09!
0o!
1?
1>
1E
1F
0D
1-
1.
1'
1&
0(
0[
0|
0o
0d
0g!
1m!
1.!
0!!
0"!
0j
0b
08!
1'!
0$!
0v
0m
1K!
0L!
15!
0)!
1W!
0O!
0E!
0F!
19!
0R!
0=
0@
0?
0>
0F
1G
0/
0,
0-
0.
0&
1%
1d
1o
1U!
0;!
0q!
0<!
0/!
10!
1k
1F!
09!
1)!
12!
0%!
0x
17!
18!
1+!
1Y!
0Q!
1R!
1\!
0S!
1>
1?
1D
0B
0H
1.
1-
1(
0*
0$
0d
0o
1;!
1=!
0>!
1m
0R!
0G!
08!
0+!
0@!
03!
0'!
0z
1[!
0\!
0d!
0]!
0>
0?
1B
0.
0-
1*
0;!
1-!
0U!
1S!
19!
1A!
05!
0)!
0*!
1e!
0B
1A
0D
0*
1+
0(
1o
0I!
0-!
1|
0_!
1C!
07!
18!
1?
0C
0A
1@
0E
1-
0)
0+
1,
0'
1U!
1;!
1g!
1E!
0F!
1D
1B
1F
1(
1*
1&
#50000
b10101111 !
b101111 !
b11001111 "
b111111 !
b11001101 "
b11001100 "
b1111111 !
b1111011 !
0K
0N
1,!
1M
0P
1\
1p
0}
03
0."
00"
02"
03"
1<!
1/!
0P"
0R"
0S"
0U"
1?"
1@"
1A"
1B"
1D"
1E"
1$"
1L"
1z!
0#"
0K"
0y!
1!"
1I"
1w!
1}!
1G"
1u!
0|!
0F"
0t!
0L
0.!
1!!
0q
1g
0]
0R
0=!
1>!
1~
1r
1f
1^
1p!
0l!
0^!
0H!
1+!
1b
0_
0Y
09!
0k
0`
1\!
0S!
1%!
1t
1j!
0e!
1L!
0A!
0k!
1V!
1M!
1J!
1?!
0:
02
0O
0m!
0g!
1_!
0U!
0;!
1-!
0/!
00!
0#!
0r
0s
0i
0^
0X
0!!
1"!
0t
0g
1h
1f!
1:!
0a
1H!
0m
0b
1]!
1^!
1'!
1v
1k!
1l!
0V!
0M!
0C!
0W!
1O!
0K!
1A!
0;
0G
0F
1E
0D
0B
1A
01
0%
0&
1'
0(
0*
1+
1T
1q!
0_!
1I!
0-!
1d
1[
1;!
1U!
1g!
0%!
0u
1k
0h
1`
1_
1Y
0v
0l!
0H!
1j
1b
1)!
1x
1W!
0O!
0E!
0Y!
1Q!
1V!
1M!
1C!
1<
1H
0E
1C
0A
1>
1=
1B
1D
1F
10
1$
0'
1)
0+
1.
1/
1*
1(
1&
0g!
0;!
0I!
0o
0d
0'!
1$!
1v
1m
1s
1i
0j
0b
0`
1a
0x
0k
08!
0+!
1z
1Y!
0Q!
1R!
1G!
0[!
1S!
0W!
1O!
1E!
0F
0B
0C
0?
0>
0&
0*
0)
0-
0.
0[
1m!
1I!
1d
0)!
02!
1%!
1x
0"!
1t
1u
0z
0m
19!
0:!
1*!
1[!
0\!
1T!
0]!
0^!
0Y!
1Q!
0R!
0G!
0=
1G
1C
1>
0/
1%
1)
1.
1o
0d
1-!
0|
0I!
0U!
1@!
13!
1'!
1z
10!
1#!
0$!
0*!
0[!
1\!
0T!
1?
0>
1A
0@
0C
0D
1-
0.
1+
0,
0)
0(
1|
0o
1U!
1I!
0A!
15!
1)!
1*!
0>!
11!
12!
18!
1+!
1@
0?
1D
1C
1,
0-
1(
1)
0|
0U!
0C!
17!
08!
0?!
0@!
09!
1:!
0@
0D
0,
0(
0-!
0E!
1F!
0A
0+
#60000
b1011011 !
b10001100 "
b10000100 "
b1010011 !
b10100100 "
b1010001 !
b11010001 !
b11000001 !
b11000101 !
0Z
1n
0{
0M
1P
0U
0\
0e
1}
13
0G"
0H"
0I"
0J"
0L"
0M"
16"
17"
1;"
1="
0}!
0~!
0!"
0""
0$"
0%"
0D"
0z!
1C"
1y!
0B"
0x!
0A"
0w!
0@"
0v!
1>"
1t!
0L!
1A!
03!
0%!
0v
1j
1b
0a
1c!
1[!
16!
0)!
0j!
1e!
1d!
1]!
0S!
1R!
1G!
0+!
0*!
1H!
0Y
1T!
1`
1^!
0i
0f!
0t
1l!
0#!
0r!
1?!
1[
1o
1|
1;!
0I!
1U!
1_!
1g!
0q!
0M!
1C!
05!
0'!
0x
0u
0d!
0]!
0D!
07!
18!
0k!
0\!
1S!
0:!
1$!
1v
02!
1%!
1L!
0A!
1=
1?
1@
1B
0C
1D
1E
1F
0H
1/
1-
1,
1*
0)
1(
1'
1&
0$
1d
1-!
0[
0m!
1s!
0O!
1P!
1D!
17!
06!
1)!
0z
0v
1j!
0e!
0F!
0p!
1d!
1]!
0^!
0%!
1x
1@!
13!
1'!
1M!
0C!
1>
1A
0=
0G
1I
1.
1+
0/
0%
1#
0_!
1m!
0U!
0;!
0P!
19!
07!
1+!
0x
1k!
0G!
1r!
0j!
1e!
1f!
0'!
1z
0L!
1A!
15!
16!
0)!
1O!
0E
1G
0D
0B
0'
1%
0(
0*
0|
0g!
1q!
09!
1:!
0z
1p!
0T!
0k!
0l!
06!
1)!
0M!
1C!
0D!
0+!
0@
0F
1H
0,
0&
1$
1;!
0-!
0m!
1I!
0s!
1|
0r!
1^!
1D!
17!
1+!
0O!
1P!
0:!
1B
0A
0G
1C
0I
1@
1*
0+
0%
1)
0#
1,
0|
0q!
1U!
1-!
0f!
0P!
1E!
19!
1:!
0@
0H
1D
1A
0,
0$
1(
1+
1s!
1_!
0-!
0;!
1l!
0Q!
1G!
0H!
1I
1E
0A
0B
1#
1'
0+
0*
1g!
0p!
0S!
1T!
1F
1&
1m!
1r!
1G
1%
1q!
1H
1$
0s!
0I
0#
#70000
b11000100 !
b10100110 "
b10000100 !
b10101110 "
b10001100 !
b10011100 !
b10011000 !
1N
1Z
0J
0P
1U
1\
0p
03
1/!
1Q"
1R"
1F"
1I"
1J"
0E"
0="
0{!
0C"
0;"
0y!
1B"
1:"
1x!
1A"
19"
1w!
0?"
07"
0u!
1g
1^
1M!
1%!
1v
0:!
0)!
0`
0^!
0D!
07!
1i
1f!
1P!
0E!
1t
0[!
1-!
0o
0T
0I!
0U!
0_!
0m!
0s
0i
1`
1O!
1'!
1x
1H!
0+!
0b
1E!
09!
1k
0l!
1Q!
0G!
0$!
0v
0]!
1A
0?
0<
0C
0D
0E
0G
1+
0-
00
0)
0(
0'
0%
1;!
1_!
0g!
1"!
0t
0k
1b
0Z!
0Q!
1)!
1z
0T!
1G!
1m
1S!
12!
0%!
0x
1B
1E
0F
1*
1'
0&
0-!
0d
0;!
1m!
0_!
1#!
1$!
1v
0m
1[!
0S!
1+!
0@!
03!
0'!
0z
0A
0>
0B
1G
0E
0+
0.
0*
1%
0'
1d
1|
1I!
1o
1x
1]!
1^!
1L!
0A!
05!
0)!
1>
1@
1C
1?
1.
1,
1)
1-
0o
1U!
1-!
0|
1z
0V!
0M!
0C!
1D!
17!
0+!
0?
1D
1A
0@
0-
1(
1+
0,
1W!
0O!
0P!
19!
1|
0-!
1Y!
1Z!
1@
0A
1,
0+
1;!
1B
1*
#80000
b10111110 "
b10111111 "
b10111000 !
b11111111 "
b11011111 "
b10111010 !
b10111011 !
b11011101 "
b11111011 !
b11010101 "
b11101011 !
b11101111 !
1J
1M
1P
0\
1e
1p
1K
0N
0Z
1c
0n
1{
13
1E"
1%"
1-"
1{!
1D"
1$"
1,"
1z!
14"
1C"
1#"
1+"
1y!
13"
0A"
09"
0I"
0w!
0Q"
1@"
1~!
1("
1v!
10"
1?"
1}!
1'"
1u!
1/"
1."
12"
0/!
0R"
0F"
0J"
1&"
1*"
06"
0:"
1|!
1""
1L
1*!
1l
0H!
1+!
1m
1Y
1T!
1F!
09!
1&!
0x
1h
0`
1R
0f!
0E!
02!
1%!
0"!
1t
0d!
0]!
1C!
00!
0#!
1p!
1j!
0e!
1O!
1r
1!!
1W
0^
1V!
1M!
0v
0`!
0Y!
1'!
0c!
07!
1k!
0R!
0G!
1:
12
1-!
0|
0d
1T
0;!
1O
0I!
1_!
1g!
0m!
08!
0+!
0w
0m
1:!
0^!
1H!
04!
0z
1i
0b
1X
1l!
1@!
13!
1v
1E!
1>!
01!
0%!
0r!
0n!
0k!
1Q!
1"!
0t
0_
0Y
0h
1`
0W!
1X!
0O!
0&!
1x
1a!
0[!
1)!
0F!
19!
1S!
1A
0@
0>
1<
0B
1;
0C
1E
1F
0G
1+
0,
0.
10
0*
11
0)
1'
1&
0%
0-!
1o
1[
0U!
1;!
0T
0_!
0q!
1m!
1F!
09!
0:!
1&!
0H!
0T!
1B!
0*!
1k
0l
1Y
0p!
0L!
1A!
0J!
0?!
03!
14!
1o!
1\!
0S!
1#!
0v
1h
0`
0i
1b
0Q!
1z
1c!
1d!
1]!
1+!
0A
1?
1=
0D
1B
0<
0E
0H
1G
0+
1-
1/
0(
1*
00
0'
0$
1%
1-!
0o
1_!
1I!
1|
1d
1s!
0[
1U!
1G!
1H!
04!
0'!
1T!
1^!
0N!
0+!
0M!
1K!
0A!
0B!
0d!
0]!
1%!
0x
1i
0b
0k
1l
0\!
1S!
1*!
1f!
1:!
1A
0?
1E
1C
1@
1>
1I
0=
1D
1+
0-
1'
1)
1,
1.
1#
0/
1(
0I!
1[
0d
0|
0_!
0-!
15!
0)!
0^!
0f!
0:!
1M!
1N!
1e!
1'!
0z
1k
0l
1d!
1]!
1+!
0l!
0H!
0C
1=
0>
0@
0E
0A
0)
1/
0.
0,
0'
0+
1-!
1d
0g!
0;!
17!
0+!
1f!
1H!
1)!
0*!
0e!
1:!
1p!
1A
1>
0F
0B
1+
1.
0&
0*
1;!
1|
0-!
0m!
1I!
19!
0:!
0H!
1B
1@
0A
0G
1C
1*
1,
0+
0%
1)
1-!
0I!
0;!
1q!
1A
0C
0B
1H
1+
0)
0*
1$
1I!
1C
1)
