bcd_counter_100_to_499/simulation/qsim/bcd_counter_100_to_499.msim.vcd
$comment
	File created using the following command:
		vcd file bcd_counter_100_to_499.msim.vcd -direction
$end
$date
	Thu Oct 14 13:37:36 2021
$end
$version
	ModelSim Version 10.1d
$end
$timescale
	1ps
$end
$scope module bcd_counter_100_to_499_vlg_vec_tst $end
$var reg 1 ! clk $end
$var reg 1 " reset $end
$var wire 1 # output_num [11] $end
$var wire 1 $ output_num [10] $end
$var wire 1 % output_num [9] $end
$var wire 1 & output_num [8] $end
$var wire 1 ' output_num [7] $end
$var wire 1 ( output_num [6] $end
$var wire 1 ) output_num [5] $end
$var wire 1 * output_num [4] $end
$var wire 1 + output_num [3] $end
$var wire 1 , output_num [2] $end
$var wire 1 - output_num [1] $end
$var wire 1 . output_num [0] $end
$var wire 1 / sampler $end
$scope module i1 $end
$var wire 1 0 gnd $end
$var wire 1 1 vcc $end
$var wire 1 2 unknown $end
$var tri1 1 3 devclrn $end
$var tri1 1 4 devpor $end
$var tri1 1 5 devoe $end
$var wire 1 6 output_num[0]~output_o $end
$var wire 1 7 output_num[1]~output_o $end
$var wire 1 8 output_num[2]~output_o $end
$var wire 1 9 output_num[3]~output_o $end
$var wire 1 : output_num[4]~output_o $end
$var wire 1 ; output_num[5]~output_o $end
$var wire 1 < output_num[6]~output_o $end
$var wire 1 = output_num[7]~output_o $end
$var wire 1 > output_num[8]~output_o $end
$var wire 1 ? output_num[9]~output_o $end
$var wire 1 @ output_num[10]~output_o $end
$var wire 1 A output_num[11]~output_o $end
$var wire 1 B clk~input_o $end
$var wire 1 C num_0[0]~3_combout $end
$var wire 1 D reset~input_o $end
$var wire 1 E num_0[2]~1_combout $end
$var wire 1 F num_0~2_combout $end
$var wire 1 G num_0~0_combout $end
$var wire 1 H num_1[0]~3_combout $end
$var wire 1 I Equal0~0_combout $end
$var wire 1 J num_1[2]~1_combout $end
$var wire 1 K num_1~2_combout $end
$var wire 1 L num_1~0_combout $end
$var wire 1 M num_2[0]~4_combout $end
$var wire 1 N Equal1~0_combout $end
$var wire 1 O num_2[1]~0_combout $end
$var wire 1 P num_2[3]~2_combout $end
$var wire 1 Q num_2[3]~3_combout $end
$var wire 1 R num_2~1_combout $end
$var wire 1 S num_1 [3] $end
$var wire 1 T num_1 [2] $end
$var wire 1 U num_1 [1] $end
$var wire 1 V num_1 [0] $end
$var wire 1 W num_2 [3] $end
$var wire 1 X num_2 [2] $end
$var wire 1 Y num_2 [1] $end
$var wire 1 Z num_2 [0] $end
$var wire 1 [ num_0 [3] $end
$var wire 1 \ num_0 [2] $end
$var wire 1 ] num_0 [1] $end
$var wire 1 ^ num_0 [0] $end
$upscope $end
$upscope $end
$enddefinitions $end
#0
$dumpvars
0!
0"
0.
0-
0,
0+
0*
0)
0(
0'
1&
0%
0$
0#
x/
00
11
x2
13
14
15
06
07
08
09
0:
0;
0<
0=
1>
0?
0@
0A
0B
1C
0D
0E
0F
0G
1H
0I
0J
0K
0L
1M
0N
0O
0P
0Q
0R
0V
0U
0T
0S
0Z
0Y
0X
0W
0^
0]
0\
0[
$end
#5000
1!
1B
0/
#10000
0!
0B
1/
#15000
1!
1B
0/
#20000
0!
0B
1/
#25000
1!
1B
0/
#30000
0!
0B
1/
#35000
1!
1B
0/
#40000
0!
0B
1/
#45000
1!
1B
0/
#50000
0!
0B
1/
#55000
1!
1B
0/
#60000
0!
0B
1/
#65000
1!
1B
0/
#70000
0!
0B
1/
#75000
1!
1B
0/
#80000
1"
0!
1D
0B
1/
#85000
1!
1B
0/
1^
1G
0C
16
1.
#90000
0!
0B
1/
#95000
1!
1B
0/
1]
0^
1C
17
06
1-
0.
#100000
0!
0B
1/
#105000
1!
1B
0/
1^
0G
1E
0C
16
1.
#110000
0!
0B
1/
#115000
1!
1B
0/
0]
1\
0^
1C
07
18
06
0-
1,
0.
#120000
0!
0B
1/
#125000
1!
1B
0/
1^
1G
0C
16
1.
#130000
0!
0B
1/
#135000
1!
1B
0/
1]
0^
1C
17
06
1-
0.
#140000
0!
0B
1/
#145000
1!
1B
0/
1^
0G
1F
0E
0C
16
1.
#150000
0!
0B
1/
#155000
1!
1B
0/
0]
1[
0\
0^
1C
07
19
08
06
0-
1+
0,
0.
#160000
0!
0B
1/
#165000
1!
1B
0/
1^
1I
0F
0C
16
1.
#170000
0!
0B
1/
#175000
1!
1B
0/
1V
0[
0^
1L
0H
0I
1C
1:
09
06
1*
0+
0.
#180000
0!
0B
1/
#185000
1!
1B
0/
1^
1G
0C
16
1.
#190000
0!
0B
1/
#195000
1!
1B
0/
1]
0^
1C
17
06
1-
0.
#200000
0!
0B
1/
#205000
1!
1B
0/
1^
0G
1E
0C
16
1.
#210000
0!
0B
1/
#215000
1!
1B
0/
0]
1\
0^
1C
07
18
06
0-
1,
0.
#220000
0!
0B
1/
#225000
1!
1B
0/
1^
1G
0C
16
1.
#230000
0!
0B
1/
#235000
1!
1B
0/
1]
0^
1C
17
06
1-
0.
#240000
0!
0B
1/
#245000
1!
1B
0/
1^
0G
1F
0E
0C
16
1.
#250000
0!
0B
1/
#255000
1!
1B
0/
0]
1[
0\
0^
1C
07
19
08
06
0-
1+
0,
0.
#260000
0!
0B
1/
#265000
1!
1B
0/
1^
1I
0F
0C
16
1.
#270000
0!
0B
1/
#275000
1!
1B
0/
1U
0V
0[
0^
1H
0I
1C
1;
0:
09
06
1)
0*
0+
0.
#280000
0!
0B
1/
#285000
1!
1B
0/
1^
1G
0C
16
1.
#290000
0!
0B
1/
#295000
1!
1B
0/
1]
0^
1C
17
06
1-
0.
#300000
0!
0B
1/
#305000
1!
1B
0/
1^
0G
1E
0C
16
1.
#310000
0!
0B
1/
#315000
1!
1B
0/
0]
1\
0^
1C
07
18
06
0-
1,
0.
#320000
0!
0B
1/
#325000
1!
1B
0/
1^
1G
0C
16
1.
#330000
0!
0B
1/
#335000
1!
1B
0/
1]
0^
1C
17
06
1-
0.
#340000
0!
0B
1/
#345000
1!
1B
0/
1^
0G
1F
0E
0C
16
1.
#350000
0!
0B
1/
#355000
1!
1B
0/
0]
1[
0\
0^
1C
07
19
08
06
0-
1+
0,
0.
#360000
0!
0B
1/
#365000
1!
1B
0/
1^
1I
0F
0C
16
1.
#370000
0!
0B
1/
#375000
1!
1B
0/
1V
0[
0^
0L
1J
0H
0I
1C
1:
09
06
1*
0+
0.
0J
#380000
0!
0B
1/
#385000
1!
1B
0/
1^
1G
0C
16
1.
#390000
0!
0B
1/
#395000
1!
1B
0/
1]
0^
1C
17
06
1-
0.
#400000
0!
0B
1/
#405000
1!
1B
0/
1^
0G
1E
0C
16
1.
#410000
0!
0B
1/
#415000
1!
1B
0/
0]
1\
0^
1C
07
18
06
0-
1,
0.
#420000
0!
0B
1/
#425000
1!
1B
0/
1^
1G
0C
16
1.
#430000
0!
0B
1/
#435000
1!
1B
0/
1]
0^
1C
17
06
1-
0.
#440000
0!
0B
1/
#445000
1!
1B
0/
1^
0G
1F
0E
0C
16
1.
#450000
0!
0B
1/
#455000
1!
1B
0/
0]
1[
0\
0^
1C
07
19
08
06
0-
1+
0,
0.
#460000
0!
0B
1/
#465000
1!
1B
0/
1^
1I
0F
0C
16
1.
1J
#470000
0!
0B
1/
#475000
1!
1B
0/
0U
1T
0V
0[
0^
1H
0I
1C
0;
1<
0:
09
06
0)
1(
0*
0+
0.
#480000
0!
0B
1/
#485000
1!
1B
0/
1^
1G
0C
16
1.
#490000
0!
0B
1/
#495000
1!
1B
0/
1]
0^
1C
17
06
1-
0.
#500000
0!
0B
1/
#505000
1!
1B
0/
1^
0G
1E
0C
16
1.
#510000
0!
0B
1/
#515000
1!
1B
0/
0]
1\
0^
1C
07
18
06
0-
1,
0.
#520000
0!
0B
1/
#525000
1!
1B
0/
1^
1G
0C
16
1.
#530000
0!
0B
1/
#535000
1!
1B
0/
1]
0^
1C
17
06
1-
0.
#540000
0!
0B
1/
#545000
1!
1B
0/
1^
0G
1F
0E
0C
16
1.
#550000
0!
0B
1/
#555000
1!
1B
0/
0]
1[
0\
0^
1C
07
19
08
06
0-
1+
0,
0.
#560000
0!
0B
1/
#565000
1!
1B
0/
1^
1I
0F
0C
16
1.
#570000
0!
0B
1/
#575000
1!
1B
0/
1V
0[
0^
1L
0H
0I
1C
1:
09
06
1*
0+
0.
#580000
0!
0B
1/
#585000
1!
1B
0/
1^
1G
0C
16
1.
#590000
0!
0B
1/
#595000
1!
1B
0/
1]
0^
1C
17
06
1-
0.
#600000
0!
0B
1/
#605000
1!
1B
0/
1^
0G
1E
0C
16
1.
#610000
0!
0B
1/
#615000
1!
1B
0/
0]
1\
0^
1C
07
18
06
0-
1,
0.
#620000
0!
0B
1/
#625000
1!
1B
0/
1^
1G
0C
16
1.
#630000
0!
0B
1/
#635000
1!
1B
0/
1]
0^
1C
17
06
1-
0.
#640000
0!
0B
1/
#645000
1!
1B
0/
1^
0G
1F
0E
0C
16
1.
#650000
0!
0B
1/
#655000
1!
1B
0/
0]
1[
0\
0^
1C
07
19
08
06
0-
1+
0,
0.
#660000
0!
0B
1/
#665000
1!
1B
0/
1^
1I
0F
0C
16
1.
#670000
0!
0B
1/
#675000
1!
1B
0/
1U
0V
0[
0^
1H
0I
1C
1;
0:
09
06
1)
0*
0+
0.
#680000
0!
0B
1/
#685000
1!
1B
0/
1^
1G
0C
16
1.
#690000
0!
0B
1/
#695000
1!
1B
0/
1]
0^
1C
17
06
1-
0.
#700000
0!
0B
1/
#705000
1!
1B
0/
1^
0G
1E
0C
16
1.
#710000
0!
0B
1/
#715000
1!
1B
0/
0]
1\
0^
1C
07
18
06
0-
1,
0.
#720000
0!
0B
1/
#725000
1!
1B
0/
1^
1G
0C
16
1.
#730000
0!
0B
1/
#735000
1!
1B
0/
1]
0^
1C
17
06
1-
0.
#740000
0!
0B
1/
#745000
1!
1B
0/
1^
0G
1F
0E
0C
16
1.
#750000
0!
0B
1/
#755000
1!
1B
0/
0]
1[
0\
0^
1C
07
19
08
06
0-
1+
0,
0.
#760000
0!
0B
1/
#765000
1!
1B
0/
1^
1I
0F
0C
16
1.
#770000
0!
0B
1/
#775000
1!
1B
0/
1V
0[
0^
0L
1K
0J
0H
0I
1C
1:
09
06
1*
0+
0.
1J
#780000
0!
0B
1/
#785000
1!
1B
0/
1^
1G
0C
16
1.
#790000
0!
0B
1/
#795000
1!
1B
0/
1]
0^
1C
17
06
1-
0.
#800000
0!
0B
1/
#805000
1!
1B
0/
1^
0G
1E
0C
16
1.
#810000
0!
0B
1/
#815000
1!
1B
0/
0]
1\
0^
1C
07
18
06
0-
1,
0.
#820000
0!
0B
1/
#825000
1!
1B
0/
1^
1G
0C
16
1.
#830000
0!
0B
1/
#835000
1!
1B
0/
1]
0^
1C
17
06
1-
0.
#840000
0!
0B
1/
#845000
1!
1B
0/
1^
0G
1F
0E
0C
16
1.
#850000
0!
0B
1/
#855000
1!
1B
0/
0]
1[
0\
0^
1C
07
19
08
06
0-
1+
0,
0.
#860000
0!
0B
1/
#865000
1!
1B
0/
1^
1I
0F
0C
16
1.
0J
#870000
0!
0B
1/
#875000
1!
1B
0/
0U
1S
0T
0V
0[
0^
1H
0I
1C
0;
1=
0<
0:
09
06
0)
1'
0(
0*
0+
0.
#880000
0!
0B
1/
#885000
1!
1B
0/
1^
1G
0C
16
1.
#890000
0!
0B
1/
#895000
1!
1B
0/
1]
0^
1C
17
06
1-
0.
#900000
0!
0B
1/
#905000
1!
1B
0/
1^
0G
1E
0C
16
1.
#910000
0!
0B
1/
#915000
1!
1B
0/
0]
1\
0^
1C
07
18
06
0-
1,
0.
#920000
0!
0B
1/
#925000
1!
1B
0/
1^
1G
0C
16
1.
#930000
0!
0B
1/
#935000
1!
1B
0/
1]
0^
1C
17
06
1-
0.
#940000
0!
0B
1/
#945000
1!
1B
0/
1^
0G
1F
0E
0C
16
1.
#950000
0!
0B
1/
#955000
1!
1B
0/
0]
1[
0\
0^
1C
07
19
08
06
0-
1+
0,
0.
#960000
0!
0B
1/
#965000
1!
1B
0/
1^
1I
0F
0C
16
1.
#970000
0!
0B
1/
#975000
1!
1B
0/
1V
0[
0^
1N
0K
0H
0I
1C
1:
09
06
1*
0+
0.
1O
#980000
0!
0B
1/
#985000
1!
1B
0/
1Z
1Y
1^
0M
1G
0C
0>
1?
16
0&
1%
1.
#990000
0!
0B
1/
#995000
1!
1B
0/
0Z
1]
0^
1R
0O
1M
1C
1>
17
06
1&
1-
0.
#1000000
0!
0B
1/
#1005000
1!
1B
0/
1Z
1X
0Y
1^
0R
0M
0G
1E
0C
0>
1@
0?
16
0&
1$
0%
1.
#1010000
0!
0B
1/
#1015000
1!
1B
0/
0Z
0X
0]
1\
0^
1O
1M
1C
1>
0@
07
18
06
1&
0$
0-
1,
0.
#1020000
0!
0B
1/
#1025000
1!
1B
0/
1Z
1Y
1^
0M
1G
0C
0>
1?
16
0&
1%
1.
#1030000
0!
0B
1/
#1035000
1!
1B
0/
0Z
1]
0^
1R
0O
1M
1C
1>
17
06
1&
1-
0.
#1040000
0!
0B
1/
#1045000
1!
1B
0/
1Z
1X
0Y
1^
0R
0M
0G
1F
0E
0C
0>
1@
0?
16
0&
1$
0%
1.
#1050000
0!
0B
1/
#1055000
1!
1B
0/
0Z
0X
0]
1[
0\
0^
1O
1M
1C
1>
0@
07
19
08
06
1&
0$
0-
1+
0,
0.
#1060000
0!
0B
1/
#1065000
1!
1B
0/
1Z
1Y
1^
0M
1I
0F
0C
0>
1?
16
0&
1%
1.
#1070000
0!
0B
1/
#1075000
1!
1B
0/
0Z
0S
0V
0[
0^
1R
0O
1M
0N
1H
0I
1C
1>
0=
0:
09
06
1&
0'
0*
0+
0.
1O
#1080000
0!
0B
1/
#1085000
1!
1B
0/
1^
1G
0C
16
1.
#1090000
0!
0B
1/
#1095000
1!
1B
0/
1]
0^
1C
17
06
1-
0.
#1100000
0!
0B
1/
#1105000
1!
1B
0/
1^
0G
1E
0C
16
1.
#1110000
0!
0B
1/
#1115000
1!
1B
0/
0]
1\
0^
1C
07
18
06
0-
1,
0.
#1120000
0!
0B
1/
#1125000
1!
1B
0/
1^
1G
0C
16
1.
#1130000
0!
0B
1/
#1135000
1!
1B
0/
1]
0^
1C
17
06
1-
0.
#1140000
0!
0B
1/
#1145000
1!
1B
0/
1^
0G
1F
0E
0C
16
1.
#1150000
0!
0B
1/
#1155000
1!
1B
0/
0]
1[
0\
0^
1C
07
19
08
06
0-
1+
0,
0.
#1160000
0!
0B
1/
#1165000
1!
1B
0/
1^
1I
0F
0C
16
1.
#1170000
0!
0B
1/
#1175000
1!
1B
0/
1V
0[
0^
1L
0H
0I
1C
1:
09
06
1*
0+
0.
#1180000
0!
0B
1/
#1185000
1!
1B
0/
1^
1G
0C
16
1.
#1190000
0!
0B
1/
#1195000
1!
1B
0/
1]
0^
1C
17
06
1-
0.
#1200000
0!
0B
1/
#1205000
1!
1B
0/
1^
0G
1E
0C
16
1.
#1210000
0!
0B
1/
#1215000
1!
1B
0/
0]
1\
0^
1C
07
18
06
0-
1,
0.
#1220000
0!
0B
1/
#1225000
1!
1B
0/
1^
1G
0C
16
1.
#1230000
0!
0B
1/
#1235000
1!
1B
0/
1]
0^
1C
17
06
1-
0.
#1240000
0!
0B
1/
#1245000
1!
1B
0/
1^
0G
1F
0E
0C
16
1.
#1250000
0!
0B
1/
#1255000
1!
1B
0/
0]
1[
0\
0^
1C
07
19
08
06
0-
1+
0,
0.
#1260000
0!
0B
1/
#1265000
1!
1B
0/
1^
1I
0F
0C
16
1.
#1270000
0!
0B
1/
#1275000
1!
1B
0/
1U
0V
0[
0^
1H
0I
1C
1;
0:
09
06
1)
0*
0+
0.
#1280000
0!
0B
1/
#1285000
1!
1B
0/
1^
1G
0C
16
1.
#1290000
0!
0B
1/
#1295000
1!
1B
0/
1]
0^
1C
17
06
1-
0.
#1300000
0!
0B
1/
#1305000
1!
1B
0/
1^
0G
1E
0C
16
1.
#1310000
0!
0B
1/
#1315000
1!
1B
0/
0]
1\
0^
1C
07
18
06
0-
1,
0.
#1320000
0!
0B
1/
#1325000
1!
1B
0/
1^
1G
0C
16
1.
#1330000
0!
0B
1/
#1335000
1!
1B
0/
1]
0^
1C
17
06
1-
0.
#1340000
0!
0B
1/
#1345000
1!
1B
0/
1^
0G
1F
0E
0C
16
1.
#1350000
0!
0B
1/
#1355000
1!
1B
0/
0]
1[
0\
0^
1C
07
19
08
06
0-
1+
0,
0.
#1360000
0!
0B
1/
#1365000
1!
1B
0/
1^
1I
0F
0C
16
1.
#1370000
0!
0B
1/
#1375000
1!
1B
0/
1V
0[
0^
0L
1J
0H
0I
1C
1:
09
06
1*
0+
0.
0J
#1380000
0!
0B
1/
#1385000
1!
1B
0/
1^
1G
0C
16
1.
#1390000
0!
0B
1/
#1395000
1!
1B
0/
1]
0^
1C
17
06
1-
0.
#1400000
0!
0B
1/
#1405000
1!
1B
0/
1^
0G
1E
0C
16
1.
#1410000
0!
0B
1/
#1415000
1!
1B
0/
0]
1\
0^
1C
07
18
06
0-
1,
0.
#1420000
0!
0B
1/
#1425000
1!
1B
0/
1^
1G
0C
16
1.
#1430000
0!
0B
1/
#1435000
1!
1B
0/
1]
0^
1C
17
06
1-
0.
#1440000
0!
0B
1/
#1445000
1!
1B
0/
1^
0G
1F
0E
0C
16
1.
#1450000
0!
0B
1/
#1455000
1!
1B
0/
0]
1[
0\
0^
1C
07
19
08
06
0-
1+
0,
0.
#1460000
0!
0B
1/
#1465000
1!
1B
0/
1^
1I
0F
0C
16
1.
1J
#1470000
0!
0B
1/
#1475000
1!
1B
0/
0U
1T
0V
0[
0^
1H
0I
1C
0;
1<
0:
09
06
0)
1(
0*
0+
0.
#1480000
0!
0B
1/
#1485000
1!
1B
0/
1^
1G
0C
16
1.
#1490000
0!
0B
1/
#1495000
1!
1B
0/
1]
0^
1C
17
06
1-
0.
#1500000
0!
0B
1/
#1505000
1!
1B
0/
1^
0G
1E
0C
16
1.
#1510000
0!
0B
1/
#1515000
1!
1B
0/
0]
1\
0^
1C
07
18
06
0-
1,
0.
#1520000
0!
0B
1/
#1525000
1!
1B
0/
1^
1G
0C
16
1.
#1530000
0!
0B
1/
#1535000
1!
1B
0/
1]
0^
1C
17
06
1-
0.
#1540000
0!
0B
1/
#1545000
1!
1B
0/
1^
0G
1F
0E
0C
16
1.
#1550000
0!
0B
1/
#1555000
1!
1B
0/
0]
1[
0\
0^
1C
07
19
08
06
0-
1+
0,
0.
#1560000
0!
0B
1/
#1565000
1!
1B
0/
1^
1I
0F
0C
16
1.
#1570000
0!
0B
1/
#1575000
1!
1B
0/
1V
0[
0^
1L
0H
0I
1C
1:
09
06
1*
0+
0.
#1580000
0!
0B
1/
#1585000
1!
1B
0/
1^
1G
0C
16
1.
#1590000
0!
0B
1/
#1595000
1!
1B
0/
1]
0^
1C
17
06
1-
0.
#1600000
0!
0B
1/
#1605000
1!
1B
0/
1^
0G
1E
0C
16
1.
#1610000
0!
0B
1/
#1615000
1!
1B
0/
0]
1\
0^
1C
07
18
06
0-
1,
0.
#1620000
0!
0B
1/
#1625000
1!
1B
0/
1^
1G
0C
16
1.
#1630000
0!
0B
1/
#1635000
1!
1B
0/
1]
0^
1C
17
06
1-
0.
#1640000
0!
0B
1/
#1645000
1!
1B
0/
1^
0G
1F
0E
0C
16
1.
#1650000
0!
0B
1/
#1655000
1!
1B
0/
0]
1[
0\
0^
1C
07
19
08
06
0-
1+
0,
0.
#1660000
0!
0B
1/
#1665000
1!
1B
0/
1^
1I
0F
0C
16
1.
#1670000
0!
0B
1/
#1675000
1!
1B
0/
1U
0V
0[
0^
1H
0I
1C
1;
0:
09
06
1)
0*
0+
0.
#1680000
0!
0B
1/
#1685000
1!
1B
0/
1^
1G
0C
16
1.
#1690000
0!
0B
1/
#1695000
1!
1B
0/
1]
0^
1C
17
06
1-
0.
#1700000
0!
0B
1/
#1705000
1!
1B
0/
1^
0G
1E
0C
16
1.
#1710000
0!
0B
1/
#1715000
1!
1B
0/
0]
1\
0^
1C
07
18
06
0-
1,
0.
#1720000
0!
0B
1/
#1725000
1!
1B
0/
1^
1G
0C
16
1.
#1730000
0!
0B
1/
#1735000
1!
1B
0/
1]
0^
1C
17
06
1-
0.
#1740000
0!
0B
1/
#1745000
1!
1B
0/
1^
0G
1F
0E
0C
16
1.
#1750000
0!
0B
1/
#1755000
1!
1B
0/
0]
1[
0\
0^
1C
07
19
08
06
0-
1+
0,
0.
#1760000
0!
0B
1/
#1765000
1!
1B
0/
1^
1I
0F
0C
16
1.
#1770000
0!
0B
1/
#1775000
1!
1B
0/
1V
0[
0^
0L
1K
0J
0H
0I
1C
1:
09
06
1*
0+
0.
1J
#1780000
0!
0B
1/
#1785000
1!
1B
0/
1^
1G
0C
16
1.
#1790000
0!
0B
1/
#1795000
1!
1B
0/
1]
0^
1C
17
06
1-
0.
#1800000
0!
0B
1/
#1805000
1!
1B
0/
1^
0G
1E
0C
16
1.
#1810000
0!
0B
1/
#1815000
1!
1B
0/
0]
1\
0^
1C
07
18
06
0-
1,
0.
#1820000
0!
0B
1/
#1825000
1!
1B
0/
1^
1G
0C
16
1.
#1830000
0!
0B
1/
#1835000
1!
1B
0/
1]
0^
1C
17
06
1-
0.
#1840000
0!
0B
1/
#1845000
1!
1B
0/
1^
0G
1F
0E
0C
16
1.
#1850000
0!
0B
1/
#1855000
1!
1B
0/
0]
1[
0\
0^
1C
07
19
08
06
0-
1+
0,
0.
#1860000
0!
0B
1/
#1865000
1!
1B
0/
1^
1I
0F
0C
16
1.
0J
#1870000
0!
0B
1/
#1875000
1!
1B
0/
0U
1S
0T
0V
0[
0^
1H
0I
1C
0;
1=
0<
0:
09
06
0)
1'
0(
0*
0+
0.
#1880000
0!
0B
1/
#1885000
1!
1B
0/
1^
1G
0C
16
1.
#1890000
0!
0B
1/
#1895000
1!
1B
0/
1]
0^
1C
17
06
1-
0.
#1900000
0!
0B
1/
#1905000
1!
1B
0/
1^
0G
1E
0C
16
1.
#1910000
0!
0B
1/
#1915000
1!
1B
0/
0]
1\
0^
1C
07
18
06
0-
1,
0.
#1920000
0!
0B
1/
#1925000
1!
1B
0/
1^
1G
0C
16
1.
#1930000
0!
0B
1/
#1935000
1!
1B
0/
1]
0^
1C
17
06
1-
0.
#1940000
0!
0B
1/
#1945000
1!
1B
0/
1^
0G
1F
0E
0C
16
1.
#1950000
0!
0B
1/
#1955000
1!
1B
0/
0]
1[
0\
0^
1C
07
19
08
06
0-
1+
0,
0.
#1960000
0!
0B
1/
#1965000
1!
1B
0/
1^
1I
0F
0C
16
1.
#1970000
0!
0B
1/
#1975000
1!
1B
0/
1V
0[
0^
1N
0K
0H
0I
1C
1:
09
06
1*
0+
0.
0O
#1980000
0!
0B
1/
#1985000
1!
1B
0/
1Z
1X
0Y
1^
0R
0M
1G
0C
0>
1@
0?
16
0&
1$
0%
1.
#1990000
0!
0B
1/
#1995000
1!
1B
0/
0Z
0X
1]
0^
1O
1M
1C
1>
0@
17
06
1&
0$
1-
0.
#2000000
0!
0B
1/
#2005000
1!
1B
0/
1Z
1Y
1^
0M
0G
1E
0C
0>
1?
16
0&
1%
1.
#2010000
0!
0B
1/
#2015000
1!
1B
0/
0Z
0]
1\
0^
1R
0O
1M
1C
1>
07
18
06
1&
0-
1,
0.
#2020000
0!
0B
1/
#2025000
1!
1B
0/
1Z
1X
0Y
1^
0R
0M
1G
0C
0>
1@
0?
16
0&
1$
0%
1.
#2030000
0!
0B
1/
#2035000
1!
1B
0/
0Z
0X
1]
0^
1O
1M
1C
1>
0@
17
06
1&
0$
1-
0.
#2040000
0!
0B
1/
#2045000
1!
1B
0/
1Z
1Y
1^
0M
0G
1F
0E
0C
0>
1?
16
0&
1%
1.
#2050000
0!
0B
1/
#2055000
1!
1B
0/
0Z
0]
1[
0\
0^
1R
0O
1M
1C
1>
07
19
08
06
1&
0-
1+
0,
0.
#2060000
0!
0B
1/
#2065000
1!
1B
0/
1Z
1X
0Y
1^
0R
0M
1I
0F
0C
0>
1@
0?
16
0&
1$
0%
1.
#2070000
0!
0B
1/
#2075000
1!
1B
0/
0Z
0X
0S
0V
0[
0^
1O
1M
0N
1H
0I
1C
1>
0@
0=
0:
09
06
1&
0$
0'
0*
0+
0.
0O
#2080000
0!
0B
1/
#2085000
1!
1B
0/
1^
1G
0C
16
1.
#2090000
0!
0B
1/
#2095000
1!
1B
0/
1]
0^
1C
17
06
1-
0.
#2100000
0!
0B
1/
#2105000
1!
1B
0/
1^
0G
1E
0C
16
1.
#2110000
0!
0B
1/
#2115000
1!
1B
0/
0]
1\
0^
1C
07
18
06
0-
1,
0.
#2120000
0!
0B
1/
#2125000
1!
1B
0/
1^
1G
0C
16
1.
#2130000
0!
0B
1/
#2135000
1!
1B
0/
1]
0^
1C
17
06
1-
0.
#2140000
0!
0B
1/
#2145000
1!
1B
0/
1^
0G
1F
0E
0C
16
1.
#2150000
0!
0B
1/
#2155000
1!
1B
0/
0]
1[
0\
0^
1C
07
19
08
06
0-
1+
0,
0.
#2160000
0!
0B
1/
#2165000
1!
1B
0/
1^
1I
0F
0C
16
1.
#2170000
0!
0B
1/
#2175000
1!
1B
0/
1V
0[
0^
1L
0H
0I
1C
1:
09
06
1*
0+
0.
#2180000
0!
0B
1/
#2185000
1!
1B
0/
1^
1G
0C
16
1.
#2190000
0!
0B
1/
#2195000
1!
1B
0/
1]
0^
1C
17
06
1-
0.
#2200000
0!
0B
1/
#2205000
1!
1B
0/
1^
0G
1E
0C
16
1.
#2210000
0!
0B
1/
#2215000
1!
1B
0/
0]
1\
0^
1C
07
18
06
0-
1,
0.
#2220000
0!
0B
1/
#2225000
1!
1B
0/
1^
1G
0C
16
1.
#2230000
0!
0B
1/
#2235000
1!
1B
0/
1]
0^
1C
17
06
1-
0.
#2240000
0!
0B
1/
#2245000
1!
1B
0/
1^
0G
1F
0E
0C
16
1.
#2250000
0!
0B
1/
#2255000
1!
1B
0/
0]
1[
0\
0^
1C
07
19
08
06
0-
1+
0,
0.
#2260000
0!
0B
1/
#2265000
1!
1B
0/
1^
1I
0F
0C
16
1.
#2270000
0!
0B
1/
#2275000
1!
1B
0/
1U
0V
0[
0^
1H
0I
1C
1;
0:
09
06
1)
0*
0+
0.
#2280000
0!
0B
1/
#2285000
1!
1B
0/
1^
1G
0C
16
1.
#2290000
0!
0B
1/
#2295000
1!
1B
0/
1]
0^
1C
17
06
1-
0.
#2300000
0!
0B
1/
#2305000
1!
1B
0/
1^
0G
1E
0C
16
1.
#2310000
0!
0B
1/
#2315000
1!
1B
0/
0]
1\
0^
1C
07
18
06
0-
1,
0.
#2320000
0!
0B
1/
#2325000
1!
1B
0/
1^
1G
0C
16
1.
#2330000
0!
0B
1/
#2335000
1!
1B
0/
1]
0^
1C
17
06
1-
0.
#2340000
0!
0B
1/
#2345000
1!
1B
0/
1^
0G
1F
0E
0C
16
1.
#2350000
0!
0B
1/
#2355000
1!
1B
0/
0]
1[
0\
0^
1C
07
19
08
06
0-
1+
0,
0.
#2360000
0!
0B
1/
#2365000
1!
1B
0/
1^
1I
0F
0C
16
1.
#2370000
0!
0B
1/
#2375000
1!
1B
0/
1V
0[
0^
0L
1J
0H
0I
1C
1:
09
06
1*
0+
0.
0J
#2380000
0!
0B
1/
#2385000
1!
1B
0/
1^
1G
0C
16
1.
#2390000
0!
0B
1/
#2395000
1!
1B
0/
1]
0^
1C
17
06
1-
0.
#2400000
0!
0B
1/
#2405000
1!
1B
0/
1^
0G
1E
0C
16
1.
#2410000
0!
0B
1/
#2415000
1!
1B
0/
0]
1\
0^
1C
07
18
06
0-
1,
0.
#2420000
0!
0B
1/
#2425000
1!
1B
0/
1^
1G
0C
16
1.
#2430000
0!
0B
1/
#2435000
1!
1B
0/
1]
0^
1C
17
06
1-
0.
#2440000
0!
0B
1/
#2445000
1!
1B
0/
1^
0G
1F
0E
0C
16
1.
#2450000
0!
0B
1/
#2455000
1!
1B
0/
0]
1[
0\
0^
1C
07
19
08
06
0-
1+
0,
0.
#2460000
0!
0B
1/
#2465000
1!
1B
0/
1^
1I
0F
0C
16
1.
1J
#2470000
0!
0B
1/
#2475000
1!
1B
0/
0U
1T
0V
0[
0^
1H
0I
1C
0;
1<
0:
09
06
0)
1(
0*
0+
0.
#2480000
0!
0B
1/
#2485000
1!
1B
0/
1^
1G
0C
16
1.
#2490000
0!
0B
1/
#2495000
1!
1B
0/
1]
0^
1C
17
06
1-
0.
#2500000
0!
0B
1/
#2505000
1!
1B
0/
1^
0G
1E
0C
16
1.
#2510000
0!
0B
1/
#2515000
1!
1B
0/
0]
1\
0^
1C
07
18
06
0-
1,
0.
#2520000
0!
0B
1/
#2525000
1!
1B
0/
1^
1G
0C
16
1.
#2530000
0!
0B
1/
#2535000
1!
1B
0/
1]
0^
1C
17
06
1-
0.
#2540000
0!
0B
1/
#2545000
1!
1B
0/
1^
0G
1F
0E
0C
16
1.
#2550000
0!
0B
1/
#2555000
1!
1B
0/
0]
1[
0\
0^
1C
07
19
08
06
0-
1+
0,
0.
#2560000
0!
0B
1/
#2565000
1!
1B
0/
1^
1I
0F
0C
16
1.
#2570000
0!
0B
1/
#2575000
1!
1B
0/
1V
0[
0^
1L
0H
0I
1C
1:
09
06
1*
0+
0.
#2580000
0!
0B
1/
#2585000
1!
1B
0/
1^
1G
0C
16
1.
#2590000
0!
0B
1/
#2595000
1!
1B
0/
1]
0^
1C
17
06
1-
0.
#2600000
0!
0B
1/
#2605000
1!
1B
0/
1^
0G
1E
0C
16
1.
#2610000
0!
0B
1/
#2615000
1!
1B
0/
0]
1\
0^
1C
07
18
06
0-
1,
0.
#2620000
0!
0B
1/
