step_wave/simulation/qsim/step_wave.msim.vcd
$comment
	File created using the following command:
		vcd file step_wave.msim.vcd -direction
$end
$date
	Sun Oct 17 14:12:55 2021
$end
$version
	ModelSim Version 10.1d
$end
$timescale
	1ps
$end
$scope module step_wave_vlg_vec_tst $end
$var reg 1 ! clk $end
$var reg 1 " reset $end
$var wire 1 # F_out [7] $end
$var wire 1 $ F_out [6] $end
$var wire 1 % F_out [5] $end
$var wire 1 & F_out [4] $end
$var wire 1 ' F_out [3] $end
$var wire 1 ( F_out [2] $end
$var wire 1 ) F_out [1] $end
$var wire 1 * F_out [0] $end
$var wire 1 + sampler $end
$scope module i1 $end
$var wire 1 , gnd $end
$var wire 1 - vcc $end
$var wire 1 . unknown $end
$var tri1 1 / devclrn $end
$var tri1 1 0 devpor $end
$var tri1 1 1 devoe $end
$var wire 1 2 F_out[0]~output_o $end
$var wire 1 3 F_out[1]~output_o $end
$var wire 1 4 F_out[2]~output_o $end
$var wire 1 5 F_out[3]~output_o $end
$var wire 1 6 F_out[4]~output_o $end
$var wire 1 7 F_out[5]~output_o $end
$var wire 1 8 F_out[6]~output_o $end
$var wire 1 9 F_out[7]~output_o $end
$var wire 1 : clk~input_o $end
$var wire 1 ; counter[0]~3_combout $end
$var wire 1 < reset~input_o $end
$var wire 1 = counter~1_combout $end
$var wire 1 > counter~2_combout $end
$var wire 1 ? counter~0_combout $end
$var wire 1 @ Equal13~0_combout $end
$var wire 1 A F_out~0_combout $end
$var wire 1 B F_out~1_combout $end
$var wire 1 C F_out~2_combout $end
$var wire 1 D F_out~3_combout $end
$var wire 1 E F_out~4_combout $end
$var wire 1 F F_out~5_combout $end
$var wire 1 G Equal13~1_combout $end
$var wire 1 H counter [3] $end
$var wire 1 I counter [2] $end
$var wire 1 J counter [1] $end
$var wire 1 K counter [0] $end
$upscope $end
$upscope $end
$enddefinitions $end
#0
$dumpvars
0!
0"
0*
0)
0(
0'
0&
0%
0$
0#
x+
0,
1-
x.
1/
10
11
02
03
04
05
06
07
08
09
0:
1;
0<
0=
0>
0?
0@
0A
0B
0C
0D
0E
0F
0G
0K
0J
0I
0H
$end
#5000
1!
1:
0+
#10000
0!
0:
1+
#15000
1!
1:
0+
#20000
0!
0:
1+
#25000
1!
1:
0+
#30000
0!
0:
1+
#35000
1!
1:
0+
#40000
1"
0!
1<
0:
1+
#45000
1!
1:
0+
1K
1=
0;
1@
12
1*
#50000
0!
0:
1+
#55000
1!
1:
0+
1J
0K
1;
1A
0@
13
02
1)
0*
#60000
0!
0:
1+
#65000
1!
1:
0+
1K
1?
0=
0;
1B
0A
14
03
1(
0)
#70000
0!
0:
1+
#75000
1!
1:
0+
1I
0J
0K
1;
1C
0B
15
04
1'
0(
#80000
0!
0:
1+
#85000
1!
1:
0+
1K
1=
0;
1D
0C
16
05
1&
0'
#90000
0!
0:
1+
#95000
1!
1:
0+
1J
0K
1;
1E
0D
17
06
1%
0&
#100000
0!
0:
1+
#105000
1!
1:
0+
1K
0?
1>
0=
0;
1F
0E
18
07
1$
0%
#110000
0!
0:
1+
#115000
1!
1:
0+
0I
1H
0J
0K
1;
1G
0F
19
08
1#
0$
#120000
0!
0:
1+
#125000
1!
1:
0+
1K
1=
0;
0G
1F
09
18
0#
1$
#130000
0!
0:
1+
#135000
1!
1:
0+
1J
0K
1;
0F
1E
08
17
0$
1%
#140000
0!
0:
1+
#145000
1!
1:
0+
1K
1?
0=
0;
0E
1D
07
16
0%
1&
#150000
0!
0:
1+
#155000
1!
1:
0+
1I
0J
0K
1;
0D
1C
06
15
0&
1'
#160000
0!
0:
1+
#165000
1!
1:
0+
1K
1=
0;
0C
1B
05
14
0'
1(
#170000
0!
0:
1+
#175000
1!
1:
0+
1J
0K
0?
0>
0=
1;
0B
1A
04
13
0(
1)
#180000
0!
0:
1+
#185000
1!
1:
0+
0I
0H
0J
1K
1=
0;
0A
1@
03
12
0)
1*
#190000
0!
0:
1+
#195000
1!
1:
0+
1J
0K
1;
1A
0@
13
02
1)
0*
#200000
0!
0:
1+
#205000
1!
1:
0+
1K
1?
0=
0;
1B
0A
14
03
1(
0)
#210000
0!
0:
1+
#215000
1!
1:
0+
1I
0J
0K
1;
1C
0B
15
04
1'
0(
#220000
0!
0:
1+
#225000
1!
1:
0+
1K
1=
0;
1D
0C
16
05
1&
0'
#230000
0!
0:
1+
#235000
1!
1:
0+
1J
0K
1;
1E
0D
17
06
1%
0&
#240000
0!
0:
1+
#245000
1!
1:
0+
1K
0?
1>
0=
0;
1F
0E
18
07
1$
0%
#250000
0!
0:
1+
#255000
1!
1:
0+
0I
1H
0J
0K
1;
1G
0F
19
08
1#
0$
#260000
0!
0:
1+
#265000
1!
1:
0+
1K
1=
0;
0G
1F
09
18
0#
1$
#270000
0!
0:
1+
#275000
1!
1:
0+
1J
0K
1;
0F
1E
08
17
0$
1%
#280000
0!
0:
1+
#285000
1!
1:
0+
1K
1?
0=
0;
0E
1D
07
16
0%
1&
#290000
0!
0:
1+
#295000
1!
1:
0+
1I
0J
0K
1;
0D
1C
06
15
0&
1'
#300000
0!
0:
1+
#305000
1!
1:
0+
1K
1=
0;
0C
1B
05
14
0'
1(
#310000
0!
0:
1+
#315000
1!
1:
0+
1J
0K
0?
0>
0=
1;
0B
1A
04
13
0(
1)
#320000
0!
0:
1+
#325000
1!
1:
0+
0I
0H
0J
1K
1=
0;
0A
1@
03
12
0)
1*
#330000
0!
0:
1+
#335000
1!
1:
0+
1J
0K
1;
1A
0@
13
02
1)
0*
#340000
0!
0:
1+
#345000
1!
1:
0+
1K
1?
0=
0;
1B
0A
14
03
1(
0)
#350000
0!
0:
1+
#355000
1!
1:
0+
1I
0J
0K
1;
1C
0B
15
04
1'
0(
#360000
0!
0:
1+
#365000
1!
1:
0+
1K
1=
0;
1D
0C
16
05
1&
0'
#370000
0!
0:
1+
#375000
1!
1:
0+
1J
0K
1;
1E
0D
17
06
1%
0&
#380000
0!
0:
1+
#385000
1!
1:
0+
1K
0?
1>
0=
0;
1F
0E
18
07
1$
0%
#390000
0!
0:
1+
#395000
1!
1:
0+
0I
1H
0J
0K
1;
1G
0F
19
08
1#
0$
#400000
0!
0:
1+
#405000
1!
1:
0+
1K
1=
0;
0G
1F
09
18
0#
1$
#410000
0!
0:
1+
#415000
1!
1:
0+
1J
0K
1;
0F
1E
08
17
0$
1%
#420000
0!
0:
1+
#425000
1!
1:
0+
1K
1?
0=
0;
0E
1D
07
16
0%
1&
#430000
0!
0:
1+
#435000
1!
1:
0+
1I
0J
0K
1;
0D
1C
06
15
0&
1'
#440000
0!
0:
1+
#445000
1!
1:
0+
1K
1=
0;
0C
1B
05
14
0'
1(
#450000
0!
0:
1+
#455000
1!
1:
0+
1J
0K
0?
0>
0=
1;
0B
1A
04
13
0(
1)
#460000
0!
0:
1+
#465000
1!
1:
0+
0I
0H
0J
1K
1=
0;
0A
1@
03
12
0)
1*
#470000
0!
0:
1+
#475000
1!
1:
0+
1J
0K
1;
1A
0@
13
02
1)
0*
#480000
0!
0:
1+
#485000
1!
1:
0+
1K
1?
0=
0;
1B
0A
14
03
1(
0)
#490000
0!
0:
1+
#495000
1!
1:
0+
1I
0J
0K
1;
1C
0B
15
04
1'
0(
#500000
0!
0:
1+
#505000
1!
1:
0+
1K
1=
0;
1D
0C
16
05
1&
0'
#510000
0!
0:
1+
#515000
1!
1:
0+
1J
0K
1;
1E
0D
17
06
1%
0&
#520000
0!
0:
1+
#525000
1!
1:
0+
1K
0?
1>
0=
0;
1F
0E
18
07
1$
0%
#530000
0!
0:
1+
#535000
1!
1:
0+
0I
1H
0J
0K
1;
1G
0F
19
08
1#
0$
#540000
0!
0:
1+
#545000
1!
1:
0+
1K
1=
0;
0G
1F
09
18
0#
1$
#550000
0!
0:
1+
#555000
1!
1:
0+
1J
0K
1;
0F
1E
08
17
0$
1%
#560000
0!
0:
1+
#565000
1!
1:
0+
1K
1?
0=
0;
0E
1D
07
16
0%
1&
#570000
0!
0:
1+
#575000
1!
1:
0+
1I
0J
0K
1;
0D
1C
06
15
0&
1'
#580000
0!
0:
1+
#585000
1!
1:
0+
1K
1=
0;
0C
1B
05
14
0'
1(
#590000
0!
0:
1+
#595000
1!
1:
0+
1J
0K
0?
0>
0=
1;
0B
1A
04
13
0(
1)
#600000
0!
0:
1+
#605000
1!
1:
0+
0I
0H
0J
1K
1=
0;
0A
1@
03
12
0)
1*
#610000
0!
0:
1+
#615000
1!
1:
0+
1J
0K
1;
1A
0@
13
02
1)
0*
#620000
0!
0:
1+
#625000
1!
1:
0+
1K
1?
0=
0;
1B
0A
14
03
1(
0)
#630000
0!
0:
1+
#635000
1!
1:
0+
1I
0J
0K
1;
1C
0B
15
04
1'
0(
#640000
0!
0:
1+
#645000
1!
1:
0+
1K
1=
0;
1D
0C
16
05
1&
0'
#650000
0!
0:
1+
#655000
1!
1:
0+
1J
0K
1;
1E
0D
17
06
1%
0&
#660000
0!
0:
1+
#665000
1!
1:
0+
1K
0?
1>
0=
0;
1F
0E
18
07
1$
0%
#670000
0!
0:
1+
#675000
1!
1:
0+
0I
1H
0J
0K
1;
1G
0F
19
08
1#
0$
#680000
0!
0:
1+
#685000
1!
1:
0+
1K
1=
0;
0G
1F
09
18
0#
1$
#690000
0!
0:
1+
#695000
1!
1:
0+
1J
0K
1;
0F
1E
08
17
0$
1%
#700000
0!
0:
1+
#705000
1!
1:
0+
1K
1?
0=
0;
0E
1D
07
16
0%
1&
#710000
0!
0:
1+
#715000
1!
1:
0+
1I
0J
0K
1;
0D
1C
06
15
0&
1'
#720000
0!
0:
1+
#725000
1!
1:
0+
1K
1=
0;
0C
1B
05
14
0'
1(
#730000
0!
0:
1+
#735000
1!
1:
0+
1J
0K
0?
0>
0=
1;
0B
1A
04
13
0(
1)
#740000
0!
0:
1+
#745000
1!
1:
0+
0I
0H
0J
1K
1=
0;
0A
1@
03
12
0)
1*
#750000
0!
0:
1+
#755000
1!
1:
0+
1J
0K
1;
1A
0@
13
02
1)
0*
#760000
0!
0:
1+
#765000
1!
1:
0+
1K
1?
0=
0;
1B
0A
14
03
1(
0)
#770000
0!
0:
1+
#775000
1!
1:
0+
1I
0J
0K
1;
1C
0B
15
04
1'
0(
#780000
0!
0:
1+
#785000
1!
1:
0+
1K
1=
0;
1D
0C
16
05
1&
0'
#790000
0!
0:
1+
#795000
1!
1:
0+
1J
0K
1;
1E
0D
17
06
1%
0&
#800000
0!
0:
1+
#805000
1!
1:
0+
1K
0?
1>
0=
0;
1F
0E
18
07
1$
0%
#810000
0!
0:
1+
#815000
1!
1:
0+
0I
1H
0J
0K
1;
1G
0F
19
08
1#
0$
#820000
0!
0:
1+
#825000
1!
1:
0+
1K
1=
0;
0G
1F
09
18
0#
1$
#830000
0!
0:
1+
#835000
1!
1:
0+
1J
0K
1;
0F
1E
08
17
0$
1%
#840000
0!
0:
1+
#845000
1!
1:
0+
1K
1?
0=
0;
0E
1D
07
16
0%
1&
#850000
0!
0:
1+
#855000
1!
1:
0+
1I
0J
0K
1;
0D
1C
06
15
0&
1'
#860000
0!
0:
1+
#865000
1!
1:
0+
1K
1=
0;
0C
1B
05
14
0'
1(
#870000
0!
0:
1+
#875000
1!
1:
0+
1J
0K
0?
0>
0=
1;
0B
1A
04
13
0(
1)
#880000
0!
0:
1+
#885000
1!
1:
0+
0I
0H
0J
1K
1=
0;
0A
1@
03
12
0)
1*
#890000
0!
0:
1+
#895000
1!
1:
0+
1J
0K
1;
1A
0@
13
02
1)
0*
#900000
0!
0:
1+
#905000
1!
1:
0+
1K
1?
0=
0;
1B
0A
14
03
1(
0)
#910000
0!
0:
1+
#915000
1!
1:
0+
1I
0J
0K
1;
1C
0B
15
04
1'
0(
#920000
0!
0:
1+
#925000
1!
1:
0+
1K
1=
0;
1D
0C
16
05
1&
0'
#930000
0!
0:
1+
#935000
1!
1:
0+
1J
0K
1;
1E
0D
17
06
1%
0&
#940000
0!
0:
1+
#945000
1!
1:
0+
1K
0?
1>
0=
0;
1F
0E
18
07
1$
0%
#950000
0!
0:
1+
#955000
1!
1:
0+
0I
1H
0J
0K
1;
1G
0F
19
08
1#
0$
#960000
0!
0:
1+
#965000
1!
1:
0+
1K
1=
0;
0G
1F
09
18
0#
1$
#970000
0!
0:
1+
#975000
1!
1:
0+
1J
0K
1;
0F
1E
08
17
0$
1%
#980000
0!
0:
1+
#985000
1!
1:
0+
1K
1?
0=
0;
0E
1D
07
16
0%
1&
#990000
0!
0:
1+
#995000
1!
1:
0+
1I
0J
0K
1;
0D
1C
06
15
0&
1'
