adder_subtractor_arithmetic/simulation/qsim/adder_subtractor_arithmetic.msim.vcd
$comment
	File created using the following command:
		vcd file adder_subtractor_arithmetic.msim.vcd -direction
$end
$date
	Sat Oct 02 21:40:40 2021
$end
$version
	ModelSim Version 10.1d
$end
$timescale
	1ps
$end
$scope module adder_subtractor_arithmetic_vlg_vec_tst $end
$var reg 4 ! A [3:0] $end
$var reg 1 " A_S $end
$var reg 4 # B [3:0] $end
$var wire 1 $ C_out $end
$var wire 1 % overflow $end
$var wire 1 & Sum [3] $end
$var wire 1 ' Sum [2] $end
$var wire 1 ( Sum [1] $end
$var wire 1 ) Sum [0] $end
$var wire 1 * sampler $end
$scope module i1 $end
$var wire 1 + gnd $end
$var wire 1 , vcc $end
$var wire 1 - unknown $end
$var tri1 1 . devclrn $end
$var tri1 1 / devpor $end
$var tri1 1 0 devoe $end
$var wire 1 1 Sum[0]~output_o $end
$var wire 1 2 Sum[1]~output_o $end
$var wire 1 3 Sum[2]~output_o $end
$var wire 1 4 Sum[3]~output_o $end
$var wire 1 5 C_out~output_o $end
$var wire 1 6 overflow~output_o $end
$var wire 1 7 A_S~input_o $end
$var wire 1 8 B[0]~input_o $end
$var wire 1 9 Add1|auto_generated|_~0_combout $end
$var wire 1 : A[0]~input_o $end
$var wire 1 ; Add1|auto_generated|result_int[0]~1_cout $end
$var wire 1 < Add1|auto_generated|result_int[1]~2_combout $end
$var wire 1 = B[1]~input_o $end
$var wire 1 > Add1|auto_generated|_~1_combout $end
$var wire 1 ? A[1]~input_o $end
$var wire 1 @ Add1|auto_generated|result_int[1]~3 $end
$var wire 1 A Add1|auto_generated|result_int[2]~4_combout $end
$var wire 1 B A[2]~input_o $end
$var wire 1 C B[2]~input_o $end
$var wire 1 D Add1|auto_generated|_~2_combout $end
$var wire 1 E Add1|auto_generated|result_int[2]~5 $end
$var wire 1 F Add1|auto_generated|result_int[3]~6_combout $end
$var wire 1 G B[3]~input_o $end
$var wire 1 H Add1|auto_generated|_~3_combout $end
$var wire 1 I A[3]~input_o $end
$var wire 1 J Add1|auto_generated|result_int[3]~7 $end
$var wire 1 K Add1|auto_generated|result_int[4]~8_combout $end
$var wire 1 L Add1|auto_generated|result_int[4]~9 $end
$var wire 1 M Add1|auto_generated|result_int[5]~10_combout $end
$var wire 1 N overflow~0_combout $end
$upscope $end
$upscope $end
$enddefinitions $end
#0
$dumpvars
b0 !
0"
b0 #
0$
0%
0)
0(
0'
0&
x*
0+
1,
x-
1.
1/
10
01
02
03
04
05
06
07
08
09
0:
0;
0<
0=
0>
0?
1@
0A
0B
0C
0D
0E
0F
0G
0H
0I
1J
0K
0L
0M
0N
$end
#10000
b1 !
1:
0*
1<
11
1)
#15000
b1 #
18
1*
19
0@
0<
01
0)
1A
12
1(
#20000
b11 !
b10 !
0:
1?
0*
1@
1E
1<
0A
0E
11
02
1)
0(
1A
1F
12
13
1(
1'
0F
03
0'
#30000
b11 #
b10 #
b11 !
1:
08
1=
1*
0@
09
1>
0<
1E
1@
01
0)
1<
11
1)
1F
0A
13
02
1'
0(
#40000
b111 !
b101 !
b100 !
0:
0?
1B
0*
0E
0J
0<
1A
0F
1J
01
12
03
0)
1(
0'
1F
1K
13
14
1'
1&
0K
1N
04
16
0&
1%
0N
06
0%
#45000
b11 #
18
1*
19
1<
11
1)
#50000
b101 !
1:
0*
0@
0<
1E
01
0)
0A
0J
02
0(
0F
03
0'
1K
14
1&
1N
16
1%
#60000
b111 #
b101 #
b111 !
b100 #
b110 !
0:
1?
08
0=
1C
1*
1@
09
0>
1D
1<
1A
0E
11
12
1)
1(
0<
1F
01
13
0)
1'
0F
03
0'
#70000
1"
b111 !
17
1:
0*
1H
0D
1>
1;
19
1M
1<
1L
1J
1E
0@
15
11
1$
1)
0K
1F
0A
0N
0L
0J
04
13
02
06
0&
1'
0(
0%
0M
1K
0F
1A
1N
1L
05
14
03
12
16
0$
1&
0'
1(
1%
1M
0K
15
04
1$
0&
0M
05
0$
0N
06
0%
#75000
b101 #
18
1*
09
0<
01
0)
#80000
b1111 !
b1011 !
b1001 !
b1000 !
0:
0?
0B
1I
0*
1@
1J
1<
0A
1F
1K
0E
11
02
13
14
1)
0(
1'
1&
1A
0K
1N
12
04
16
1(
0&
1%
0F
0N
03
06
0'
0%
#90000
b111 #
b110 #
b1001 !
1:
08
1=
1*
0@
19
0>
0<
01
0)
1<
11
1)
#100000
b1011 !
b1010 !
0:
1?
0*
1E
0<
0A
01
02
0)
0(
1F
13
1'
#105000
b111 #
18
1*
09
1@
1<
0E
11
1)
1A
12
1(
0F
03
0'
#110000
b1011 !
1:
0*
0@
0<
1E
01
0)
0A
02
0(
1F
13
1'
#120000
b1111 #
b1011 #
b1111 !
b1001 #
b1101 !
b1000 #
b1100 !
0:
0?
1B
08
0=
0C
1G
1*
1@
0E
0J
19
1>
1D
0H
1<
1A
0F
0@
11
12
03
1)
1(
0'
0<
1E
01
0)
0A
02
0(
1F
13
1'
#130000
b1101 !
1:
0*
1<
11
1)
#135000
b1001 #
18
1*
09
0<
01
0)
#140000
b1111 !
b1110 !
0:
1?
0*
1@
1<
1A
11
12
1)
1(
0A
02
0(
#150000
b1011 #
b1010 #
b1111 !
1:
08
1=
1*
0@
19
0>
0<
01
0)
1<
11
1)
#160000
b111 !
b11 !
b1 !
b0 !
0:
0?
0B
0I
0*
0E
0L
0<
1A
0F
1K
1J
01
12
03
14
0)
1(
0'
1&
1F
1M
1N
13
15
16
1'
1$
1%
0K
0N
04
06
0&
0%
1N
16
1%
#165000
b1011 #
18
1*
09
1@
1<
11
1)
0A
02
0(
#170000
b1 !
1:
0*
0@
0<
01
0)
1A
12
1(
#180000
b1111 #
b1101 #
b11 !
b1100 #
b10 !
0:
1?
08
0=
1C
1*
1@
1E
19
1>
0D
1<
0A
0@
11
02
1)
0(
0<
01
0)
1A
12
1(
#190000
0"
b11 !
07
1:
0*
1H
1D
0>
0;
09
0M
1<
0J
1@
05
11
0$
1)
1K
0F
0A
0N
1L
0E
14
03
02
06
1&
0'
0(
0%
0K
1A
1N
1J
04
12
16
0&
1(
1%
1M
1F
0N
0L
15
13
06
1$
1'
0%
1K
1N
14
16
1&
1%
0M
0N
05
06
0$
0%
1N
16
1%
#195000
b1101 #
18
1*
19
0@
0<
1E
01
0)
0A
0J
02
0(
0F
1L
03
0'
0K
04
0&
1M
0N
15
06
1$
0%
1N
16
1%
#200000
b111 !
b101 !
b100 !
0:
0?
1B
0*
1@
0E
1<
1A
1F
11
12
13
1)
1(
1'
0A
0F
02
03
0(
0'
#210000
b1111 #
b1110 #
b101 !
1:
08
1=
1*
0@
09
1>
0<
1E
1@
01
0)
1<
0E
11
1)
1F
1A
13
12
1'
1(
0F
03
0'
#220000
b111 !
b110 !
0:
1?
0*
1E
0<
0A
01
02
0)
0(
1F
13
1'
#225000
b1111 #
18
1*
19
1<
11
1)
#230000
b111 !
1:
0*
0@
0<
01
0)
1A
12
1(
#240000
b111 #
b1111 !
b11 #
b1011 !
b1 #
b1001 !
b0 #
b1000 !
0:
0?
0B
1I
08
0=
0C
0G
1*
1@
09
0>
0D
0H
1<
0A
0F
1K
0E
1J
11
02
03
14
1)
0(
0'
1&
0<
1F
0K
0N
0L
01
13
04
06
0)
1'
0&
0%
0F
1K
1N
03
14
16
0'
1&
1%
0M
0N
05
06
0$
0%
1N
16
1%
#250000
1"
b1001 !
17
1:
0*
1H
1D
1>
1;
19
1M
1<
1L
0@
15
11
1$
1)
0K
1F
1A
0N
1E
04
13
12
06
0&
1'
1(
0%
0M
0A
1N
0J
05
02
16
0$
0(
1%
0F
0N
03
06
0'
0%
1K
14
1&
1N
16
1%
#255000
b1 #
18
1*
09
0<
01
0)
#260000
b1011 !
b1010 !
0:
1?
0*
1@
1<
1A
11
12
1)
1(
0A
02
0(
#270000
b11 #
b10 #
b1011 !
1:
08
1=
1*
0@
19
0>
0<
01
0)
1<
11
1)
#280000
b1111 !
b1101 !
b1100 !
0:
0?
1B
0*
0E
0<
1A
1F
01
12
13
0)
1(
1'
0F
03
0'
#285000
b11 #
18
1*
09
1@
1<
11
1)
0A
02
0(
#290000
b1101 !
1:
0*
0@
0<
01
0)
1A
12
1(
#300000
b111 #
b101 #
b1111 !
b100 #
b1110 !
0:
1?
08
0=
1C
1*
1@
1E
19
1>
0D
1<
0A
0@
11
02
1)
0(
0<
01
0)
1A
12
1(
#310000
b1111 !
1:
0*
1<
11
1)
#315000
b101 #
18
1*
09
0<
01
0)
#320000
b111 !
0"
b11 !
b1 !
b0 !
0:
0?
0B
0I
07
0*
1@
1J
0H
1D
0>
0;
19
1<
0A
1F
0K
1M
0E
0L
0J
11
02
13
04
15
1)
0(
1'
0&
1$
0F
1J
03
0'
1F
0M
1K
13
05
14
1'
0$
1&
0K
04
0&
0N
06
0%
#330000
b111 #
b110 #
b1 !
1:
08
1=
1*
0@
09
1>
0<
1E
1@
01
0)
1<
0J
0E
11
1)
0F
1A
1J
03
12
0'
1(
1K
1F
14
13
1&
1'
0K
1N
04
16
0&
1%
0N
06
0%
#340000
b11 !
b10 !
0:
1?
0*
1E
0<
0A
0J
01
02
0)
0(
0F
03
0'
1K
14
1&
1N
16
1%
#345000
b111 #
18
1*
19
1<
11
1)
#350000
b11 !
1:
0*
0@
0<
01
0)
1A
12
1(
#360000
b1111 #
b1011 #
b111 !
b1001 #
b101 !
b1000 #
b100 !
0:
0?
1B
08
0=
0C
1G
1*
1@
09
0>
0D
1H
1<
0A
1F
0E
1L
11
02
13
1)
0(
1'
0<
0F
0K
1J
01
03
04
0)
0'
0&
1F
1M
0N
0L
13
15
06
1'
1$
0%
1K
1N
14
16
1&
1%
0M
0N
05
06
0$
0%
1N
16
1%
#370000
b101 !
1:
0*
1<
11
1)
#375000
b1001 #
18
1*
19
0@
0<
01
0)
1A
12
1(
#380000
b111 !
b110 !
0:
1?
0*
1@
1E
1<
0A
0E
0J
11
02
1)
0(
1A
0F
1J
1L
12
03
1(
0'
1F
0K
0L
13
04
1'
0&
1K
1M
0N
14
15
06
1&
1$
0%
0M
05
0$
1N
16
1%
#390000
b1011 #
b1010 #
b111 !
1:
08
1=
1*
0@
09
1>
0<
1E
1@
01
0)
1<
0J
11
1)
0F
0A
1L
03
02
0'
0(
0K
04
0&
1M
0N
15
06
1$
0%
1N
16
1%
#400000
b1111 !
b1011 !
b1001 !
b1000 !
0:
0?
0B
1I
0*
0E
1J
0<
1A
1F
1K
01
12
13
14
0)
1(
1'
1&
0F
0K
0N
03
04
06
0'
0&
0%
1N
16
1%
#405000
b1011 #
18
1*
19
1<
11
1)
#410000
b1001 !
1:
0*
0@
0<
1E
01
0)
0A
02
0(
1F
13
1'
#420000
b1111 #
b1101 #
b1011 !
b1100 #
b1010 !
0:
1?
08
0=
1C
1*
1@
09
0>
1D
1<
1A
0E
0J
11
12
1)
1(
0<
0F
1J
01
03
0)
0'
1F
1K
13
14
1'
1&
0K
0N
04
06
0&
0%
1N
16
1%
#430000
b1011 !
1:
0*
1<
11
1)
#435000
b1101 #
18
1*
19
0@
0<
1E
01
0)
0A
0J
02
0(
0F
03
0'
1K
14
1&
0N
06
0%
#440000
b1111 !
b1101 !
b1100 !
0:
0?
1B
0*
1@
0E
1<
1A
1F
11
12
13
1)
1(
1'
0A
0F
02
03
0(
0'
#450000
b1111 #
b1110 #
b1101 !
1:
08
1=
1*
0@
09
1>
0<
1E
1@
01
0)
1<
0E
11
1)
1F
1A
13
12
1'
1(
0F
03
0'
#460000
b1111 !
b1110 !
0:
1?
0*
1E
0<
0A
01
02
0)
0(
1F
13
1'
#465000
b1111 #
18
1*
19
1<
11
1)
#470000
b1111 !
1:
0*
0@
0<
01
0)
1A
12
1(
#480000
b111 #
b111 !
b11 #
b11 !
b1 #
b1 !
b0 #
b0 !
0:
0?
0B
0I
08
0=
0C
0G
1*
1@
09
0>
0D
0H
1<
0A
0F
0K
0E
1J
0L
11
02
03
04
1)
0(
0'
0&
0<
1F
1K
1N
01
13
14
16
0)
1'
1&
1%
0F
0K
0M
0N
03
04
05
06
0'
0&
0$
0%
#490000
b1 !
1:
0*
1<
11
1)
#495000
b1 #
18
1*
19
0@
0<
01
0)
1A
12
1(
#500000
b11 !
b10 !
0:
1?
0*
1@
1E
1<
0A
0E
11
02
1)
0(
1A
1F
12
13
1(
1'
0F
03
0'
#510000
b11 #
b10 #
b11 !
1:
08
1=
1*
0@
09
1>
0<
1E
1@
01
0)
1<
11
1)
1F
0A
13
02
1'
0(
#520000
b111 !
b101 !
b100 !
0:
0?
1B
0*
0E
0J
0<
1A
0F
1J
01
12
03
0)
1(
0'
1F
1K
13
14
1'
1&
0K
1N
04
16
0&
1%
0N
06
0%
#525000
b11 #
18
1*
19
1<
11
1)
#530000
b101 !
1:
0*
0@
0<
1E
01
0)
0A
0J
02
0(
0F
03
0'
1K
14
1&
1N
16
1%
#540000
b111 #
b101 #
b111 !
b100 #
b110 !
0:
1?
08
0=
1C
1*
1@
09
0>
1D
1<
1A
0E
11
12
1)
1(
0<
1F
01
13
0)
1'
0F
03
0'
#550000
b111 !
1:
0*
1<
11
1)
#555000
b101 #
18
1*
19
0@
0<
1E
01
0)
0A
02
0(
1F
13
1'
#560000
b1111 !
b1011 !
b1001 !
b1000 !
0:
0?
0B
1I
0*
1@
0E
1L
1<
1A
0F
0K
1J
11
12
03
04
1)
1(
0'
0&
0A
1F
1M
0N
0L
02
13
15
06
0(
1'
1$
0%
1K
1N
14
16
1&
1%
0M
0N
05
06
0$
0%
1N
16
1%
#570000
b111 #
b110 #
b1001 !
1:
08
1=
1*
0@
09
1>
0<
1E
1@
01
0)
1<
0J
0E
11
1)
0F
1A
1L
1J
03
12
0'
1(
0K
1F
0L
04
13
0&
1'
1M
1K
0N
15
14
06
1$
1&
0%
0M
05
0$
1N
16
1%
#580000
b1011 !
b1010 !
0:
1?
0*
1E
0<
0A
0J
01
02
0)
0(
0F
1L
03
0'
0K
04
0&
1M
0N
15
06
1$
0%
1N
16
1%
#585000
b111 #
18
1*
19
1<
11
1)
#590000
b1011 !
1:
0*
0@
0<
01
0)
1A
12
1(
#600000
b1111 #
b1011 #
b1111 !
b1001 #
b1101 !
b1000 #
b1100 !
0:
0?
1B
08
0=
0C
1G
1*
1@
09
0>
0D
1H
1<
0A
1F
0E
11
02
13
1)
0(
1'
0<
0F
1K
1J
01
03
14
0)
0'
1&
1F
0N
13
06
1'
0%
0K
04
0&
1N
16
1%
#610000
b1101 !
1:
0*
1<
11
1)
#615000
b1001 #
18
1*
19
0@
0<
01
0)
1A
12
1(
#620000
b1111 !
b1110 !
0:
1?
0*
1@
1E
1<
0A
0E
0J
11
02
1)
0(
1A
0F
1J
12
03
1(
0'
1F
1K
13
14
1'
1&
0K
0N
04
06
0&
0%
1N
16
1%
#630000
b1011 #
b1010 #
b1111 !
1:
08
1=
1*
0@
09
1>
0<
1E
1@
01
0)
1<
0J
11
1)
0F
0A
03
02
0'
0(
1K
14
1&
0N
06
0%
#640000
b111 !
b11 !
b1 !
b0 !
0:
0?
0B
0I
0*
0E
1J
0<
1A
1F
0K
0L
01
12
13
04
0)
1(
1'
0&
0F
1K
1N
03
14
16
0'
1&
1%
0M
0N
05
06
0$
0%
1N
16
1%
#645000
b1011 #
18
1*
19
1<
11
1)
#650000
b1 !
1:
0*
0@
0<
1E
01
0)
0A
02
0(
1F
13
1'
#660000
b1111 #
b1101 #
b11 !
b1100 #
b10 !
0:
1?
08
0=
1C
1*
1@
09
0>
1D
1<
1A
0E
0J
11
12
1)
1(
0<
0F
1J
1L
01
03
0)
0'
1F
0K
0L
13
04
1'
0&
1K
1M
0N
14
15
06
1&
1$
0%
0M
05
0$
1N
16
1%
#670000
b11 !
1:
0*
1<
11
1)
#675000
b1101 #
18
1*
19
0@
0<
1E
01
0)
0A
0J
02
0(
0F
1L
03
0'
0K
04
0&
1M
0N
15
06
1$
0%
1N
16
1%
#680000
b111 !
b101 !
b100 !
0:
0?
1B
0*
1@
0E
1<
1A
1F
11
12
13
1)
1(
1'
0A
0F
02
03
0(
0'
#690000
b1111 #
b1110 #
b101 !
1:
08
1=
1*
0@
09
1>
0<
1E
1@
01
0)
1<
0E
11
1)
1F
1A
13
12
1'
1(
0F
03
0'
#700000
b111 !
b110 !
0:
1?
0*
1E
0<
0A
01
02
0)
0(
1F
13
1'
#705000
b1111 #
18
1*
19
1<
11
1)
#710000
b111 !
1:
0*
0@
0<
01
0)
1A
12
1(
#720000
b111 #
b1111 !
b11 #
b1011 !
b1 #
b1001 !
b0 #
b1000 !
0:
0?
0B
1I
08
0=
0C
0G
1*
1@
09
0>
0D
0H
1<
0A
0F
1K
0E
1J
11
02
03
14
1)
0(
0'
1&
0<
1F
0K
0N
0L
01
13
04
06
0)
1'
0&
0%
0F
1K
1N
03
14
16
0'
1&
1%
0M
0N
05
06
0$
0%
1N
16
1%
#730000
b1001 !
1:
0*
1<
11
1)
#735000
b1 #
18
1*
19
0@
0<
01
0)
1A
12
1(
#740000
b1011 !
b1010 !
0:
1?
0*
1@
1E
1<
0A
0E
11
02
1)
0(
1A
1F
12
13
1(
1'
0F
03
0'
#750000
b11 #
b10 #
b1011 !
1:
08
1=
1*
0@
09
1>
0<
1E
1@
01
0)
1<
11
1)
1F
0A
13
02
1'
0(
#760000
b1111 !
b1101 !
b1100 !
0:
0?
1B
0*
0E
0J
0<
1A
0F
1J
1L
01
12
03
0)
1(
0'
1F
0K
0L
13
04
1'
0&
1K
1M
0N
14
15
06
1&
1$
0%
0M
05
0$
1N
16
1%
#765000
b11 #
18
1*
19
1<
11
1)
#770000
b1101 !
1:
0*
0@
0<
1E
01
0)
0A
0J
02
0(
0F
1L
03
0'
0K
04
0&
1M
0N
15
06
1$
0%
1N
16
1%
#780000
b111 #
b101 #
b1111 !
b100 #
b1110 !
0:
1?
08
0=
1C
1*
1@
09
0>
1D
1<
1A
0E
11
12
1)
1(
0<
1F
01
13
0)
1'
0F
03
0'
#790000
b1111 !
1:
0*
1<
11
1)
#795000
b101 #
18
1*
19
0@
0<
1E
01
0)
0A
02
0(
1F
13
1'
#800000
b111 !
b11 !
b1 !
b0 !
0:
0?
0B
0I
0*
1@
0E
0L
1<
1A
0F
1K
1J
11
12
03
14
1)
1(
0'
1&
0A
1F
0M
0N
02
13
05
06
0(
1'
0$
0%
0K
1N
04
16
0&
1%
0N
06
0%
#810000
b111 #
b110 #
b1 !
1:
08
1=
1*
0@
09
1>
0<
1E
1@
01
0)
1<
0J
0E
11
1)
0F
1A
1J
03
12
0'
1(
1K
1F
14
13
1&
1'
0K
1N
04
16
0&
1%
0N
06
0%
#820000
b11 !
b10 !
0:
1?
0*
1E
0<
0A
0J
01
02
0)
0(
0F
03
0'
1K
14
1&
1N
16
1%
#825000
b111 #
18
1*
19
1<
11
1)
#830000
b11 !
1:
0*
0@
0<
01
0)
1A
12
1(
#840000
b1111 #
b1011 #
b111 !
b1001 #
b101 !
b1000 #
b100 !
0:
0?
1B
08
0=
0C
1G
1*
1@
09
0>
0D
1H
1<
0A
1F
0E
1L
11
02
13
1)
0(
1'
0<
0F
0K
1J
01
03
04
0)
0'
0&
1F
1M
0N
0L
13
15
06
1'
1$
0%
1K
1N
14
16
1&
1%
0M
0N
05
06
0$
0%
1N
16
1%
#850000
b101 !
1:
0*
1<
11
1)
#855000
b1001 #
18
1*
19
0@
0<
01
0)
1A
12
1(
#860000
b111 !
b110 !
0:
1?
0*
1@
1E
1<
0A
0E
0J
11
02
1)
0(
1A
0F
1J
1L
12
03
1(
0'
1F
0K
0L
13
04
1'
0&
1K
1M
0N
14
15
06
1&
1$
0%
0M
05
0$
1N
16
1%
#870000
b1011 #
b1010 #
b111 !
1:
08
1=
1*
0@
09
1>
0<
1E
1@
01
0)
1<
0J
11
1)
0F
0A
1L
03
02
0'
0(
0K
04
0&
1M
0N
15
06
1$
0%
1N
16
1%
#880000
b1111 !
b1011 !
b1001 !
b1000 !
0:
0?
0B
1I
0*
0E
1J
0<
1A
1F
1K
01
12
13
14
0)
1(
1'
1&
0F
0K
0N
03
04
06
0'
0&
0%
1N
16
1%
#885000
b1011 #
18
1*
19
1<
11
1)
#890000
b1001 !
1:
0*
0@
0<
1E
01
0)
0A
02
0(
1F
13
1'
#900000
b1111 #
b1101 #
b1011 !
b1100 #
b1010 !
0:
1?
08
0=
1C
1*
1@
09
0>
1D
1<
1A
0E
0J
11
12
1)
1(
0<
0F
1J
01
03
0)
0'
1F
1K
13
14
1'
1&
0K
0N
04
06
0&
0%
1N
16
1%
#910000
b1011 !
1:
0*
1<
11
1)
#915000
b1101 #
18
1*
19
0@
0<
1E
01
0)
0A
0J
02
0(
0F
03
0'
1K
14
1&
0N
06
0%
#920000
b1111 !
b1101 !
b1100 !
0:
0?
1B
0*
1@
0E
1<
1A
1F
11
12
13
1)
1(
1'
0A
0F
02
03
0(
0'
#930000
b1111 #
b1110 #
b1101 !
1:
08
1=
1*
0@
09
1>
0<
1E
1@
01
0)
1<
0E
11
1)
1F
1A
13
12
1'
1(
0F
03
0'
#940000
b1111 !
b1110 !
0:
1?
0*
1E
0<
0A
01
02
0)
0(
1F
13
1'
#945000
b1111 #
18
1*
19
1<
11
1)
#950000
b1111 !
1:
0*
0@
0<
01
0)
1A
12
1(
#960000
b111 #
b111 !
b11 #
b11 !
b1 #
b1 !
b0 #
b0 !
0:
0?
0B
0I
08
0=
0C
0G
1*
1@
09
0>
0D
0H
1<
0A
0F
0K
0E
1J
0L
11
02
03
04
1)
0(
0'
0&
0<
1F
1K
1N
01
13
14
16
0)
1'
1&
1%
0F
0K
0M
0N
03
04
05
06
0'
0&
0$
0%
#970000
b1 !
1:
0*
1<
11
1)
#975000
b1 #
18
1*
19
0@
0<
01
0)
1A
12
1(
#980000
b11 !
b10 !
0:
1?
0*
1@
1E
1<
0A
0E
11
02
1)
0(
1A
1F
12
13
1(
1'
0F
03
0'
#990000
b11 #
b10 #
b11 !
1:
08
1=
1*
0@
09
1>
0<
1E
1@
01
0)
1<
11
1)
1F
0A
13
02
1'
0(
