adder_14bits/simulation/qsim/adder_14bits.msim.vcd
$comment
	File created using the following command:
		vcd file adder_14bits.msim.vcd -direction
$end
$date
	Fri Oct 22 16:03:51 2021
$end
$version
	ModelSim Version 10.1d
$end
$timescale
	1ps
$end
$scope module adder_14bits_vlg_vec_tst $end
$var reg 1 ! C $end
$var reg 14 " X [13:0] $end
$var reg 14 # Y [13:0] $end
$var wire 1 $ Co $end
$var wire 1 % S [13] $end
$var wire 1 & S [12] $end
$var wire 1 ' S [11] $end
$var wire 1 ( S [10] $end
$var wire 1 ) S [9] $end
$var wire 1 * S [8] $end
$var wire 1 + S [7] $end
$var wire 1 , S [6] $end
$var wire 1 - S [5] $end
$var wire 1 . S [4] $end
$var wire 1 / S [3] $end
$var wire 1 0 S [2] $end
$var wire 1 1 S [1] $end
$var wire 1 2 S [0] $end
$var wire 1 3 sampler $end
$scope module i1 $end
$var wire 1 4 gnd $end
$var wire 1 5 vcc $end
$var wire 1 6 unknown $end
$var tri1 1 7 devclrn $end
$var tri1 1 8 devpor $end
$var tri1 1 9 devoe $end
$var wire 1 : S[0]~output_o $end
$var wire 1 ; S[1]~output_o $end
$var wire 1 < S[2]~output_o $end
$var wire 1 = S[3]~output_o $end
$var wire 1 > S[4]~output_o $end
$var wire 1 ? S[5]~output_o $end
$var wire 1 @ S[6]~output_o $end
$var wire 1 A S[7]~output_o $end
$var wire 1 B S[8]~output_o $end
$var wire 1 C S[9]~output_o $end
$var wire 1 D S[10]~output_o $end
$var wire 1 E S[11]~output_o $end
$var wire 1 F S[12]~output_o $end
$var wire 1 G S[13]~output_o $end
$var wire 1 H Co~output_o $end
$var wire 1 I Y[0]~input_o $end
$var wire 1 J X[0]~input_o $end
$var wire 1 K C~input_o $end
$var wire 1 L U1|Add0~1_cout $end
$var wire 1 M U1|Add0~2_combout $end
$var wire 1 N Y[1]~input_o $end
$var wire 1 O X[1]~input_o $end
$var wire 1 P U1|Add0~3 $end
$var wire 1 Q U1|Add0~4_combout $end
$var wire 1 R Y[2]~input_o $end
$var wire 1 S X[2]~input_o $end
$var wire 1 T U1|Add0~5 $end
$var wire 1 U U1|Add0~6_combout $end
$var wire 1 V Y[3]~input_o $end
$var wire 1 W X[3]~input_o $end
$var wire 1 X U1|Add0~7 $end
$var wire 1 Y U1|Add0~8_combout $end
$var wire 1 Z Y[4]~input_o $end
$var wire 1 [ X[4]~input_o $end
$var wire 1 \ U1|Add0~9 $end
$var wire 1 ] U1|Add0~10_combout $end
$var wire 1 ^ Y[5]~input_o $end
$var wire 1 _ X[5]~input_o $end
$var wire 1 ` U1|Add0~11 $end
$var wire 1 a U1|Add0~12_combout $end
$var wire 1 b Y[6]~input_o $end
$var wire 1 c X[6]~input_o $end
$var wire 1 d U1|Add0~13 $end
$var wire 1 e U1|Add0~14_combout $end
$var wire 1 f Y[7]~input_o $end
$var wire 1 g X[7]~input_o $end
$var wire 1 h U1|Add0~15 $end
$var wire 1 i U1|Add0~16_combout $end
$var wire 1 j Y[8]~input_o $end
$var wire 1 k X[8]~input_o $end
$var wire 1 l U1|Add0~17 $end
$var wire 1 m U1|Add0~18_combout $end
$var wire 1 n Y[9]~input_o $end
$var wire 1 o X[9]~input_o $end
$var wire 1 p U1|Add0~19 $end
$var wire 1 q U1|Add0~20_combout $end
$var wire 1 r Y[10]~input_o $end
$var wire 1 s X[10]~input_o $end
$var wire 1 t U1|Add0~21 $end
$var wire 1 u U1|Add0~22_combout $end
$var wire 1 v Y[11]~input_o $end
$var wire 1 w X[11]~input_o $end
$var wire 1 x U1|Add0~23 $end
$var wire 1 y U1|Add0~24_combout $end
$var wire 1 z Y[12]~input_o $end
$var wire 1 { X[12]~input_o $end
$var wire 1 | U1|Add0~25 $end
$var wire 1 } U1|Add0~26_combout $end
$var wire 1 ~ Y[13]~input_o $end
$var wire 1 !! X[13]~input_o $end
$var wire 1 "! U1|Add0~27 $end
$var wire 1 #! U1|Add0~28_combout $end
$var wire 1 $! U1|Add0~29 $end
$var wire 1 %! U1|Add0~30_combout $end
$upscope $end
$upscope $end
$enddefinitions $end
#0
$dumpvars
0!
b1011010110000 "
b10110010001011 #
1$
12
11
00
1/
1.
1-
0,
0+
1*
1)
0(
0'
0&
0%
x3
04
15
x6
17
18
19
1:
1;
0<
1=
1>
1?
0@
0A
1B
1C
0D
0E
0F
0G
1H
1I
0J
0K
0L
1M
1N
0O
1P
1Q
0R
0S
0T
0U
1V
0W
1X
1Y
0Z
1[
0\
1]
0^
1_
1`
1a
0b
0c
0d
0e
1f
1g
1h
0i
0j
0k
1l
1m
0n
1o
1p
1q
1r
1s
0t
0u
1v
0w
0x
0y
0z
1{
1|
0}
1~
0!!
0"!
0#!
1$!
1%!
$end
#5000
b1010010110000 "
b1010010010000 "
b1010010000000 "
b1010010001000 "
b1010010001010 "
b10010010001011 #
b10010110001011 #
b10010100001011 #
b10010101001011 #
b10010101011011 #
b10010101010011 #
b10010101010010 #
0I
0V
1Z
1b
0f
1j
0v
1O
1W
0[
0_
0o
03
0l
0p
0|
1T
0M
1e
1i
0m
1y
0Q
0a
0q
1p
1"!
0:
1@
1A
0B
1E
0;
0?
0C
02
1,
1+
0*
1'
01
0-
0)
1m
1q
1}
1U
0$!
1B
1C
1F
1<
1*
1)
1&
10
0q
1#!
0C
1G
0)
1%
0%!
0H
0$
#10000
b11010010001010 "
b11110010001010 "
b11100010001010 "
b11100011001010 "
b11100011001110 "
b11100011001111 "
b10011101010010 #
b10011101010110 #
b10011101010100 #
b11101011001111 "
b11101011101111 "
b11101011101101 "
b10011100010100 #
b10011100000100 #
b10011100000101 #
1I
0N
1R
0Z
0b
1n
1J
0O
1S
1_
1c
1o
0s
1w
1!!
13
0P
0T
0X
1t
1x
1|
1$!
0]
1a
1u
0y
0#!
1\
0x
0|
0"!
0>
1?
1D
0E
0G
0.
1-
1(
0'
0%
1Q
0U
0Y
0u
1y
0}
1%!
1|
1"!
1;
0<
0=
0D
1E
0F
1H
11
00
0/
0(
1'
0&
1$
1]
0y
1}
1#!
0"!
1>
0E
1F
1G
1.
0'
1&
1%
0}
0#!
0F
0G
0&
0%
1#!
1G
1%
#15000
b11100000101 #
b1100000101 #
b11101011111101 "
b1100001101 #
b11101011111100 "
b100001101 #
b100001001 #
b11101011011100 "
b11101011011110 "
0J
1O
1[
0_
0R
1V
0n
0r
0~
03
1P
1T
0`
1X
0t
1x
1M
0Q
0]
0a
1U
1Y
1q
1u
0#!
0T
0X
0|
1:
0;
0>
0?
1<
1=
1C
1D
0G
12
01
0.
0-
10
1/
1)
1(
0%
1Q
0U
1a
0Y
0u
1y
1X
1"!
1;
0<
1?
0=
0D
1E
11
00
1-
0/
0(
1'
1U
1Y
1}
0$!
1<
1=
1F
10
1/
1&
0Y
1#!
0=
1G
0/
1%
0%!
0H
0$
#20000
b10101011011110 "
b10101111011110 "
b100101001 #
b110101001 #
b101111011110 "
b1111011110 "
b11111011110 "
b11110011110 "
b110101011 #
b110111011 #
b110111010 #
b10000110111010 #
b10000110110010 #
b10001110110010 #
b10001110110110 #
0I
1N
1R
0V
1Z
1^
1f
1n
1~
0c
1k
1s
0w
0{
0!!
13
1T
0X
0\
1d
1l
1t
0p
0M
0Q
0U
1Y
1]
0a
0i
0q
0e
0m
1u
0y
0}
1\
0x
0:
0;
0<
1=
1>
0?
0A
0C
0@
0B
1D
0E
0F
02
01
00
1/
1.
0-
0+
0)
0,
0*
1(
0'
0&
1U
0Y
0]
1e
1m
0u
1q
1<
0=
0>
1@
1B
0D
1C
10
0/
0.
1,
1*
0(
1)
1]
1y
1>
1E
1.
1'
#25000
b11100011110 "
b11001110110110 #
b11100010110 "
b11101110110110 #
b11100010010 "
b10100010010 "
b11101111110110 #
b10100000010 "
b10100000000 "
b1010100000000 "
b11101101110110 #
b11101101110100 #
b11101101110101 #
b11101101111101 #
b11101101111001 #
1I
0N
0R
1V
1b
0f
1v
1z
0O
0S
0W
0[
0g
0o
1{
03
0T
1X
0h
0l
1|
0"!
1M
0e
0y
0]
0q
0\
1$!
1:
0@
0E
0>
0C
12
0,
0'
0.
0)
0U
1Y
1i
0m
1}
0#!
1`
0<
1=
1A
0B
1F
0G
00
1/
1+
0*
1&
0%
1]
1%!
0d
1>
1H
1.
1$
1a
1h
1?
1-
1e
1@
1,
0i
0A
0+
#30000
b11111101111001 #
b1010100100000 "
b1010000100000 "
b11111101011001 #
b1000000100000 "
b1111101011001 #
b1000000101000 "
b1000000101100 "
b1111100011001 #
b101100 "
b1111100011000 #
1S
1W
1_
0k
0s
0{
0I
0^
0b
1r
0~
13
1\
1p
0$!
1U
0Y
1m
0}
0M
0e
1#!
0`
0t
1<
0=
1B
0F
0:
0@
1G
10
0/
1*
0&
02
0,
1%
0]
1q
0%!
1d
1x
0>
1C
0H
0.
1)
0$
0a
1u
0|
0?
1D
0-
1(
1e
1y
1"!
1@
1E
1,
1'
1}
1F
1&
0#!
0G
0%
#35000
b10000000101100 "
b1111100001000 #
b111100001000 #
b10001000101100 "
b10001000101110 "
b111100000000 #
b111100000100 #
b10001000001110 "
b10001100001110 "
b111100100100 #
b10111100100100 #
b10001100000110 "
b10001100000010 "
b10111101100100 #
b10111101100101 #
1I
1R
0V
0Z
1^
1b
0z
1~
1O
0S
0W
0_
1k
1o
1!!
03
0\
1`
0h
1$!
0p
1t
1M
1]
0e
0}
1Q
0m
0q
0d
0x
1:
1>
0@
0F
1;
0B
0C
12
1.
0,
0&
11
0*
0)
0]
1a
1i
1%!
1q
0u
1h
1|
0>
1?
1A
1H
1C
0D
0.
1-
1+
1$
1)
0(
1e
0y
1@
0E
1,
0'
0i
1}
0A
1F
0+
1&
#40000
b10101100000010 "
b10101101000010 "
b10101111000010 "
b10011101100101 #
b10011111100101 #
b10111111000010 "
b11111111000010 "
b1111111000010 "
b10011111110101 #
b11011111110101 #
b1111111000000 "
b11011111111101 #
b11011111111001 #
b1111111100000 "
b1111011100000 "
b11011111011001 #
b1111011101000 "
b1111011101100 "
b11011110011001 #
0R
1V
1Z
0^
0b
1f
0v
1z
0O
1S
1W
1_
1c
1g
0k
1s
1w
1{
0!!
13
1\
1l
0"!
1p
0$!
1]
0Q
1m
1u
1#!
0`
0p
1$!
1>
0;
1B
1D
1G
1.
01
1*
1(
1%
0]
0m
0#!
0q
0%!
1d
0>
0B
0G
0C
0H
0.
0*
0%
0)
0$
0a
1q
1%!
0h
0?
1C
1H
0-
1)
1$
0e
0@
0,
1i
1A
1+
#45000
b11011010011001 #
b11010010011001 #
b1110011101100 "
b1010010011001 #
b1010010011000 #
b1010011101100 "
b1010001101100 "
b1110010011000 #
b1000001101100 "
b11000001101100 "
b11000001001100 "
b1110010111000 #
b11000001000100 "
b11000001000000 "
b1110011111000 #
0S
0W
0_
0g
0o
0s
0w
1!!
0I
1^
1b
0j
0n
1v
0~
03
0\
0t
1p
0U
1Y
0i
0u
0M
1e
1m
1`
1x
0<
1=
0A
0D
0:
1@
1B
00
1/
0+
0(
02
1,
1*
1]
1u
0q
0d
0|
1>
1D
0C
1.
1(
0)
1a
1y
1?
1E
1-
1'
0e
0}
0@
0F
0,
0&
#50000
b11000001000001 "
b1110011111010 #
b1100011111010 #
b1100001111010 #
b1100001101010 #
b11000001000011 "
b1100001101110 #
b11000101000011 "
b1100101101110 #
b11001101000011 "
b1100101101111 #
b11101101000011 "
b11101111000011 "
b1101111000011 "
b1100101001111 #
b1101111001011 "
b1100100001111 #
1I
1N
1R
0Z
0^
0b
0f
1j
0r
1J
1O
1W
1g
1k
1o
1w
0!!
13
0P
1T
1h
0p
1\
1|
0$!
1U
0]
0a
1e
0u
0Y
1q
0y
1#!
0X
0l
1t
1<
0>
0?
1@
0D
0=
1C
0E
1G
10
0.
0-
1,
0(
0/
1)
0'
1%
1Q
0U
1i
0q
1]
1}
0%!
1;
0<
1A
0C
1>
1F
0H
11
00
1+
0)
1.
1&
0$
1Y
0m
1u
1=
0B
1D
1/
0*
1(
#55000
b1101111011011 "
b1101110011011 "
b101110011011 "
b100100001111 #
b101100001111 #
b10101100001111 #
b111110011011 "
b111110111011 "
b111110111111 "
b10101100011111 #
b111010111111 "
b111000111111 "
b10111000111111 "
b10101100111111 #
b10101101111111 #
1Z
1^
1b
1n
0z
1~
1S
1[
1_
0c
0g
0k
1s
0{
1!!
03
0`
1d
1"!
1$!
1p
0x
1q
1U
0i
1m
0u
0h
1C
1<
0A
1B
0D
1)
10
0+
1*
0(
1a
0e
0#!
1%!
0q
1y
1?
0@
0G
1H
0C
1E
1-
0,
0%
1$
0)
1'
1i
1A
1+
#60000
b10111101111111 #
b10111111111111 #
b10111000111101 "
b10111011111111 #
b10111011111110 #
b10111000110101 "
b10111001110101 "
b111011111110 #
b10101001110101 "
b10101001010101 "
b111011101110 #
b10101011010101 "
b111010101110 #
0O
0W
0_
1c
1g
0s
0I
0Z
0b
1f
0j
1r
0~
13
1l
1P
0$!
0Q
0Y
0a
1M
0]
0m
1#!
0T
0;
0=
0?
1:
0>
0B
1G
01
0/
0-
12
0.
0*
1%
1m
1Q
0%!
1B
1;
0H
1*
11
0$
0U
0<
00
#65000
b10101011010100 "
b111010101100 #
b111010101000 #
b10001011010100 "
b10001011000100 "
b1111010101000 #
b1110010101000 #
b1110010001000 #
b1100010001000 #
b10011011000100 "
b10011011100100 "
b1100010011000 #
0N
0R
1Z
0^
0n
0r
1z
0J
0[
1_
1s
0w
03
1X
0t
0"!
0Q
1U
1q
0}
0M
0y
0\
1x
1$!
0;
1<
1C
0F
0:
0E
01
10
1)
0&
02
0'
1Y
1u
0#!
1`
0|
1=
1D
0G
1/
1(
0%
1]
1y
1%!
0d
1"!
1>
1E
1H
1.
1'
1$
1a
1}
1h
0$!
1?
1F
1-
1&
1e
1#!
1@
1G
1,
1%
0i
0%!
0A
0H
0+
0$
#70000
b11011100100 "
b11010100100 "
b1100010011100 #
b11010110100 "
b100010011100 #
b101010011100 #
b101010111100 #
b111010111100 #
b1010110100 "
b1010010100 "
b111010101100 #
1R
0Z
1^
1n
1r
0z
1[
0_
0c
0s
0!!
13
0X
1t
0U
0q
0}
0e
0#!
1\
0x
0<
0C
0F
0@
0G
00
0)
0&
0,
0%
0Y
0u
0`
1|
0=
0D
0/
0(
0]
0y
1d
0>
0E
0.
0'
0a
1}
0?
1F
0-
1&
1e
1@
1,
#75000
b1001010010100 "
b1001010010000 "
b111000101100 #
b111100101100 #
b111101101100 #
b111101101110 #
b1111101101110 #
b1110101101110 #
b1110101001110 #
b1100101001110 #
b1001010110000 "
b1100101011110 #
1N
1Z
0^
1b
0f
1j
0n
0r
1z
0S
1_
1{
03
0h
0l
0p
0t
1x
0"!
1X
1Q
1]
0e
1i
0m
1q
1u
1U
1l
1p
1t
0|
0\
1;
1>
0@
1A
0B
1C
1D
1<
11
1.
0,
1+
0*
1)
1(
10
0i
1m
0q
0u
1y
1#!
1Y
0p
0t
0A
1B
0C
0D
1E
1G
1=
0+
1*
0)
0(
1'
1%
1/
0m
1q
1u
0}
0]
1t
0B
1C
1D
0F
0>
0*
1)
1(
0&
0.
0q
0u
0C
0D
0)
0(
1u
1D
1(
#80000
b1000010110000 "
b1000110110000 "
b1100101011111 #
b1000110111000 "
b11100101011111 #
b1000100111000 "
b1000100111001 "
b1100100111001 "
b1100101111001 "
b1100101111101 "
b11100111011111 #
b11100011011111 #
b11100010011111 #
b11100010011101 #
b10100010011101 #
b10110010011101 #
b1100101011101 "
1I
0N
0b
1f
0j
1r
0z
1~
1J
1S
1W
0_
1c
0g
1k
0o
1w
13
0P
0x
1"!
1$!
0X
1\
0d
0t
1|
0Q
0u
1}
0#!
0U
0Y
1a
1q
0y
0$!
1h
1x
0"!
0;
0D
1F
0G
0<
0=
1?
1C
0E
01
0(
1&
0%
00
0/
1-
1)
0'
1Q
1y
1#!
1%!
1Y
1]
1e
1u
0}
0l
1$!
1;
1E
1G
1H
1=
1>
1@
1D
0F
11
1'
1%
1$
1/
1.
1,
1(
0&
0%!
1i
0y
0#!
1p
0H
1A
0E
0G
0$
1+
0'
0%
1m
1%!
1B
1H
1*
1$
0q
0C
0)
#85000
b10110010010101 #
b1100101011111 "
b11100101011111 "
b10110010010001 #
b10110010110001 #
b10110010100001 #
b11100101010111 "
b11100111010111 "
b11100111010110 "
b11100110010110 "
b10110110100001 #
b10110111100001 #
0J
1O
0W
0c
1g
1!!
0R
0V
0Z
1^
1b
1j
03
1P
1T
0\
1l
1X
1d
0p
1M
0Q
0i
1#!
1U
0]
0a
0m
0T
0X
1`
0h
1:
0;
0A
1G
1<
0>
0?
0B
12
01
0+
1%
10
0.
0-
0*
1Q
0U
1]
1m
0Y
0e
1q
1X
0d
1;
0<
1>
1B
0=
0@
1C
11
00
1.
1*
0/
0,
1)
1U
1Y
1a
1i
1h
1<
1=
1?
1A
10
1/
1-
1+
0Y
1e
0=
1@
0/
1,
0i
0A
0+
#90000
b10100110010110 "
b10101110010110 "
b10101010010110 "
b110111100001 #
b10001010010110 "
b110111100011 #
b100111100011 #
b100111101011 #
b1010010110 "
b100111101111 #
b100111111111 #
b1011010110 "
1N
1R
1V
1Z
0r
0~
1c
0k
1o
0w
0{
0!!
13
1T
0X
0`
0$!
0h
1t
0|
1"!
0Q
0U
1Y
0]
0u
0e
0m
0q
1y
1}
1\
1d
0;
0<
1=
0>
0D
0@
0B
0C
1E
1F
01
00
1/
0.
0(
0,
0*
0)
1'
1&
1U
0Y
0a
0%!
1i
1u
0}
0#!
1<
0=
0?
0H
1A
1D
0F
0G
10
0/
0-
0$
1+
1(
0&
0%
1]
1e
1>
1@
1.
1,
#95000
b111111111 #
b11011010110 "
b1111111111 #
b11011010010 "
b1111011111 #
b11011011010 "
b11001011010 "
b11001011011 "
b1011011111 #
b1010011111 #
b10001011011 "
b10101011011 "
b10001010011111 #
b110101011011 "
b10011010011111 #
b10011010010111 #
b10110101011011 "
b10011010010011 #
b10011010000011 #
b10110100011011 "
1J
0S
1W
0c
0g
1k
0o
1s
1w
1!!
0R
0V
0Z
0^
0b
0j
1n
1r
0v
1~
03
0P
1X
1h
0x
1$!
0d
0M
0i
0]
1a
0\
0l
1|
0:
0A
0>
1?
02
0+
0.
1-
1Q
1Y
1i
0y
1%!
0e
1`
1p
1;
1=
1A
0E
1H
0@
11
1/
1+
0'
1$
0,
1]
1m
1}
0t
1>
1B
1F
1.
1*
1&
0a
1q
0?
1C
0-
1)
0u
0D
0(
#100000
b10110100111011 "
b10011010000001 #
b10100100111011 "
b10011010100001 #
b10011110100001 #
b10011111100001 #
b10101100111011 "
b11111100001 #
b10001100111011 "
b1111100001 #
b1111101001 #
b1111101101 #
b10001101111011 "
0N
1R
1V
1^
1b
1j
0r
0~
1_
1c
1o
0s
0w
13
0X
1\
1d
0h
0p
1x
0$!
1t
0|
0Q
0U
0Y
0m
1#!
0q
1y
0`
1l
0;
0<
0=
0B
1G
0C
1E
01
00
0/
0*
1%
0)
1'
1Y
0]
1e
0i
1q
0y
0%!
1u
0}
1=
0>
1@
0A
1C
0E
0H
1D
0F
1/
0.
1,
0+
1)
0'
0$
1(
0&
1a
1m
1?
1B
1-
1*
#105000
b10001101101011 "
b1001111101101 #
b10001101101001 "
b1101111101101 #
b1100111101101 #
b10001101100001 "
b1100111111101 #
b10001101000001 "
b10000101000001 "
b11100111111101 #
b10100101000001 "
b11110111111101 #
b10100100000001 "
1Z
0n
1r
1v
1z
1~
0O
0W
0[
0_
0c
0o
1w
03
0t
0x
1|
1$!
0T
0u
1}
0#!
1Q
0Y
0a
0e
1x
0"!
1X
0D
1F
0G
1;
0=
0?
0@
0(
1&
0%
11
0/
0-
0,
1u
1y
0}
1%!
1U
0\
1D
1E
0F
1H
1<
1(
1'
0&
1$
10
0y
1#!
1Y
1`
0E
1G
1=
0'
1%
1/
1]
0d
1>
1.
1a
1h
1?
1-
1e
0l
1@
1,
1i
1A
1+
0m
0B
0*
#110000
b11100100000001 "
b11100110000001 "
b11110111111111 #
b11110110111111 #
b11110110110111 #
b11110110110011 #
b11100110010001 "
b11010110110011 #
b11011110110011 #
b11100110110001 "
b11101110110001 "
b1011110110011 #
b11001110110001 "
b1001110110011 #
1N
0R
0V
0b
1n
0r
0v
0~
1[
1_
1g
1o
0w
1{
13
1T
1t
0|
0`
1d
1l
0Q
0U
0Y
0e
0u
0#!
0]
0a
0i
1}
0;
0<
0=
0@
0D
0G
0>
0?
0A
1F
01
00
0/
0,
0(
0%
0.
0-
0+
1&
1U
1u
0}
1a
1e
1m
1<
1D
0F
1?
1@
1B
10
1(
0&
1-
1,
1*
#115000
b1001100110011 #
b11001110110101 "
b11001010110101 "
b1001010110101 "
b1001100010011 #
b1001000010011 #
b1000010011 #
b1001011110101 "
b1011110101 "
b1001110101 "
b1000010001 #
b1001100101 "
b101000010001 #
b1001000101 "
b10101000010001 #
b101001000101 "
b10111000010001 #
1S
0[
0_
1c
0g
0k
1w
0{
0!!
0N
0^
0f
0j
1r
1v
0z
1~
03
0X
1`
0d
0h
0l
1p
1|
1"!
0T
0x
0U
1]
0e
1Q
0u
1h
0$!
1X
0<
1>
0@
1;
0D
00
1.
0,
11
0(
1Y
0a
1e
1i
0m
0q
1}
1#!
1U
1y
1=
0?
1@
1A
0B
0C
1F
1G
1<
1E
1/
0-
1,
1+
0*
0)
1&
1%
10
1'
0i
0%!
0Y
0A
0H
0=
0+
0$
0/
#120000
b111001000101 "
b111001000111 "
b10111000000001 #
b10110000000001 #
b110001000111 "
b10110010000001 #
b10110001000111 "
b10110010100001 #
b10110110100001 #
b11110110100001 #
b10110011000111 "
b10110011010111 "
b10010011010111 "
b11100110100001 #
0Z
1^
1f
1j
0n
0r
1z
1O
1[
1g
0o
1s
0w
1!!
13
1l
0t
0"!
1T
1$!
1a
1m
0}
0Q
0y
0#!
0p
1x
0X
1?
1B
0F
0;
0E
0G
1-
1*
0&
01
0'
0%
0m
1u
1#!
0U
1%!
0|
0B
1D
1G
0<
1H
0*
1(
1%
00
1$
1q
1y
1Y
1"!
1C
1E
1=
1)
1'
1/
1}
1F
1&
0#!
0G
0%
#125000
b10010011010110 "
b10010011011110 "
b11100110101001 #
b10010111011110 "
b10010110011110 "
b11000110101001 #
b10010110111110 "
b10000110111110 "
b10000110111100 "
b11000110111001 #
b10001110111100 "
b11000100111001 #
b11000000111001 #
b10000000111001 #
b10001100111100 "
b10001100101100 "
1V
1Z
0f
0j
0v
0z
0J
0O
1W
0[
1_
0c
0g
1k
1o
0s
03
1\
0l
1P
0T
1d
1t
0y
0}
1M
1Q
0a
0e
0q
0u
0`
1p
1X
0E
0F
1:
1;
0?
0@
0C
0D
0'
0&
12
11
0-
0,
0)
0(
0]
1m
0Q
1U
1e
1u
0t
0>
1B
0;
1<
1@
1D
0.
1*
01
10
1,
1(
1a
1q
0Y
1?
1C
0=
1-
1)
0/
0u
0D
0(
#130000
b10001100101000 "
b11001100101000 "
b10000000111011 #
b10001000111011 #
b11101100101000 "
b10011000111011 #
b11101000101000 "
b10111000111011 #
b11101000001000 "
b11101000001010 "
b10111000101011 #
b10111010101011 #
1N
0Z
1f
1n
1r
1v
1O
0S
0_
0k
1w
1{
13
1T
1`
1t
1|
1]
1i
0q
1u
0U
0a
0m
1}
0d
0x
0"!
1>
1A
0C
1D
0<
0?
0B
1F
1.
1+
0)
1(
00
0-
0*
1&
1U
1a
0u
0}
1<
1?
0D
0F
10
1-
0(
0&
0e
1y
1#!
0@
1E
1G
0,
1'
1%
#135000
b10111011101011 #
b111011101011 #
b111011001011 #
b11101000001011 "
b11101000000011 "
b11111000000011 "
b111111001011 #
b11111010000011 "
b11111010000111 "
b101111001011 #
b101111011011 #
1J
1S
0W
1g
1s
1Z
0^
1b
1j
0r
0~
03
0P
0X
0\
1l
0`
0M
0U
1Y
0i
0]
0a
1e
1m
0#!
1\
1`
0p
0:
0<
1=
0A
0>
0?
1@
1B
0G
02
00
1/
0+
0.
0-
1,
1*
0%
1Q
0Y
1]
0m
1a
0`
1;
0=
1>
0B
1?
11
0/
1.
0*
1-
0]
0a
1q
0>
0?
1C
0.
0-
1)
1a
1?
1-
#140000
b101111011010 #
b1111010000111 "
b101111010010 #
b1111011000111 "
b1110011000111 "
b1101111010010 #
b1110011010111 "
b110011010111 "
b1101111010000 #
b1001111010000 #
b110011110111 "
b110011110101 "
b110011110100 "
b100011110100 "
b100001110100 "
b100001110000 "
0J
0O
0S
1[
1_
1c
0g
0o
0s
0{
0!!
0I
0N
0V
0v
1z
13
1P
0T
1X
1d
0h
0l
1x
0$!
0\
1U
1]
0a
0e
1i
0q
1u
1#!
1Y
0y
1l
1p
0|
1<
1>
0?
0@
1A
0C
1D
1G
1=
0E
10
1.
0-
0,
1+
0)
1(
1%
1/
0'
0Q
0U
0Y
1e
0i
1m
1y
0%!
0]
0p
0t
1"!
0;
0<
0=
1@
0A
1B
1E
0H
0>
01
00
0/
1,
0+
1*
1'
0$
0.
0m
1q
1}
1t
0B
1C
1F
0*
1)
1&
0q
0u
0#!
0C
0D
0G
0)
0(
0%
1u
1D
1(
#145000
b1001111010100 #
b1000111010100 #
b100101110000 "
b1000110010100 #
b11000110010100 #
b100101111000 "
b11010110010100 #
b11010110010101 #
b101101111000 "
b101101101000 "
b1101101101000 "
b11110110010101 #
b1101101001000 "
b1101101001010 "
b1101101001011 "
b1101111001011 "
b1101111001111 "
1J
1O
1S
1W
0[
0_
1g
1k
1o
1{
1I
1R
0b
0n
1r
1v
1~
03
0P
0X
1`
0d
0"!
0x
1|
1Q
1Y
1]
1a
1i
1m
0}
0e
0u
0y
1#!
1T
1\
1h
1$!
1;
1=
1>
1?
1A
1B
0F
0@
0D
0E
1G
11
1/
1.
1-
1+
1*
0&
0,
0(
0'
1%
0Q
0Y
0a
1e
0#!
1y
1}
0`
0;
0=
0?
1@
0G
1E
1F
01
0/
0-
1,
0%
1'
1&
1U
0]
0i
1%!
1<
0>
0A
1H
10
0.
0+
1$
1a
1?
1-
#150000
b1001111001111 "
b11110100010101 #
b11110000010101 #
b11110000000101 #
b11001111001111 "
b10110000000101 #
b10110001000101 #
b11001111000111 "
b11001111010111 "
b10001111010111 "
b10001111010101 "
b10001111010100 "
b10001111010000 "
0Z
1b
0f
0j
0z
0J
0O
0S
0W
1[
0w
0{
1!!
13
0h
0l
1"!
1P
0T
0\
0e
1i
0m
1M
1Q
0U
1Y
0y
1#!
1l
1p
1X
1`
0@
1A
0B
1:
1;
0<
1=
0E
1G
0,
1+
0*
12
11
00
1/
0'
1%
0i
1m
0#!
0Q
1U
1]
0p
0t
0A
1B
0G
0;
1<
1>
0+
1*
0%
01
10
1.
0m
1q
0Y
0a
1t
1x
0B
1C
0=
0?
0*
1)
0/
0-
0q
1u
0x
0|
0C
1D
0)
1(
0u
1y
1|
0D
1E
0(
1'
0y
0}
0E
0F
0'
0&
1}
1F
1&
#155000
b10110001100101 #
b10110001100111 #
b10110001100011 #
b110001100011 #
b100001100011 #
b10000111010000 "
b1100011 #
b10000111110000 "
b10000101110000 "
b10100101110000 "
b11100011 #
b111100011 #
b100101110000 "
b100101110010 "
b100101110110 "
1O
1S
1_
0g
0o
1w
0!!
1N
0R
1^
1f
1j
0r
0v
0~
03
1T
1d
0t
0$!
1x
1q
1m
1u
0X
0|
1C
1B
1D
1)
1*
1(
0U
1e
0u
0%!
1y
0<
1@
0D
0H
1E
00
1,
0(
0$
1'
1Y
0}
1=
0F
1/
0&
#160000
b111101011 #
b100100110110 "
b100000110110 "
b1000111101011 #
b100000111110 "
b100000111111 "
b1000111001011 #
b1000111001111 #
b11000111001111 #
b11010111001111 #
b101000111111 "
b11110111001111 #
b11110101001111 #
b11110001001111 #
b101000111011 "
1J
0S
1W
0c
0k
1o
1R
1V
0^
0f
0j
1r
1v
1z
1~
13
0P
1\
1p
1t
0d
0l
1|
0M
0e
0q
1a
1i
1u
0y
1}
1#!
0`
0t
0x
1h
0"!
0:
0@
0C
1?
1A
1D
0E
1F
1G
02
0,
0)
1-
1+
1(
0'
1&
1%
1Q
0]
1q
0u
1e
0m
0}
1d
1x
1$!
1;
0>
1C
0D
1@
0B
0F
11
0.
1)
0(
1,
0*
0&
0a
1u
1y
0i
0#!
0h
0?
1D
1E
0A
0G
0-
1(
1'
0+
0%
0e
0y
1%!
0@
0E
1H
0,
0'
1$
1i
1A
1+
#165000
b11111001001111 #
b11111001011111 #
b11111001011101 #
b101010111011 "
b1010111011 "
b10001010111011 "
b11111001010101 #
b10111001010101 #
b10001010110011 "
b10111001010001 #
b10101001010001 #
b10001001010001 #
b10001011010001 #
0W
1g
0w
1!!
0N
0R
0V
1Z
1f
1n
0r
0v
0z
03
0\
1l
0|
1X
1t
1"!
1#!
0Q
1U
1]
0q
0u
1}
1G
0;
1<
1>
0C
0D
1F
1%
01
10
1.
0)
0(
1&
0]
1m
0}
0Y
1u
0#!
0>
1B
0F
0=
1D
0G
0.
1*
0&
0/
1(
0%
