adder_subtractor_10bit/simulation/qsim/adder_subtractor_10bit.msim.vcd
$comment
	File created using the following command:
		vcd file adder_subtractor_10bit.msim.vcd -direction
$end
$date
	Sat Oct 23 20:37:31 2021
$end
$version
	ModelSim Version 10.1d
$end
$timescale
	1ps
$end
$scope module adder_subtractor_10bit_vlg_vec_tst $end
$var reg 1 ! C_in $end
$var reg 1 " Mode $end
$var reg 10 # X [9:0] $end
$var reg 10 $ Y [9:0] $end
$var wire 1 % C_out $end
$var wire 1 & S [9] $end
$var wire 1 ' S [8] $end
$var wire 1 ( S [7] $end
$var wire 1 ) S [6] $end
$var wire 1 * S [5] $end
$var wire 1 + S [4] $end
$var wire 1 , S [3] $end
$var wire 1 - S [2] $end
$var wire 1 . S [1] $end
$var wire 1 / S [0] $end
$var wire 1 0 sampler $end
$scope module i1 $end
$var wire 1 1 gnd $end
$var wire 1 2 vcc $end
$var wire 1 3 unknown $end
$var tri1 1 4 devclrn $end
$var tri1 1 5 devpor $end
$var tri1 1 6 devoe $end
$var wire 1 7 S[0]~output_o $end
$var wire 1 8 S[1]~output_o $end
$var wire 1 9 S[2]~output_o $end
$var wire 1 : S[3]~output_o $end
$var wire 1 ; S[4]~output_o $end
$var wire 1 < S[5]~output_o $end
$var wire 1 = S[6]~output_o $end
$var wire 1 > S[7]~output_o $end
$var wire 1 ? S[8]~output_o $end
$var wire 1 @ S[9]~output_o $end
$var wire 1 A C_out~output_o $end
$var wire 1 B Y[0]~input_o $end
$var wire 1 C X[0]~input_o $end
$var wire 1 D C_in~input_o $end
$var wire 1 E adder1|Add2~1_cout $end
$var wire 1 F adder1|Add2~2_combout $end
$var wire 1 G adder1|Add0~1_cout $end
$var wire 1 H adder1|Add0~2_combout $end
$var wire 1 I Mode~input_o $end
$var wire 1 J adder1|Add0~4_combout $end
$var wire 1 K Y[1]~input_o $end
$var wire 1 L X[1]~input_o $end
$var wire 1 M adder1|Add2~3 $end
$var wire 1 N adder1|Add2~4_combout $end
$var wire 1 O adder1|Add0~3 $end
$var wire 1 P adder1|Add0~5_combout $end
$var wire 1 Q adder1|Add0~7_combout $end
$var wire 1 R Y[2]~input_o $end
$var wire 1 S X[2]~input_o $end
$var wire 1 T adder1|Add2~5 $end
$var wire 1 U adder1|Add2~6_combout $end
$var wire 1 V adder1|Add0~6 $end
$var wire 1 W adder1|Add0~8_combout $end
$var wire 1 X adder1|Add0~10_combout $end
$var wire 1 Y Y[3]~input_o $end
$var wire 1 Z X[3]~input_o $end
$var wire 1 [ adder1|Add2~7 $end
$var wire 1 \ adder1|Add2~8_combout $end
$var wire 1 ] adder1|Add0~9 $end
$var wire 1 ^ adder1|Add0~11_combout $end
$var wire 1 _ adder1|Add0~13_combout $end
$var wire 1 ` Y[4]~input_o $end
$var wire 1 a X[4]~input_o $end
$var wire 1 b adder1|Add2~9 $end
$var wire 1 c adder1|Add2~10_combout $end
$var wire 1 d adder1|Add0~12 $end
$var wire 1 e adder1|Add0~14_combout $end
$var wire 1 f adder1|Add0~16_combout $end
$var wire 1 g adder2|Add2~1_cout $end
$var wire 1 h adder2|Add2~2_combout $end
$var wire 1 i adder2|Add0~1_cout $end
$var wire 1 j adder2|Add0~2_combout $end
$var wire 1 k adder2|Add0~4_combout $end
$var wire 1 l Y[5]~input_o $end
$var wire 1 m X[5]~input_o $end
$var wire 1 n adder2|Add2~3 $end
$var wire 1 o adder2|Add2~4_combout $end
$var wire 1 p adder2|Add0~3 $end
$var wire 1 q adder2|Add0~5_combout $end
$var wire 1 r adder2|Add0~7_combout $end
$var wire 1 s Y[6]~input_o $end
$var wire 1 t X[6]~input_o $end
$var wire 1 u adder2|Add2~5 $end
$var wire 1 v adder2|Add2~6_combout $end
$var wire 1 w adder2|Add0~6 $end
$var wire 1 x adder2|Add0~8_combout $end
$var wire 1 y adder2|Add0~10_combout $end
$var wire 1 z Y[7]~input_o $end
$var wire 1 { X[7]~input_o $end
$var wire 1 | adder2|Add2~7 $end
$var wire 1 } adder2|Add2~8_combout $end
$var wire 1 ~ adder2|Add0~9 $end
$var wire 1 !! adder2|Add0~11_combout $end
$var wire 1 "! adder2|Add0~13_combout $end
$var wire 1 #! Y[8]~input_o $end
$var wire 1 $! adder3|Add0~0_combout $end
$var wire 1 %! X[8]~input_o $end
$var wire 1 &! adder2|Add2~9 $end
$var wire 1 '! adder2|Add2~10_combout $end
$var wire 1 (! adder2|Add0~12 $end
$var wire 1 )! adder2|Add0~14_combout $end
$var wire 1 *! adder2|Add0~16_combout $end
$var wire 1 +! adder3|Add0~2_cout $end
$var wire 1 ,! adder3|Add0~3_combout $end
$var wire 1 -! Y[9]~input_o $end
$var wire 1 .! adder3|Add0~5_combout $end
$var wire 1 /! X[9]~input_o $end
$var wire 1 0! adder3|Add0~4 $end
$var wire 1 1! adder3|Add0~6_combout $end
$var wire 1 2! adder3|Add0~7 $end
$var wire 1 3! adder3|Add0~8_combout $end
$upscope $end
$upscope $end
$enddefinitions $end
#0
$dumpvars
0!
1"
b11100 #
b100010111 $
1%
1/
0.
1-
0,
0+
0*
0)
0(
1'
1&
x0
01
12
x3
14
15
16
17
08
19
0:
0;
0<
0=
0>
1?
1@
1A
1B
0C
0D
1E
1F
0G
1H
1I
1J
1K
0L
1M
0N
1O
1P
0Q
1R
1S
0T
1U
0V
0W
1X
0Y
1Z
1[
0\
0]
0^
0_
1`
1a
1b
0c
1d
1e
0f
1g
0h
0i
0j
0k
0l
0m
0n
0o
0p
1q
0r
0s
0t
1u
0v
0w
0x
0y
0z
0{
0|
0}
1~
0!!
0"!
1#!
0$!
0%!
1&!
1'!
0(!
0)!
1*!
1+!
1,!
0-!
1.!
0/!
10!
11!
02!
13!
$end
#5000
b10011100 #
b11011100 #
b11001100 #
b11000100 #
b11000110 #
b11000111 #
1C
1L
0Z
0a
1t
1{
00
0O
0H
0M
0F
1V
0P
1N
0d
1^
0b
1\
1p
1j
1n
1h
1x
1v
1!!
1}
1P
1T
0N
1W
0e
1c
0q
0u
1o
0J
1Q
1_
1k
1y
1"!
0[
0U
1f
0v
07
18
1:
1;
1=
1>
0/
1.
1,
1+
1)
1(
0Q
1r
1b
0\
1i
0g
08
1<
0.
1*
0X
0y
0c
0p
0j
0h
09
0=
0-
0)
0_
0f
1q
0:
0,
0k
0i
1g
0;
0+
1p
1j
1h
0q
1k
1;
1+
#10000
b1011000111 #
b1111000111 #
b1111000011 #
b110010111 $
b110000111 $
b110001111 $
b110001011 $
b1101000011 #
b1100000011 #
b1100010011 #
b1100011011 #
0R
1Y
0`
1z
0S
1Z
1a
0t
0{
1%!
1/!
10
1]
1d
0n
0&!
0x
1|
1v
00!
12!
0,!
01!
0^
1e
1u
0o
0'!
0}
0?
0@
0'
0&
1y
11!
03!
0|
0v
0*!
1=
1@
0A
1)
1&
0%
0r
0"!
1}
0+!
0<
0>
0*
0(
0y
10!
0=
0)
1"!
1,!
1>
1?
1(
1'
01!
0@
0&
#15000
b1100111011 #
b1100111001 #
b1100111000 #
b100111000 #
b110111000 #
b110101000 #
0C
0L
0a
1m
1{
0/!
00
1O
1H
1M
1F
0P
0T
1N
0j
0h
1q
1o
1(!
0!!
1&!
0}
02!
11!
0V
1P
0N
1[
1U
1)!
1'!
1@
1&
1J
1Q
0k
1r
0"!
13!
0W
0b
1\
1*!
17
18
0;
1<
0>
1A
1/
1.
0+
1*
0(
1%
0Q
1X
1c
1+!
08
19
0.
1-
1_
1f
00!
1:
1,
0,!
1i
0g
12!
0?
0'
01!
1j
1n
1h
0@
0&
03!
0o
0A
0%
1k
1;
1+
0r
0<
0*
#20000
b10001011 $
b10001001 $
b10001000 $
b1000 $
b0 $
b110101010 #
b110101011 #
b1110101011 #
b1100101011 #
1C
1L
0{
1/!
0B
0K
0Y
0z
0#!
10
0M
1T
0(!
0d
1^
1b
0\
1$!
11!
1N
0[
0U
0)!
0e
0c
1@
1&
0_
1,!
1\
0f
0:
1?
0,
1'
1Q
0X
0i
1g
18
09
1.
0-
1_
0j
0n
0h
1:
1,
1o
0k
0;
0+
1r
1<
1*
#25000
b1000101011 #
b1001101011 #
b1001100011 #
b1001000011 #
b1001010011 #
b1001010001 #
b1001010000 #
b1010000 #
b11010000 #
0C
0L
0Z
1a
0m
1t
1{
0%!
0/!
00
0H
0F
0P
0N
0^
0\
1j
1h
0q
0o
1x
1v
1!!
1}
0,!
01!
0?
0@
0'
0&
0J
0Q
0_
1k
0r
1y
1"!
07
08
0:
1;
0<
1=
1>
0/
0.
0,
1+
0*
1)
1(
#30000
b1000000000 $
b11010100 #
b1000010000 $
b1000010010 $
b11110100 #
b11100100 #
b11100110 #
b11100111 #
b1100111 #
1C
1L
1S
0a
1m
0{
1K
1`
1-!
10
1H
1F
1V
1W
1U
1n
1q
1o
0!!
0}
0.!
0]
0W
0o
02!
1J
1X
1r
0"!
11!
1^
17
19
1<
0>
1@
1/
1-
1*
0(
1&
0r
13!
0<
1A
0*
1%
#35000
b1101111 #
b1001101111 #
b1001101011 #
b1001001011 #
b1001001001 #
b1011001001 #
0L
0S
1Z
0m
1{
1/!
00
0V
1P
0T
1N
1]
1W
0U
1d
0^
1\
0q
0u
1o
1!!
1}
12!
01!
0W
1[
1U
0d
1^
1e
0v
0@
0&
1Q
0X
1_
1r
1"!
03!
0\
0e
18
09
1:
1<
1>
0A
1.
0-
1,
1*
1(
0%
1X
0y
19
0=
1-
0)
0_
0:
0,
#40000
b1000010011 $
b10011 $
b1011001000 #
b11001000 #
0C
0/!
1B
0-!
10
1M
02!
1.!
11!
0N
12!
1@
1&
13!
01!
1A
0@
1%
0&
0Q
03!
08
0A
0.
0%
#45000
b11011000 #
b11010000 #
b11010100 #
b11110100 #
b11110110 #
b11110111 #
b1011110111 #
1C
1L
1S
0Z
1a
1m
1/!
00
0O
0H
0M
0F
1V
0P
1N
1W
0[
0U
0^
0b
1\
0p
0j
0n
0h
1q
1u
0o
11!
1P
1T
0N
0]
0W
1b
0\
1c
1w
0q
1o
1v
1@
1&
0J
1Q
0X
1_
0k
0r
1U
1^
0c
1f
0~
0x
07
18
09
1:
0;
0<
0/
1.
0-
1,
0+
0*
0Q
0_
1r
1y
0f
1i
0g
1(!
0!!
08
0:
1<
1=
0.
0,
1*
1)
1X
0i
1g
1j
1n
1h
1)!
19
1-
0j
0n
0h
0o
1k
1o
1;
1+
0k
0r
0;
0<
0+
0*
1r
1<
1*
#50000
b110011 $
b110111 $
b100110111 $
b1010110111 #
b100100111 $
b100100101 $
b1000110111 #
b1000110011 #
0S
0t
0{
0K
1R
0`
1l
1#!
10
1[
1~
1x
0v
0(!
1!!
0}
0P
1N
1p
1j
1h
1q
0o
0$!
0b
1\
0!!
0)!
0q
10!
0y
0"!
1Q
1k
0r
1,!
1c
0=
0>
18
1;
0<
1?
0)
0(
1.
1+
0*
1'
1_
01!
1f
1:
0@
1,
0&
1i
0g
0p
0j
0h
1q
0k
0;
0+
#55000
b1000110010 #
b1001110010 #
b1011110010 #
b1011110110 #
0C
1S
1t
1{
00
1O
1H
1M
1F
1W
0[
0U
0~
0x
1v
1!!
1}
0V
1P
0N
1b
0\
1(!
0!!
1J
0X
1y
1"!
0W
0c
1)!
17
09
1=
1>
1/
0-
1)
1(
0Q
0_
0f
08
0:
0.
0,
0i
1g
1p
1j
1h
0q
1k
1;
1+
#60000
b100101101 $
b100101100 $
b1011111110 #
b11111110 #
b100001100 $
b1100 $
b11100 $
b11110 $
b11111111 #
b10111111 #
b111111 #
1C
1Z
0t
0{
0/!
0B
1K
1Y
1`
0l
0#!
10
0M
1d
1~
1x
0v
0(!
1!!
0}
02!
1V
0P
0T
1N
0p
0j
0h
0w
1q
1o
1$!
11!
1T
0N
1e
0!!
0)!
1W
1[
1U
1w
0q
0x
00!
1@
1&
0y
0"!
13!
1Q
0k
1r
0,!
0[
0U
0b
1\
1x
12!
0=
0>
1A
18
0;
1<
0?
0)
0(
1%
1.
0+
1*
0'
0Q
1X
01!
1b
0\
1c
08
19
0@
0.
1-
0&
0X
1_
03!
0c
1f
09
1:
0A
0-
1,
0%
0_
0f
1i
0g
0:
0,
0i
1g
1j
1n
1h
0j
0n
0h
0o
1k
1o
1;
1+
0k
0r
0;
0<
0+
0*
1r
1<
1*
#65000
b100111111 #
b100011111 #
b100011101 #
b100010101 #
b100010100 #
0C
0L
0Z
0m
1%!
00
0H
0F
0V
1P
0T
1N
0^
0b
1\
0w
1q
0o
1,!
0W
1[
1U
1c
0x
1?
1'
0J
1Q
1_
0r
0\
1f
07
18
1:
0<
0/
1.
1,
0*
1X
1i
0g
19
1-
0_
1j
1n
1h
0:
0,
0u
1o
1k
1|
1v
1;
1+
1r
0&!
1}
1<
1*
1y
0'!
1=
1)
1"!
0*!
1>
1(
0+!
0,!
0?
0'
#70000
b1000011110 $
b100000100 #
b1000011010 $
b100000000 #
b1100000000 #
b1000111010 $
b1000101010 $
b1110000000 #
b1010000000 #
b1010100000 #
b1010100001 #
1C
0S
0a
1m
1{
0%!
1/!
0R
0`
1l
1-!
10
1H
1F
1]
1p
1w
1!!
1&!
0}
10!
0.!
1,!
11!
0d
1^
0q
1x
1'!
02!
1?
1@
1'
1&
1J
0"!
0e
1*!
17
0>
1/
0(
13!
1+!
1A
1%
00!
0,!
12!
0?
0'
01!
0@
0&
03!
0A
0%
#75000
b1010100011 #
b1010100111 #
b10100111 #
b100111 #
b111 #
b110 #
0C
1L
1S
0m
0{
0/!
00
0H
0F
1V
0P
1T
0N
1W
0[
0U
0w
1q
0o
0!!
0&!
1}
02!
11!
0]
0W
1U
1\
0x
0'!
1@
1&
0J
0Q
0X
0r
1"!
13!
1d
0^
0*!
07
08
09
0<
1>
1A
0/
0.
0-
0*
1(
1%
1X
1_
1e
0+!
19
1:
1-
1,
10!
1,!
1?
1'
01!
0@
0&
#80000
b1000101011 $
b1000101001 $
b1000110 #
b1001110 #
b101001 $
b101101 $
b111101 $
b101001110 #
b1101001110 #
b1111001110 #
1Z
1t
1{
1%!
1/!
1B
0K
1R
1`
0-!
10
1^
1b
0\
1x
0|
0v
1!!
1&!
0}
00!
1H
1M
1F
0V
1P
1N
1W
0U
0p
0j
0h
1.!
0,!
11!
0c
1}
1'!
12!
0N
0W
1w
0q
0?
1@
0'
1&
0_
0y
0"!
1J
1Q
0X
0k
0f
1*!
0~
0x
0:
0=
0>
17
18
09
0;
0,
0)
0(
1/
1.
0-
0+
1"!
03!
0Q
0i
1g
1+!
1(!
0!!
1>
0A
08
1(
0%
0.
1p
1j
1h
1)!
1,!
0w
1q
1?
1'
1k
1~
1x
1;
1+
0(!
1!!
0)!
#85000
b1111011110 #
b1111011010 #
b1111011011 #
b1011011011 #
b11011011 #
1C
0S
1a
0%!
0/!
00
0O
0H
0M
0F
1]
1W
1[
1U
0p
0j
0n
0h
0,!
01!
1V
0P
1N
0^
0b
1\
1w
0q
1o
0?
0@
0'
0&
0J
1X
0k
0]
0W
1c
0~
0x
07
19
0;
0/
1-
0+
1Q
1_
1r
1^
1f
1(!
0!!
18
1:
1<
1.
1,
1*
1i
0g
1)!
1j
1n
1h
0o
1k
1;
1+
0r
0<
0*
#90000
b1111101 $
b101111101 $
b11111011 #
b101111100 $
b10111011 #
b1101111100 $
b111011 #
b111010 #
b100111010 #
b1100111010 #
0C
1m
0t
0{
1%!
1/!
0B
1s
1#!
1-!
10
1O
1q
1o
1|
0(!
1!!
0}
0$!
0.!
1,!
11!
0V
1P
0&!
1}
0)!
1?
1@
1'
1&
1r
0"!
0,!
01!
1]
1W
0'!
1<
0>
0?
0@
1*
0(
0'
0&
1"!
0^
0*!
1>
1(
0+!
10!
1,!
02!
1?
1'
11!
1@
1&
13!
1A
1%
#95000
b1100111110 #
b1101111110 #
b1101111111 #
b101111111 #
1C
1S
1t
0/!
00
1H
1F
0]
0W
0[
0U
1x
1v
01!
1^
1b
0\
0@
0&
1J
0X
1y
0c
17
09
1=
1/
0-
1)
0_
0f
0:
0,
0i
1g
0j
0n
0h
1u
0o
0k
0|
0v
0;
0+
0r
1&!
0}
0<
0*
0y
1'!
0=
0)
0"!
1*!
0>
0(
1+!
00!
0,!
0?
0'
11!
1@
1&
#100000
b101110111 #
b1101111000 $
b1100111000 $
b100111000 $
b101110011 #
b1101110011 #
0R
0s
0-!
0S
0Z
1/!
10
1]
0x
1v
1.!
0^
0b
1\
12!
01!
0d
1^
1c
0@
0&
1y
11!
1_
03!
0e
1f
1=
1@
1:
0A
1)
1&
1,
0%
1i
0g
1j
1n
1h
0u
1o
1k
0v
1;
1+
1r
1<
1*
0y
0=
0)
#105000
b1101110001 #
b1101100001 #
b1101000001 #
b1111000001 #
b1110000001 #
b1110000000 #
b110000000 #
0C
0L
0a
0m
0t
1{
0/!
00
0H
0F
0P
0N
0j
0h
0q
0o
1~
1x
1|
1v
1(!
0!!
1}
01!
0(!
1!!
0}
1)!
0@
0&
0J
0Q
0k
0r
1y
1"!
0)!
07
08
0;
0<
1=
1>
0/
0.
0+
0*
1)
1(
0"!
0>
0(
#110000
b100110000 $
b100010000 $
b100010010 $
b10000000 #
b10001000 #
b100010110 $
b101010110 $
b1101010110 $
b10001100 #
b10001110 #
b10011110 #
b10111110 #
b111110 #
1L
1S
1Z
1a
1m
0{
0%!
1K
1R
0Y
0l
1s
1-!
10
1V
0]
1b
1j
1h
1u
0!!
0&!
1}
10!
0~
0x
0v
0.!
1,!
1W
1d
0^
0c
1v
0'!
02!
1!!
1?
1'
1k
1"!
0y
1e
0f
0*!
1;
1>
0=
1+
1(
0)
1y
13!
0i
1g
0+!
1=
1A
1)
1%
0j
0n
0h
0,!
1o
0?
0'
0k
0;
0+
1r
1<
1*
#115000
b111111 #
b1000111111 #
b1100111111 #
b1100111011 #
b1100111001 #
b1100011001 #
1C
0L
0S
0m
1%!
1/!
00
1H
1F
0V
1P
0T
1N
0W
1[
1U
0w
1q
0o
1,!
11!
1]
1W
0U
0\
1~
1x
1?
1@
1'
1&
1J
1Q
1X
0r
0d
1^
0!!
17
18
19
0<
1/
1.
1-
0*
0X
0_
0e
09
0:
0-
0,
#120000
b1111010110 $
b1011010110 $
b1011010111 $
b1101011001 #
b1011110111 $
b1011110101 $
b11110101 $
b1101001001 #
b1101001000 #
b101001000 #
b101001100 #
b101001110 #
b101101110 #
0C
1L
1S
0a
1m
1t
0/!
1B
0K
1l
1z
0#!
0-!
10
1M
1T
0]
0W
1U
1p
1j
1n
1h
1w
0~
0x
0|
0v
1!!
0}
1$!
1.!
01!
0N
0[
0U
1d
0^
0q
0u
1o
1x
1(!
0!!
1}
00!
0@
0&
1X
1k
0y
0"!
0,!
11!
1\
1e
1|
1v
1)!
12!
19
1;
0=
0>
0?
1@
1-
1+
0)
0(
0'
1&
0Q
0X
1r
1"!
01!
0}
08
09
1<
1>
0@
0.
0-
1*
1(
0&
1_
1y
03!
1:
1=
0A
1,
1)
0%
0"!
0>
0(
#125000
b1101101110 #
b1101001110 #
0m
1/!
00
0w
1q
0o
11!
0x
1@
1&
0r
0<
0*
#130000
b1101000110 #
b1111000110 #
b111110101 $
b1110000110 #
b1111110101 $
b1110000111 #
b1110000011 #
b1110000001 #
b1110100001 #
1#!
1-!
1C
0L
0S
0Z
1m
0t
1{
10
0$!
0.!
0O
0H
0M
0F
0P
0T
1N
1]
1W
1[
1U
0d
1^
0\
1w
0q
1o
1~
1x
0v
1!!
1}
10!
1P
1T
0N
0U
0^
0b
1\
0e
0~
0x
0!!
1,!
01!
0J
1Q
1X
0_
1r
0y
1"!
02!
1U
1c
1!!
1?
0@
07
18
19
0:
1<
0=
1>
1'
0&
0/
1.
1-
0,
1*
0)
1(
11!
0Q
0X
1_
1f
1@
08
09
1:
1&
0.
0-
1,
13!
1X
1i
0g
1A
19
1%
1-
0p
0j
0h
1q
0k
0;
0+
#135000
b1010100001 #
b1010110001 #
b1011110001 #
b1011110000 #
b1011110100 #
0C
1S
1a
1t
0%!
00
1O
1H
1M
1F
0]
0W
0[
0U
1j
1h
1x
1v
0,!
0P
0T
1N
1^
1b
0\
0?
0'
1J
0X
1k
1y
1[
1U
0c
17
09
1;
1=
1/
0-
1+
1)
1Q
0_
0b
1\
0f
18
0:
1.
0,
1X
1c
0i
1g
19
1-
1_
1f
0j
0n
0h
1:
1,
1i
0g
1u
0o
0k
1j
1n
1h
0|
0v
0;
0+
0r
0u
1o
1&!
0}
0<
0*
1k
0y
1|
1v
1'!
1;
0=
1+
0)
1r
0"!
0&!
1}
1*!
1<
0>
1*
0(
1y
0'!
1+!
1=
1)
1"!
0*!
1>
1(
1,!
0+!
1?
1'
0,!
0?
0'
#140000
b1111100101 $
b1111101101 $
b1111101001 $
b1101101001 $
b1101101011 $
b1001110100 #
b1001100100 #
b1001100101 #
b1001100001 #
1C
0S
0a
0{
1K
0R
1Y
0`
0z
10
0O
0H
0M
0F
1]
1p
0(!
1P
0N
1d
0^
0\
1V
0P
1N
0d
1^
0q
0)!
1e
0J
0Q
0_
1W
0e
07
08
0:
0/
0.
0,
1Q
18
1.
#145000
b1001101001 #
b1001101011 #
b1001001011 #
b1001001010 #
0C
1L
1Z
0m
00
1O
1H
1M
1F
1P
1T
0N
1d
0^
1\
0w
1q
0o
0P
0T
1N
0[
0U
1e
0x
1J
0Q
1_
0r
1[
1U
1b
0\
17
08
1:
0<
1/
0.
1,
0*
1Q
0X
0b
1\
0c
18
09
1.
0-
1X
0_
1c
0f
19
0:
1-
0,
1_
1f
0i
1g
1:
1,
1i
0g
0j
0n
0h
1j
1n
1h
1o
0k
0o
0;
0+
1k
1r
1;
1<
1+
1*
0r
0<
0*
#150000
b1101101010 $
b1101001010 $
b1000001010 #
b1101001000 $
b1010001010 #
b1010000010 #
b1010000000 #
b1010000001 #
1C
0L
0Z
0t
1{
0B
0K
0l
10
0M
0V
0d
1^
0\
1~
1x
0v
1(!
0!!
1&!
0}
0q
1o
1T
0N
0W
0e
0(!
1!!
1)!
1'!
0_
0y
0"!
1r
0[
0U
0)!
1*!
0:
0=
0>
1<
0,
0)
0(
1*
0Q
1\
1+!
08
0.
0X
09
0-
1_
1,!
1:
1?
1,
1'
#155000
b10000001 #
b10010001 #
b10010101 #
b11010101 #
b1010101 #
b1010100 #
0C
1S
1a
1t
0{
0/!
00
0H
0F
1W
1U
0p
0j
0n
0h
0~
0x
1v
0!!
0&!
1}
01!
1q
1u
0o
1!!
0'!
0@
0&
0J
1X
0k
1y
1"!
0|
0v
0*!
07
19
0;
1=
1>
0/
1-
0+
1)
1(
0r
1&!
0}
0+!
0<
0*
0y
1'!
0=
0)
0"!
0,!
1*!
0>
0?
0(
0'
1+!
1,!
1?
1'
#160000
b1100001000 $
b1100000000 $
b1100000100 $
b1110000100 $
b1110000101 $
b1110100101 $
b1011100 #
b1011110 #
b1001110 #
b1001010 #
b1010 #
b10001010 #
1L
0S
1Z
0a
0t
1{
1B
1R
0Y
1l
0s
1z
10
1P
1N
1[
1b
1p
1j
1n
1h
1~
1(!
1H
1M
1F
1w
0q
0u
1o
0\
0c
0w
1q
0o
0!!
1)!
0N
1x
1|
1v
1Q
1k
1J
1r
0f
0x
0&!
1}
18
1;
17
1<
1.
1+
1/
1*
0_
0r
0Q
1y
0i
1g
0'!
0:
0<
08
1=
0,
0*
0.
1)
1"!
0j
0n
0h
0*!
1>
1(
1o
0+!
0k
0;
0+
1r
0,!
1<
0?
1*
0'
#165000
b10101010 #
b1010101010 #
b1010101000 #
b1010101100 #
0L
1S
1m
1/!
00
0P
0T
1N
0]
0W
0[
0U
1w
0q
1u
0o
11!
1[
1U
1d
0^
1\
1x
0|
0v
1@
1&
1Q
0X
0r
0\
1e
1&!
0}
18
09
0<
1.
0-
0*
1X
1_
0y
1'!
19
1:
0=
1-
1,
0)
0_
0"!
1*!
0:
0>
0,
0(
1+!
1,!
1?
1'
#170000
b110100101 $
b110110101 $
b1010101101 #
b111110101 $
b111111101 $
b111111001 $
b101111001 $
b1010100101 #
b1011100101 #
b1001100101 #
b1001000101 #
b1001000111 #
b1001000011 #
1C
1L
0S
0Z
0m
1t
0{
0R
1Y
1`
1s
0z
0-!
10
0O
0H
0M
0F
1P
1T
0N
1]
0b
0w
1q
0u
1o
0~
0(!
1j
1n
1h
1.!
1V
0P
1N
0[
0U
0d
1^
1c
0x
1|
1v
1!!
0)!
0o
12!
0J
0Q
1r
1k
01!
1W
1\
0e
1f
0&!
1}
07
08
1<
1;
0@
0/
0.
1*
1+
0&
1Q
0X
1y
0r
03!
1i
0g
0'!
18
09
1=
0<
0A
1.
0-
1)
0*
0%
1_
1"!
0p
0j
0h
0*!
1:
1>
1,
1(
1w
0q
0+!
0k
1x
0;
0+
0,!
0?
0'
#175000
b1101000011 #
b1101000001 #
0L
1%!
00
0V
1P
0N
1,!
0W
1?
1'
0Q
08
0.
#180000
b1111001 $
b1111011 $
b1111010 $
b1011010 $
b101000001 #
b1001011010 $
b1000011010 $
b1000010010 $
b100000001 #
b1 #
b11 #
1L
0t
0%!
0/!
0B
1K
0Y
0l
0s
0#!
1-!
10
1V
1~
02!
1O
1H
1F
0^
1b
0\
0w
1q
1o
1$!
0.!
0,!
11!
1W
0!!
0P
0c
0x
0?
1@
0'
1&
13!
1J
0_
1r
1,!
01!
0f
1A
17
0:
1<
1?
0@
1%
1/
0,
1*
1'
0&
0i
1g
1p
1j
1h
0q
1k
1;
1+
#185000
b10011 #
b11011 #
b10011011 #
1Z
1a
1{
00
1^
1\
0p
0j
0n
0h
1!!
1&!
0}
1q
1u
0o
1'!
1_
0k
0"!
0|
0v
1*!
1:
0;
0>
1,
0+
0(
0r
1}
1+!
0<
0*
0y
00!
0=
0)
1"!
0,!
1>
0?
1(
0'
11!
1@
1&
#190000
b10011010 #
b1000010110 $
b1010010110 $
b10111010 #
b10111110 #
b1110010110 $
b1110010111 $
b1110110111 $
b1111110111 $
b10111100 #
b10110100 #
b110100 #
1B
1R
1l
1s
1z
1#!
0C
0L
1S
0Z
1m
0{
10
1M
0]
1w
1x
1|
1v
0&!
0$!
0V
1P
0T
1N
0^
0\
0N
1^
0~
0x
0}
0'!
10!
0W
1[
1U
1y
1,!
1Q
0_
1(!
0!!
0*!
0b
1\
1=
1?
18
0:
1)
1'
1.
0,
0Q
0"!
01!
1X
1)!
0+!
1c
08
0>
0@
19
0.
0(
0&
1-
1_
1f
1:
1,
0,!
1i
0g
0?
0'
1j
1n
1h
0u
1o
1k
0v
1;
1+
1r
1<
1*
0y
0=
0)
#195000
b1000110100 #
b1001110100 #
b1101110100 #
b1101100100 #
b1101100110 #
b1111100110 #
1L
0a
1t
1{
1%!
1/!
00
1V
0P
1N
0j
0h
1x
1v
1!!
1}
1,!
11!
1W
1?
1@
1'
1&
1Q
0k
1y
1"!
18
0;
1=
1>
1.
0+
1)
1(
#200000
b1111110101 $
b111110101 $
b1111100111 #
b101110101 $
b1111000111 #
b101010101 $
b111000111 #
b111000101 #
1C
0L
0m
0/!
0K
0l
0z
0-!
10
0O
0H
0M
0F
0V
0w
0!!
1&!
0}
1.!
01!
1P
1T
0N
0W
0x
1'!
0@
0&
0J
0"!
11!
0[
0U
1*!
07
0>
1@
0/
0(
1&
0Q
1b
0\
1+!
08
0.
0X
0c
00!
09
0-
0_
0,!
0f
12!
0:
0?
0,
0'
01!
0i
1g
0@
0&
03!
1p
1j
1h
0A
0%
0q
1k
1;
1+
#205000
b110000101 #
b110010101 #
b100010101 #
b100110101 #
b1100110101 #
1a
1m
0t
0{
1/!
00
0p
0j
0n
0h
1q
1u
0o
1~
1x
0v
0(!
1!!
0&!
1}
11!
1w
0q
1o
1v
0!!
0)!
0'!
1@
1&
0k
0r
0y
1"!
0~
0x
0*!
0;
0<
0=
1>
0+
0*
0)
1(
1r
1y
1!!
0+!
1<
1=
1*
1)
10!
1,!
1?
1'
01!
0@
0&
#210000
b101011101 $
b1011101 $
b1011100 $
b1100111101 #
b1111100 $
1Z
0B
1Y
1l
0#!
10
1d
1O
1H
1F
1q
0o
1$!
1e
0P
00!
1J
0r
0,!
17
0<
0?
1/
0*
0'
11!
1@
1&
#215000
b1101111101 #
b1101101101 #
b1111101101 #
b1111001101 #
b111001101 #
b111000101 #
0Z
0a
0m
1t
1{
0/!
00
0^
0b
1\
1p
1j
1n
1h
0q
0u
1o
1x
0|
0v
1(!
0!!
1&!
0}
01!
1c
0w
1q
0o
1|
1v
1}
1)!
1'!
0@
0&
1_
1k
1r
0y
0"!
1f
0x
0}
1*!
1:
1;
1<
0=
0>
1,
1+
1*
0)
0(
0r
1y
1"!
1i
0g
1+!
0<
1=
1>
0*
1)
1(
0"!
0p
0j
0h
0>
0(
1,!
1w
0q
1?
1'
0k
1x
0;
0+
#220000
b111100 $
b111110 $
b1000111110 $
b111000100 #
b1010111110 $
b1010110110 $
b1110110110 $
b111010100 #
b101010100 #
b101011100 #
0C
1Z
1a
0{
1K
0Y
0s
1z
1#!
1-!
10
0H
0F
1b
1j
1h
0&!
1P
0T
1N
0x
0|
0v
0$!
0.!
0c
0'!
1[
1U
1}
02!
0J
1k
1Q
0y
0,!
11!
0f
0*!
0\
07
1;
18
0=
0?
1@
0/
1+
1.
0)
0'
1&
1X
1"!
13!
0i
1g
0+!
19
1>
1A
1-
1(
1%
0_
0j
0n
0h
10!
0:
0,
1,!
1o
1?
1'
0k
01!
0;
0@
0+
0&
1r
1<
1*
#225000
b101011000 #
b101011010 #
b101011011 #
b111011011 #
1C
1L
0S
1{
00
1H
1F
1V
0P
1T
0N
1]
1W
0U
1!!
1&!
0}
0]
0W
1U
0d
1^
1'!
1J
0Q
0X
0"!
1d
0^
0e
1*!
17
08
09
0>
1/
0.
0-
0(
1X
1e
1+!
19
1-
00!
0,!
0?
0'
11!
1@
1&
