breathing_light_5sec/simulation/qsim/breathing_light_5sec.msim.vcd
$comment
	File created using the following command:
		vcd file breathing_light_5sec.msim.vcd -direction
$end
$date
	Sat Dec 04 20:06:45 2021
$end
$version
	ModelSim Version 10.1d
$end
$timescale
	1ps
$end
$scope module breathing_light_5sec_vlg_vec_tst $end
$var reg 1 ! clk $end
$var reg 1 " reset $end
$var wire 1 # clk_102Hz $end
$var wire 1 $ div_490196_counter [18] $end
$var wire 1 % div_490196_counter [17] $end
$var wire 1 & div_490196_counter [16] $end
$var wire 1 ' div_490196_counter [15] $end
$var wire 1 ( div_490196_counter [14] $end
$var wire 1 ) div_490196_counter [13] $end
$var wire 1 * div_490196_counter [12] $end
$var wire 1 + div_490196_counter [11] $end
$var wire 1 , div_490196_counter [10] $end
$var wire 1 - div_490196_counter [9] $end
$var wire 1 . div_490196_counter [8] $end
$var wire 1 / div_490196_counter [7] $end
$var wire 1 0 div_490196_counter [6] $end
$var wire 1 1 div_490196_counter [5] $end
$var wire 1 2 div_490196_counter [4] $end
$var wire 1 3 div_490196_counter [3] $end
$var wire 1 4 div_490196_counter [2] $end
$var wire 1 5 div_490196_counter [1] $end
$var wire 1 6 div_490196_counter [0] $end
$var wire 1 7 led_counter [8] $end
$var wire 1 8 led_counter [7] $end
$var wire 1 9 led_counter [6] $end
$var wire 1 : led_counter [5] $end
$var wire 1 ; led_counter [4] $end
$var wire 1 < led_counter [3] $end
$var wire 1 = led_counter [2] $end
$var wire 1 > led_counter [1] $end
$var wire 1 ? led_counter [0] $end
$var wire 1 @ light_out $end
$var wire 1 A pwm_counter [7] $end
$var wire 1 B pwm_counter [6] $end
$var wire 1 C pwm_counter [5] $end
$var wire 1 D pwm_counter [4] $end
$var wire 1 E pwm_counter [3] $end
$var wire 1 F pwm_counter [2] $end
$var wire 1 G pwm_counter [1] $end
$var wire 1 H pwm_counter [0] $end
$var wire 1 I pwm_num [7] $end
$var wire 1 J pwm_num [6] $end
$var wire 1 K pwm_num [5] $end
$var wire 1 L pwm_num [4] $end
$var wire 1 M pwm_num [3] $end
$var wire 1 N pwm_num [2] $end
$var wire 1 O pwm_num [1] $end
$var wire 1 P pwm_num [0] $end
$var wire 1 Q sampler $end
$scope module i1 $end
$var wire 1 R gnd $end
$var wire 1 S vcc $end
$var wire 1 T unknown $end
$var tri1 1 U devclrn $end
$var tri1 1 V devpor $end
$var tri1 1 W devoe $end
$var wire 1 X light_out~output_o $end
$var wire 1 Y clk_102Hz~output_o $end
$var wire 1 Z div_490196_counter[0]~output_o $end
$var wire 1 [ div_490196_counter[1]~output_o $end
$var wire 1 \ div_490196_counter[2]~output_o $end
$var wire 1 ] div_490196_counter[3]~output_o $end
$var wire 1 ^ div_490196_counter[4]~output_o $end
$var wire 1 _ div_490196_counter[5]~output_o $end
$var wire 1 ` div_490196_counter[6]~output_o $end
$var wire 1 a div_490196_counter[7]~output_o $end
$var wire 1 b div_490196_counter[8]~output_o $end
$var wire 1 c div_490196_counter[9]~output_o $end
$var wire 1 d div_490196_counter[10]~output_o $end
$var wire 1 e div_490196_counter[11]~output_o $end
$var wire 1 f div_490196_counter[12]~output_o $end
$var wire 1 g div_490196_counter[13]~output_o $end
$var wire 1 h div_490196_counter[14]~output_o $end
$var wire 1 i div_490196_counter[15]~output_o $end
$var wire 1 j div_490196_counter[16]~output_o $end
$var wire 1 k div_490196_counter[17]~output_o $end
$var wire 1 l div_490196_counter[18]~output_o $end
$var wire 1 m pwm_num[0]~output_o $end
$var wire 1 n pwm_num[1]~output_o $end
$var wire 1 o pwm_num[2]~output_o $end
$var wire 1 p pwm_num[3]~output_o $end
$var wire 1 q pwm_num[4]~output_o $end
$var wire 1 r pwm_num[5]~output_o $end
$var wire 1 s pwm_num[6]~output_o $end
$var wire 1 t pwm_num[7]~output_o $end
$var wire 1 u pwm_counter[0]~output_o $end
$var wire 1 v pwm_counter[1]~output_o $end
$var wire 1 w pwm_counter[2]~output_o $end
$var wire 1 x pwm_counter[3]~output_o $end
$var wire 1 y pwm_counter[4]~output_o $end
$var wire 1 z pwm_counter[5]~output_o $end
$var wire 1 { pwm_counter[6]~output_o $end
$var wire 1 | pwm_counter[7]~output_o $end
$var wire 1 } led_counter[0]~output_o $end
$var wire 1 ~ led_counter[1]~output_o $end
$var wire 1 !! led_counter[2]~output_o $end
$var wire 1 "! led_counter[3]~output_o $end
$var wire 1 #! led_counter[4]~output_o $end
$var wire 1 $! led_counter[5]~output_o $end
$var wire 1 %! led_counter[6]~output_o $end
$var wire 1 &! led_counter[7]~output_o $end
$var wire 1 '! led_counter[8]~output_o $end
$var wire 1 (! clk~input_o $end
$var wire 1 )! Add2~0_combout $end
$var wire 1 *! reset~input_o $end
$var wire 1 +! div_490196_counter[0]~reg0_q $end
$var wire 1 ,! Add2~1 $end
$var wire 1 -! Add2~2_combout $end
$var wire 1 .! Equal0~5_combout $end
$var wire 1 /! div_490196_counter~0_combout $end
$var wire 1 0! div_490196_counter[1]~reg0_q $end
$var wire 1 1! Add2~3 $end
$var wire 1 2! Add2~4_combout $end
$var wire 1 3! div_490196_counter[2]~reg0_q $end
$var wire 1 4! Add2~5 $end
$var wire 1 5! Add2~6_combout $end
$var wire 1 6! div_490196_counter~1_combout $end
$var wire 1 7! div_490196_counter[3]~reg0_q $end
$var wire 1 8! Add2~7 $end
$var wire 1 9! Add2~8_combout $end
$var wire 1 :! div_490196_counter[4]~reg0_q $end
$var wire 1 ;! Add2~9 $end
$var wire 1 <! Add2~10_combout $end
$var wire 1 =! div_490196_counter[5]~reg0_q $end
$var wire 1 >! Add2~11 $end
$var wire 1 ?! Add2~12_combout $end
$var wire 1 @! div_490196_counter[6]~reg0_q $end
$var wire 1 A! Add2~13 $end
$var wire 1 B! Add2~14_combout $end
$var wire 1 C! div_490196_counter[7]~reg0_q $end
$var wire 1 D! Add2~15 $end
$var wire 1 E! Add2~16_combout $end
$var wire 1 F! div_490196_counter[8]~reg0_q $end
$var wire 1 G! Add2~17 $end
$var wire 1 H! Add2~18_combout $end
$var wire 1 I! div_490196_counter[9]~reg0_q $end
$var wire 1 J! Add2~19 $end
$var wire 1 K! Add2~20_combout $end
$var wire 1 L! div_490196_counter[10]~reg0_q $end
$var wire 1 M! Add2~21 $end
$var wire 1 N! Add2~22_combout $end
$var wire 1 O! div_490196_counter[11]~reg0_q $end
$var wire 1 P! Add2~23 $end
$var wire 1 Q! Add2~24_combout $end
$var wire 1 R! div_490196_counter[12]~reg0_q $end
$var wire 1 S! Add2~25 $end
$var wire 1 T! Add2~26_combout $end
$var wire 1 U! div_490196_counter[13]~reg0_q $end
$var wire 1 V! Add2~27 $end
$var wire 1 W! Add2~28_combout $end
$var wire 1 X! div_490196_counter[14]~reg0_q $end
$var wire 1 Y! Add2~29 $end
$var wire 1 Z! Add2~30_combout $end
$var wire 1 [! div_490196_counter[15]~reg0_q $end
$var wire 1 \! Add2~31 $end
$var wire 1 ]! Add2~32_combout $end
$var wire 1 ^! div_490196_counter[16]~reg0_q $end
$var wire 1 _! Add2~33 $end
$var wire 1 `! Add2~34_combout $end
$var wire 1 a! div_490196_counter[17]~reg0_q $end
$var wire 1 b! Add2~35 $end
$var wire 1 c! Add2~36_combout $end
$var wire 1 d! div_490196_counter[18]~reg0_q $end
$var wire 1 e! Equal0~0_combout $end
$var wire 1 f! Equal0~1_combout $end
$var wire 1 g! Equal0~2_combout $end
$var wire 1 h! Equal0~3_combout $end
$var wire 1 i! Equal0~4_combout $end
$var wire 1 j! LessThan2~0_combout $end
$var wire 1 k! rtl~0_combout $end
$var wire 1 l! pwm_num[0]~8_combout $end
$var wire 1 m! pwm_num[0]~reg0_q $end
$var wire 1 n! led_counter[1]~8_combout $end
$var wire 1 o! led_counter[1]~9 $end
$var wire 1 p! led_counter[2]~10_combout $end
$var wire 1 q! led_counter[2]~reg0_q $end
$var wire 1 r! led_counter[2]~11 $end
$var wire 1 s! led_counter[3]~12_combout $end
$var wire 1 t! led_counter[3]~reg0_q $end
$var wire 1 u! led_counter[3]~13 $end
$var wire 1 v! led_counter[4]~14_combout $end
$var wire 1 w! led_counter[4]~reg0_q $end
$var wire 1 x! led_counter[4]~15 $end
$var wire 1 y! led_counter[5]~16_combout $end
$var wire 1 z! led_counter[5]~reg0_q $end
$var wire 1 {! led_counter[5]~17 $end
$var wire 1 |! led_counter[6]~18_combout $end
$var wire 1 }! led_counter[6]~reg0_q $end
$var wire 1 ~! led_counter[6]~19 $end
$var wire 1 !" led_counter[7]~20_combout $end
$var wire 1 "" led_counter[7]~reg0_q $end
$var wire 1 #" led_counter[7]~21 $end
$var wire 1 $" led_counter[8]~22_combout $end
$var wire 1 %" led_counter[8]~reg0_q $end
$var wire 1 &" Equal1~0_combout $end
$var wire 1 '" Equal1~1_combout $end
$var wire 1 (" Equal1~2_combout $end
$var wire 1 )" led_counter[1]~reg0_q $end
$var wire 1 *" LessThan3~0_combout $end
$var wire 1 +" pwm_num[0]~9 $end
$var wire 1 ," pwm_num[1]~10_combout $end
$var wire 1 -" pwm_num[1]~reg0_q $end
$var wire 1 ." pwm_num[1]~11 $end
$var wire 1 /" pwm_num[2]~12_combout $end
$var wire 1 0" pwm_num[2]~reg0_q $end
$var wire 1 1" pwm_num[2]~13 $end
$var wire 1 2" pwm_num[3]~14_combout $end
$var wire 1 3" pwm_num[3]~reg0_q $end
$var wire 1 4" pwm_num[3]~15 $end
$var wire 1 5" pwm_num[4]~16_combout $end
$var wire 1 6" pwm_num[4]~reg0_q $end
$var wire 1 7" pwm_num[4]~17 $end
$var wire 1 8" pwm_num[5]~18_combout $end
$var wire 1 9" pwm_num[5]~reg0_q $end
$var wire 1 :" pwm_num[5]~19 $end
$var wire 1 ;" pwm_num[6]~20_combout $end
$var wire 1 <" pwm_num[6]~reg0_q $end
$var wire 1 =" pwm_num[6]~21 $end
$var wire 1 >" pwm_num[7]~22_combout $end
$var wire 1 ?" pwm_num[7]~reg0_q $end
$var wire 1 @" pwm_div_counter[0]~6_combout $end
$var wire 1 A" pwm_div_counter[0]~7 $end
$var wire 1 B" pwm_div_counter[1]~8_combout $end
$var wire 1 C" pwm_div_counter[1]~9 $end
$var wire 1 D" pwm_div_counter[2]~10_combout $end
$var wire 1 E" pwm_div_counter[2]~11 $end
$var wire 1 F" pwm_div_counter[3]~12_combout $end
$var wire 1 G" pwm_div_counter[3]~13 $end
$var wire 1 H" pwm_div_counter[4]~14_combout $end
$var wire 1 I" pwm_div_counter[4]~15 $end
$var wire 1 J" pwm_div_counter[5]~16_combout $end
$var wire 1 K" LessThan0~0_combout $end
$var wire 1 L" LessThan1~0_combout $end
$var wire 1 M" rtl~1_combout $end
$var wire 1 N" pwm_counter[0]~21_combout $end
$var wire 1 O" pwm_counter[0]~reg0_q $end
$var wire 1 P" pwm_counter[1]~7_combout $end
$var wire 1 Q" pwm_counter[1]~reg0_q $end
$var wire 1 R" pwm_counter[1]~8 $end
$var wire 1 S" pwm_counter[2]~9_combout $end
$var wire 1 T" pwm_counter[2]~reg0_q $end
$var wire 1 U" pwm_counter[2]~10 $end
$var wire 1 V" pwm_counter[3]~11_combout $end
$var wire 1 W" pwm_counter[3]~reg0_q $end
$var wire 1 X" pwm_counter[3]~12 $end
$var wire 1 Y" pwm_counter[4]~13_combout $end
$var wire 1 Z" pwm_counter[4]~reg0_q $end
$var wire 1 [" pwm_counter[4]~14 $end
$var wire 1 \" pwm_counter[5]~15_combout $end
$var wire 1 ]" pwm_counter[5]~reg0_q $end
$var wire 1 ^" pwm_counter[5]~16 $end
$var wire 1 _" pwm_counter[6]~17_combout $end
$var wire 1 `" pwm_counter[6]~reg0_q $end
$var wire 1 a" pwm_counter[6]~18 $end
$var wire 1 b" pwm_counter[7]~19_combout $end
$var wire 1 c" pwm_counter[7]~reg0_q $end
$var wire 1 d" LessThan4~1_cout $end
$var wire 1 e" LessThan4~3_cout $end
$var wire 1 f" LessThan4~5_cout $end
$var wire 1 g" LessThan4~7_cout $end
$var wire 1 h" LessThan4~9_cout $end
$var wire 1 i" LessThan4~11_cout $end
$var wire 1 j" LessThan4~13_cout $end
$var wire 1 k" LessThan4~14_combout $end
$var wire 1 l" pwm_div_counter [5] $end
$var wire 1 m" pwm_div_counter [4] $end
$var wire 1 n" pwm_div_counter [3] $end
$var wire 1 o" pwm_div_counter [2] $end
$var wire 1 p" pwm_div_counter [1] $end
$var wire 1 q" pwm_div_counter [0] $end
$upscope $end
$upscope $end
$enddefinitions $end
#0
$dumpvars
0!
0"
1#
06
05
04
03
02
01
00
0/
0.
0-
0,
0+
0*
0)
0(
0'
0&
0%
0$
0?
0>
0=
0<
0;
0:
09
08
07
1@
0H
0G
0F
0E
0D
0C
0B
0A
0P
0O
0N
0M
0L
0K
0J
0I
xQ
0R
1S
xT
1U
1V
1W
1X
1Y
0Z
0[
0\
0]
0^
0_
0`
0a
0b
0c
0d
0e
0f
0g
0h
0i
0j
0k
0l
0m
0n
0o
0p
0q
0r
0s
0t
0u
0v
0w
0x
0y
0z
0{
0|
0}
0~
0!!
0"!
0#!
0$!
0%!
0&!
0'!
0(!
1)!
0*!
0+!
0,!
0-!
0.!
0/!
00!
11!
02!
03!
04!
05!
06!
07!
18!
09!
0:!
0;!
0<!
0=!
1>!
0?!
0@!
0A!
0B!
0C!
1D!
0E!
0F!
0G!
0H!
0I!
1J!
0K!
0L!
0M!
0N!
0O!
1P!
0Q!
0R!
0S!
0T!
0U!
1V!
0W!
0X!
0Y!
0Z!
0[!
1\!
0]!
0^!
0_!
0`!
0a!
1b!
0c!
0d!
1e!
1f!
1g!
1h!
1i!
1j!
1k!
1l!
0m!
0n!
0o!
0p!
0q!
1r!
0s!
0t!
0u!
0v!
0w!
1x!
0y!
0z!
0{!
0|!
0}!
1~!
0!"
0""
0#"
0$"
0%"
0&"
0'"
0("
0)"
1*"
0+"
0,"
0-"
1."
0/"
00"
01"
02"
03"
14"
05"
06"
07"
08"
09"
1:"
0;"
0<"
0="
0>"
0?"
1@"
0A"
0B"
1C"
0D"
0E"
0F"
1G"
0H"
0I"
0J"
0K"
1L"
1M"
1N"
0O"
0P"
0Q"
0R"
0S"
0T"
1U"
0V"
0W"
0X"
0Y"
0Z"
1["
0\"
0]"
0^"
0_"
0`"
1a"
0b"
0c"
0d"
1e"
0f"
1g"
0h"
1i"
0j"
0k"
0q"
0p"
0o"
0n"
0m"
0l"
$end
#5000
1!
1(!
0Q
#10000
0!
0(!
1Q
#15000
1!
1(!
0Q
#20000
1"
0!
1*!
0(!
1Q
#25000
1!
1(!
0Q
1q"
1+!
0L"
1A"
0@"
1,!
0)!
1Z
16
1B"
1-!
1/!
#30000
0!
0(!
1Q
#35000
1!
1(!
0Q
0q"
1p"
10!
0+!
0A"
1@"
0C"
0B"
01!
0-!
0,!
1)!
1[
0Z
15
06
1C"
1B"
1D"
12!
0/!
11!
1-!
0D"
02!
1/!
#40000
0!
0(!
1Q
#45000
1!
1(!
0Q
1q"
1+!
1A"
0@"
1,!
0)!
1Z
16
0C"
0B"
01!
0-!
1D"
12!
0/!
#50000
0!
0(!
1Q
#55000
1!
1(!
0Q
0q"
1o"
0p"
13!
00!
0+!
0A"
1@"
1E"
0D"
1C"
1B"
14!
02!
11!
1-!
0,!
1)!
1\
0[
0Z
14
05
06
0B"
1F"
0E"
1D"
15!
04!
12!
1/!
0-!
0F"
16!
05!
0/!
06!
#60000
0!
0(!
1Q
#65000
1!
1(!
0Q
1q"
1+!
1A"
0@"
0j!
1,!
0)!
1Z
16
1B"
1-!
0k!
1/!
0Y
0#
#70000
0!
0(!
1Q
#75000
1!
1(!
0Q
0q"
1p"
10!
0+!
0A"
1@"
0C"
0B"
01!
0-!
0,!
1)!
1[
0Z
15
06
1C"
1B"
1E"
0D"
14!
02!
0/!
11!
1-!
0E"
1D"
1F"
15!
04!
12!
1/!
0F"
16!
05!
06!
#80000
0!
0(!
1Q
#85000
1!
1(!
0Q
1q"
1+!
1A"
0@"
1,!
0)!
1Z
16
0C"
0B"
01!
0-!
1E"
0D"
14!
02!
0/!
1F"
15!
16!
#90000
0!
0(!
1Q
#95000
1!
1(!
0Q
0q"
1n"
0o"
0p"
17!
03!
00!
0+!
1L"
0A"
1@"
0G"
0F"
0E"
1D"
1C"
1B"
08!
05!
04!
12!
11!
1-!
0,!
1)!
1]
0\
0[
0Z
13
04
05
06
0B"
1H"
1G"
1F"
0D"
19!
06!
18!
15!
02!
1/!
0-!
0H"
09!
16!
0/!
#100000
0!
0(!
1Q
#105000
1!
1(!
0Q
1q"
1+!
0L"
1A"
0@"
1.!
1,!
0)!
1Z
16
1B"
06!
1-!
#110000
0!
0(!
1Q
#115000
1!
1(!
0Q
0q"
1p"
07!
0+!
0A"
1@"
0C"
0B"
1j!
05!
0.!
0,!
1)!
0]
0Z
03
06
1C"
1B"
1D"
1/!
0-!
1k!
0D"
0/!
1Y
1#
1m!
1n!
1+"
0l!
1}
1m
1?
1P
1,"
#120000
0!
0(!
1Q
#125000
1!
1(!
0Q
1q"
1+!
1A"
0@"
1,!
0)!
1Z
16
0C"
0B"
1-!
1D"
1/!
#130000
0!
0(!
1Q
#135000
1!
1(!
0Q
0q"
1o"
0p"
10!
0+!
0A"
1@"
1E"
0D"
1C"
1B"
01!
0-!
0,!
1)!
1[
0Z
15
06
0B"
0G"
0F"
0E"
1D"
12!
0/!
11!
1-!
1H"
1G"
1F"
02!
1/!
0H"
#140000
0!
0(!
1Q
#145000
1!
1(!
0Q
1q"
1+!
1A"
0@"
1,!
0)!
1Z
16
1B"
01!
0-!
12!
0/!
#150000
0!
0(!
1Q
#155000
1!
1(!
0Q
0q"
1p"
13!
00!
0+!
0A"
1@"
0C"
0B"
14!
02!
11!
1-!
0,!
1)!
1\
0[
0Z
14
05
06
1C"
1B"
1E"
0D"
15!
04!
12!
1/!
0-!
0E"
1D"
0G"
0F"
16!
05!
0/!
1G"
1F"
1H"
06!
0H"
#160000
0!
0(!
1Q
#165000
1!
1(!
0Q
1q"
1+!
1A"
0@"
0j!
1,!
0)!
1Z
16
0C"
0B"
1-!
0k!
1E"
0D"
1/!
0Y
0#
0G"
0F"
1H"
#170000
0!
0(!
1Q
#175000
1!
1(!
0Q
0q"
1m"
0n"
0o"
0p"
10!
0+!
1L"
0A"
1@"
1I"
0H"
1G"
1F"
0E"
1D"
1C"
1B"
01!
0-!
0,!
1)!
1[
0Z
15
06
0B"
1J"
0I"
1H"
0F"
0D"
14!
02!
0/!
11!
1-!
0J"
15!
04!
12!
1/!
16!
05!
06!
#180000
0!
0(!
1Q
#185000
1!
1(!
0Q
1q"
1+!
0L"
1A"
0@"
1,!
0)!
1Z
16
1B"
01!
0-!
14!
02!
0/!
15!
16!
#190000
0!
0(!
1Q
#195000
1!
1(!
0Q
0q"
1p"
17!
03!
00!
0+!
0A"
1@"
0C"
0B"
08!
05!
04!
12!
11!
1-!
0,!
1)!
1]
0\
0[
0Z
13
04
05
06
1C"
1B"
1D"
19!
06!
18!
15!
02!
1/!
0-!
0D"
09!
16!
0/!
#200000
0!
0(!
1Q
#205000
1!
1(!
0Q
1q"
1+!
1A"
0@"
1.!
1,!
0)!
1Z
16
0C"
0B"
06!
1-!
1D"
#210000
0!
0(!
1Q
#215000
1!
1(!
0Q
0q"
1o"
0p"
07!
0+!
0A"
1@"
1E"
0D"
1C"
1B"
1j!
05!
0.!
0,!
1)!
0]
0Z
03
06
0B"
1F"
0E"
1D"
1/!
0-!
1k!
0F"
0/!
1Y
1#
1-"
1)"
0m!
0."
0,"
0+"
1l!
1n
1~
0}
0m
1O
1>
0?
0P
1/"
1."
1,"
0/"
#220000
0!
0(!
1Q
#225000
1!
1(!
0Q
1q"
1+!
1A"
0@"
1,!
0)!
1Z
16
1B"
1-!
1/!
#230000
0!
0(!
1Q
#235000
1!
1(!
0Q
0q"
1p"
10!
0+!
0A"
1@"
0C"
0B"
01!
0-!
0,!
1)!
1[
0Z
15
06
1C"
1B"
1E"
0D"
12!
0/!
11!
1-!
0E"
1D"
1F"
02!
1/!
0F"
#240000
0!
0(!
1Q
#245000
1!
1(!
0Q
1q"
1+!
1A"
0@"
1,!
0)!
1Z
16
0C"
0B"
01!
0-!
1E"
0D"
12!
0/!
1F"
#250000
0!
0(!
1Q
#255000
1!
1(!
0Q
0q"
1n"
0o"
0p"
13!
00!
0+!
1L"
0A"
1@"
0M"
0G"
0F"
0E"
1D"
1C"
1B"
14!
02!
11!
1-!
0,!
1)!
1\
0[
0Z
14
05
06
1M"
0B"
1I"
0H"
1G"
1F"
0D"
15!
04!
12!
1/!
0-!
1J"
0I"
1H"
16!
05!
0/!
0J"
06!
1O"
1d"
1P"
0N"
1u
1H
#260000
0!
0(!
1Q
#265000
1!
1(!
0Q
1q"
1+!
0L"
1A"
0@"
0j!
1,!
0)!
1Z
16
0M"
1B"
1-!
0k!
1/!
0Y
0#
#270000
0!
0(!
1Q
#275000
1!
1(!
0Q
0q"
1p"
10!
0+!
0A"
1@"
0C"
0B"
01!
0-!
0,!
1)!
1[
0Z
15
06
1C"
1B"
1D"
14!
02!
0/!
11!
1-!
0D"
15!
04!
12!
1/!
16!
05!
06!
#280000
0!
0(!
1Q
#285000
1!
1(!
0Q
1q"
1+!
1A"
0@"
1,!
0)!
1Z
16
0C"
0B"
01!
0-!
1D"
14!
02!
0/!
15!
16!
#290000
0!
0(!
1Q
#295000
1!
1(!
0Q
0q"
1o"
0p"
17!
03!
00!
0+!
0A"
1@"
1E"
0D"
1C"
1B"
08!
05!
04!
12!
11!
1-!
0,!
1)!
1]
0\
0[
0Z
13
04
05
06
0B"
0G"
0F"
0E"
1D"
19!
06!
18!
15!
02!
1/!
0-!
1I"
0H"
1G"
1F"
09!
16!
0/!
1J"
0I"
1H"
0J"
#300000
0!
0(!
1Q
#305000
1!
1(!
0Q
1q"
1+!
1A"
0@"
1.!
1,!
0)!
1Z
16
1B"
06!
1-!
#310000
0!
0(!
1Q
#315000
1!
1(!
0Q
0q"
1p"
07!
0+!
0A"
1@"
0C"
0B"
1j!
05!
0.!
0,!
1)!
0]
0Z
03
06
1C"
1B"
1E"
0D"
1/!
0-!
1k!
0E"
1D"
0G"
0F"
0/!
1Y
1#
1G"
1F"
1I"
0H"
0I"
1H"
1J"
0J"
1m!
0d"
1o!
0n!
1+"
0l!
1}
1m
1?
1P
1p!
0."
0,"
1/"
#320000
0!
0(!
1Q
#325000
1!
1(!
0Q
1q"
1+!
1A"
0@"
1,!
0)!
1Z
16
0C"
0B"
1-!
1E"
0D"
1/!
0G"
0F"
1I"
0H"
1J"
#330000
0!
0(!
1Q
#335000
1!
1(!
0Q
0q"
1l"
0m"
0n"
0o"
0p"
10!
0+!
1L"
0A"
1@"
0J"
0I"
1H"
1G"
1F"
0E"
1D"
1C"
1B"
01!
0-!
0,!
1)!
1[
0Z
15
06
0B"
1J"
0H"
0F"
0D"
12!
0/!
11!
1-!
02!
1/!
#340000
0!
0(!
1Q
#345000
1!
1(!
0Q
1q"
1+!
0L"
1A"
0@"
1,!
0)!
1Z
16
1B"
01!
0-!
12!
0/!
#350000
0!
0(!
1Q
#355000
1!
1(!
0Q
0q"
1p"
13!
00!
0+!
0A"
1@"
0C"
0B"
14!
02!
11!
1-!
0,!
1)!
1\
0[
0Z
14
05
06
1C"
1B"
1D"
15!
04!
12!
1/!
0-!
0D"
16!
05!
0/!
06!
#360000
0!
0(!
1Q
#365000
1!
1(!
0Q
1q"
1+!
1A"
0@"
0j!
1,!
0)!
1Z
16
0C"
0B"
1-!
0k!
1D"
1/!
0Y
0#
#370000
0!
0(!
1Q
#375000
1!
1(!
0Q
0q"
1o"
0p"
10!
0+!
0A"
1@"
1E"
0D"
1C"
1B"
01!
0-!
0,!
1)!
1[
0Z
15
06
0B"
1F"
0E"
1D"
14!
02!
0/!
11!
1-!
0F"
15!
04!
12!
1/!
16!
05!
06!
#380000
0!
0(!
1Q
#385000
1!
1(!
0Q
1q"
1+!
1A"
0@"
1,!
0)!
1Z
16
1B"
01!
0-!
14!
02!
0/!
15!
16!
#390000
0!
0(!
1Q
#395000
1!
1(!
0Q
0q"
1p"
17!
03!
00!
0+!
0A"
1@"
0C"
0B"
08!
05!
04!
12!
11!
1-!
0,!
1)!
1]
0\
0[
0Z
13
04
05
06
1C"
1B"
1E"
0D"
19!
06!
18!
15!
02!
1/!
0-!
0E"
1D"
1F"
09!
16!
0/!
0F"
#400000
0!
0(!
1Q
#405000
1!
1(!
0Q
1q"
1+!
1A"
0@"
1.!
1,!
0)!
1Z
16
0C"
0B"
06!
1-!
1E"
0D"
1F"
#410000
0!
0(!
1Q
#415000
1!
1(!
0Q
0q"
1n"
0o"
0p"
07!
0+!
1L"
0A"
1@"
0G"
0F"
0E"
1D"
1C"
1B"
1j!
05!
0.!
0,!
1)!
0]
0Z
03
06
0B"
1H"
1G"
1F"
0D"
1/!
0-!
1k!
0H"
0/!
1Y
1#
10"
0-"
0)"
1q!
0m!
11"
0/"
1."
1,"
0o!
0r!
0p!
1d"
0+"
1l!
1o
0n
0~
1!!
0}
0m
1N
0O
0>
1=
0?
0P
12"
01"
1/"
1r!
1p!
1s!
0e"
0,"
02"
0s!
#420000
0!
0(!
1Q
#425000
1!
1(!
0Q
1q"
1+!
0L"
1A"
0@"
1,!
0)!
1Z
16
1B"
1-!
1/!
#430000
0!
0(!
1Q
#435000
1!
1(!
0Q
0q"
1p"
10!
0+!
0A"
1@"
0C"
0B"
01!
0-!
0,!
1)!
1[
0Z
15
06
1C"
1B"
1D"
12!
0/!
11!
1-!
0D"
02!
1/!
#440000
0!
0(!
1Q
#445000
1!
1(!
0Q
1q"
1+!
1A"
0@"
1,!
0)!
1Z
16
0C"
0B"
01!
0-!
1D"
12!
0/!
#450000
0!
0(!
1Q
#455000
1!
1(!
0Q
0q"
1o"
0p"
13!
00!
0+!
0A"
1@"
1E"
0D"
1C"
1B"
14!
02!
11!
1-!
0,!
1)!
1\
0[
0Z
14
05
06
0B"
0G"
0F"
0E"
1D"
15!
04!
12!
1/!
0-!
1H"
1G"
1F"
16!
05!
0/!
0H"
06!
#460000
0!
0(!
1Q
#465000
1!
1(!
0Q
1q"
1+!
1A"
0@"
0j!
1,!
0)!
1Z
16
1B"
1-!
0k!
1/!
0Y
0#
#470000
0!
0(!
1Q
#475000
1!
1(!
0Q
0q"
1p"
10!
0+!
0A"
1@"
0C"
0B"
01!
0-!
0,!
1)!
1[
0Z
15
06
1C"
1B"
1E"
0D"
14!
02!
0/!
11!
1-!
0E"
1D"
0G"
0F"
15!
04!
12!
1/!
1G"
1F"
1H"
16!
05!
0H"
06!
#480000
0!
0(!
1Q
#485000
1!
1(!
0Q
1q"
1+!
1A"
0@"
1,!
0)!
1Z
16
0C"
0B"
01!
0-!
1E"
0D"
14!
02!
0/!
0G"
0F"
15!
1H"
16!
#490000
0!
0(!
1Q
#495000
1!
1(!
0Q
0q"
1m"
0n"
0o"
0p"
17!
03!
00!
0+!
1L"
0A"
1@"
1K"
1I"
0H"
1G"
1F"
0E"
1D"
1C"
1B"
08!
05!
04!
12!
11!
1-!
0,!
1)!
1]
0\
0[
0Z
13
04
05
06
0K"
0B"
0J"
0I"
1H"
0F"
0D"
19!
06!
18!
15!
02!
1/!
0-!
1J"
09!
16!
0/!
#500000
0!
0(!
1Q
#505000
1!
1(!
0Q
1q"
1+!
0L"
1A"
0@"
1.!
1,!
0)!
1Z
16
1K"
1B"
06!
1-!
#510000
0!
0(!
1Q
#515000
1!
1(!
0Q
0q"
0l"
0m"
07!
0+!
1L"
0A"
1@"
1M"
0K"
0J"
0H"
1j!
05!
0.!
0,!
1)!
0]
0Z
03
06
0B"
1/!
0-!
1k!
0/!
1Y
1#
1m!
1Q"
0O"
0d"
1n!
1+"
0l!
1N"
1}
1m
1v
0u
1?
1P
1G
0H
1,"
#520000
0!
0(!
1Q
#525000
1!
1(!
0Q
1q"
1+!
0L"
1A"
0@"
1,!
0)!
1Z
16
1B"
1-!
1/!
#530000
0!
0(!
1Q
#535000
1!
1(!
0Q
0q"
1p"
10!
0+!
0A"
1@"
0C"
0B"
01!
0-!
0,!
1)!
1[
0Z
15
06
1C"
1B"
1D"
12!
0/!
11!
1-!
0D"
02!
1/!
#540000
0!
0(!
1Q
#545000
1!
1(!
0Q
1q"
1+!
1A"
0@"
1,!
0)!
1Z
16
0C"
0B"
01!
0-!
1D"
12!
0/!
#550000
0!
0(!
1Q
#555000
1!
1(!
0Q
0q"
1o"
0p"
13!
00!
0+!
0A"
1@"
1E"
0D"
1C"
1B"
14!
02!
11!
1-!
0,!
1)!
1\
0[
0Z
14
05
06
0B"
1F"
0E"
1D"
15!
04!
12!
1/!
0-!
0F"
16!
05!
0/!
06!
#560000
0!
0(!
1Q
#565000
1!
1(!
0Q
1q"
1+!
1A"
0@"
0j!
1,!
0)!
1Z
16
1B"
1-!
0k!
1/!
0Y
0#
#570000
0!
0(!
1Q
#575000
1!
1(!
0Q
0q"
1p"
10!
0+!
0A"
1@"
0C"
0B"
01!
0-!
0,!
1)!
1[
0Z
15
06
1C"
1B"
1E"
0D"
14!
02!
0/!
11!
1-!
0E"
1D"
1F"
15!
04!
12!
1/!
0F"
16!
05!
06!
#580000
0!
0(!
1Q
#585000
1!
1(!
0Q
1q"
1+!
1A"
0@"
1,!
0)!
1Z
16
0C"
0B"
01!
0-!
1E"
0D"
14!
02!
0/!
1F"
15!
16!
#590000
0!
0(!
1Q
