div_20/simulation/qsim/div_20.msim.vcd
$comment
	File created using the following command:
		vcd file div_20.msim.vcd -direction
$end
$date
	Sat Oct 30 13:24:30 2021
$end
$version
	ModelSim Version 10.1d
$end
$timescale
	1ps
$end
$scope module div_20_vlg_vec_tst $end
$var reg 1 ! clk $end
$var reg 1 " rst $end
$var wire 1 # P $end
$var wire 1 $ sampler $end
$scope module i1 $end
$var wire 1 % gnd $end
$var wire 1 & vcc $end
$var wire 1 ' unknown $end
$var tri1 1 ( devclrn $end
$var tri1 1 ) devpor $end
$var tri1 1 * devoe $end
$var wire 1 + P~output_o $end
$var wire 1 , clk~input_o $end
$var wire 1 - Add0~0_combout $end
$var wire 1 . rst~input_o $end
$var wire 1 / Add0~1 $end
$var wire 1 0 Add0~2_combout $end
$var wire 1 1 Add0~3 $end
$var wire 1 2 Add0~4_combout $end
$var wire 1 3 Add0~5 $end
$var wire 1 4 Add0~6_combout $end
$var wire 1 5 Add0~7 $end
$var wire 1 6 Add0~8_combout $end
$var wire 1 7 cnt~1_combout $end
$var wire 1 8 Equal0~0_combout $end
$var wire 1 9 cnt~0_combout $end
$var wire 1 : LessThan0~0_combout $end
$var wire 1 ; cnt [4] $end
$var wire 1 < cnt [3] $end
$var wire 1 = cnt [2] $end
$var wire 1 > cnt [1] $end
$var wire 1 ? cnt [0] $end
$upscope $end
$upscope $end
$enddefinitions $end
#0
$dumpvars
0!
1"
0#
x$
0%
1&
x'
1(
1)
1*
0+
0,
1-
1.
0/
00
11
02
03
04
15
06
07
08
09
1:
0?
0>
0=
0<
0;
$end
#5000
1!
1,
0$
#10000
0!
0,
1$
#15000
1!
1,
0$
#20000
0!
0,
1$
#25000
1!
1,
0$
#30000
0"
0!
0.
0,
1$
#35000
1!
1,
0$
1?
1/
0-
10
#40000
0!
0,
1$
#45000
1!
1,
0$
1>
0?
01
00
0/
1-
12
11
10
19
02
09
#50000
0!
0,
1$
#55000
1!
1,
0$
1?
1/
0-
01
00
12
19
#60000
0!
0,
1$
#65000
1!
1,
0$
1=
0>
0?
13
02
11
10
0/
1-
14
09
03
12
00
04
19
#70000
0!
0,
1$
#75000
1!
1,
0$
1?
1/
0-
10
#80000
0!
0,
1$
#85000
1!
1,
0$
1>
0?
01
00
0/
1-
13
02
11
10
14
09
03
12
04
19
#90000
0!
0,
1$
#95000
1!
1,
0$
1?
1/
0-
01
00
13
02
14
09
#100000
0!
0,
1$
#105000
1!
1,
0$
0=
1<
0>
0?
03
12
05
04
11
10
0/
1-
15
14
19
16
02
00
06
17
09
07
#110000
0!
0,
1$
#115000
1!
1,
0$
1?
1/
0-
10
#120000
0!
0,
1$
#125000
1!
1,
0$
1>
0?
0:
01
00
0/
1-
12
11
10
1+
1#
19
02
09
#130000
0!
0,
1$
#135000
1!
1,
0$
1?
1/
0-
01
00
12
19
#140000
0!
0,
1$
#145000
1!
1,
0$
1=
0>
0?
13
02
11
10
0/
1-
05
04
09
03
12
00
16
15
14
19
17
06
07
#150000
0!
0,
1$
#155000
1!
1,
0$
1?
1/
0-
10
#160000
0!
0,
1$
#165000
1!
1,
0$
1>
0?
01
00
0/
1-
13
02
11
10
05
04
09
03
12
16
15
14
19
17
06
07
#170000
0!
0,
1$
#175000
1!
1,
0$
1?
1/
0-
01
00
13
02
05
04
09
16
17
#180000
0!
0,
1$
#185000
1!
1,
0$
0=
1;
0<
0>
0?
03
12
06
15
14
11
10
0/
1-
04
19
07
16
02
00
17
09
#190000
0!
0,
1$
#195000
1!
1,
0$
1?
18
1/
0-
10
#200000
0!
0,
1$
#205000
1!
1,
0$
1>
0?
19
07
01
00
08
0/
1-
12
09
17
11
10
19
02
09
#210000
0!
0,
1$
#215000
1!
1,
0$
1?
18
1/
0-
19
07
01
00
12
09
#220000
0!
0,
1$
#225000
1!
1,
0$
0;
0>
0?
1:
08
06
19
17
11
10
0/
1-
07
02
00
0+
0#
09
#230000
0!
0,
1$
#235000
1!
1,
0$
1?
1/
0-
10
#240000
0!
0,
1$
#245000
1!
1,
0$
1>
0?
01
00
0/
1-
12
11
10
19
02
09
#250000
0!
0,
1$
#255000
1!
1,
0$
1?
1/
0-
01
00
12
19
#260000
0!
0,
1$
#265000
1!
1,
0$
1=
0>
0?
13
02
11
10
0/
1-
14
09
03
12
00
04
19
#270000
0!
0,
1$
#275000
1!
1,
0$
1?
1/
0-
10
#280000
0!
0,
1$
#285000
1!
1,
0$
1>
0?
01
00
0/
1-
13
02
11
10
14
09
03
12
04
19
#290000
0!
0,
1$
#295000
1!
1,
0$
1?
1/
0-
01
00
13
02
14
09
#300000
0!
0,
1$
#305000
1!
1,
0$
0=
1<
0>
0?
03
12
05
04
11
10
0/
1-
15
14
19
16
02
00
06
17
09
07
#310000
0!
0,
1$
#315000
1!
1,
0$
1?
1/
0-
10
#320000
0!
0,
1$
#325000
1!
1,
0$
1>
0?
0:
01
00
0/
1-
12
11
10
1+
1#
19
02
09
#330000
0!
0,
1$
#335000
1!
1,
0$
1?
1/
0-
01
00
12
19
#340000
0!
0,
1$
#345000
1!
1,
0$
1=
0>
0?
13
02
11
10
0/
1-
05
04
09
03
12
00
16
15
14
19
17
06
07
#350000
0!
0,
1$
#355000
1!
1,
0$
1?
1/
0-
10
#360000
0!
0,
1$
#365000
1!
1,
0$
1>
0?
01
00
0/
1-
13
02
11
10
05
04
09
03
12
16
15
14
19
17
06
07
#370000
0!
0,
1$
#375000
1!
1,
0$
1?
1/
0-
01
00
13
02
05
04
09
16
17
#380000
0!
0,
1$
#385000
1!
1,
0$
0=
1;
0<
0>
0?
03
12
06
15
14
11
10
0/
1-
04
19
07
16
02
00
17
09
#390000
0!
0,
1$
#395000
1!
1,
0$
1?
18
1/
0-
10
#400000
0!
0,
1$
#405000
1!
1,
0$
1>
0?
19
07
01
00
08
0/
1-
12
09
17
11
10
19
02
09
#410000
0!
0,
1$
#415000
1!
1,
0$
1?
18
1/
0-
19
07
01
00
12
09
#420000
0!
0,
1$
#425000
1!
1,
0$
0;
0>
0?
1:
08
06
19
17
11
10
0/
1-
07
02
00
0+
0#
09
#430000
0!
0,
1$
#435000
1!
1,
0$
1?
1/
0-
10
#440000
0!
0,
1$
#445000
1!
1,
0$
1>
0?
01
00
0/
1-
12
11
10
19
02
09
#450000
0!
0,
1$
#455000
1!
1,
0$
1?
1/
0-
01
00
12
19
#460000
0!
0,
1$
#465000
1!
1,
0$
1=
0>
0?
13
02
11
10
0/
1-
14
09
03
12
00
04
19
#470000
0!
0,
1$
#475000
1!
1,
0$
1?
1/
0-
10
#480000
0!
0,
1$
#485000
1!
1,
0$
1>
0?
01
00
0/
1-
13
02
11
10
14
09
03
12
04
19
#490000
0!
0,
1$
#495000
1!
1,
0$
1?
1/
0-
01
00
13
02
14
09
#500000
0!
0,
1$
#505000
1!
1,
0$
0=
1<
0>
0?
03
12
05
04
11
10
0/
1-
15
14
19
16
02
00
06
17
09
07
#510000
0!
0,
1$
#515000
1!
1,
0$
1?
1/
0-
10
#520000
0!
0,
1$
#525000
1!
1,
0$
1>
0?
0:
01
00
0/
1-
12
11
10
1+
1#
19
02
09
#530000
0!
0,
1$
#535000
1!
1,
0$
1?
1/
0-
01
00
12
19
#540000
0!
0,
1$
#545000
1!
1,
0$
1=
0>
0?
13
02
11
10
0/
1-
05
04
09
03
12
00
16
15
14
19
17
06
07
#550000
0!
0,
1$
#555000
1!
1,
0$
1?
1/
0-
10
#560000
0!
0,
1$
#565000
1!
1,
0$
1>
0?
01
00
0/
1-
13
02
11
10
05
04
09
03
12
16
15
14
19
17
06
07
#570000
0!
0,
1$
#575000
1!
1,
0$
1?
1/
0-
01
00
13
02
05
04
09
16
17
#580000
0!
0,
1$
#585000
1!
1,
0$
0=
1;
0<
0>
0?
03
12
06
15
14
11
10
0/
1-
04
19
07
16
02
00
17
09
#590000
0!
0,
1$
#595000
1!
1,
0$
1?
18
1/
0-
10
#600000
0!
0,
1$
#605000
1!
1,
0$
1>
0?
19
07
01
00
08
0/
1-
12
09
17
11
10
19
02
09
#610000
0!
0,
1$
#615000
1!
1,
0$
1?
18
1/
0-
19
07
01
00
12
09
#620000
0!
0,
1$
#625000
1!
1,
0$
0;
0>
0?
1:
08
06
19
17
11
10
0/
1-
07
02
00
0+
0#
09
#630000
0!
0,
1$
#635000
1!
1,
0$
1?
1/
0-
10
#640000
0!
0,
1$
#645000
1!
1,
0$
1>
0?
01
00
0/
1-
12
11
10
19
02
09
#650000
0!
0,
1$
#655000
1!
1,
0$
1?
1/
0-
01
00
12
19
#660000
0!
0,
1$
#665000
1!
1,
0$
1=
0>
0?
13
02
11
10
0/
1-
14
09
03
12
00
04
19
#670000
0!
0,
1$
#675000
1!
1,
0$
1?
1/
0-
10
#680000
0!
0,
1$
#685000
1!
1,
0$
1>
0?
01
00
0/
1-
13
02
11
10
14
09
03
12
04
19
#690000
0!
0,
1$
#695000
1!
1,
0$
1?
1/
0-
01
00
13
02
14
09
#700000
0!
0,
1$
#705000
1!
1,
0$
0=
1<
0>
0?
03
12
05
04
11
10
0/
1-
15
14
19
16
02
00
06
17
09
07
#710000
0!
0,
1$
#715000
1!
1,
0$
1?
1/
0-
10
#720000
0!
0,
1$
#725000
1!
1,
0$
1>
0?
0:
01
00
0/
1-
12
11
10
1+
1#
19
02
09
#730000
0!
0,
1$
#735000
1!
1,
0$
1?
1/
0-
01
00
12
19
#740000
0!
0,
1$
#745000
1!
1,
0$
1=
0>
0?
13
02
11
10
0/
1-
05
04
09
03
12
00
16
15
14
19
17
06
07
#750000
0!
0,
1$
#755000
1!
1,
0$
1?
1/
0-
10
#760000
0!
0,
1$
#765000
1!
1,
0$
1>
0?
01
00
0/
1-
13
02
11
10
05
04
09
03
12
16
15
14
19
17
06
07
#770000
0!
0,
1$
#775000
1!
1,
0$
1?
1/
0-
01
00
13
02
05
04
09
16
17
#780000
0!
0,
1$
#785000
1!
1,
0$
0=
1;
0<
0>
0?
03
12
06
15
14
11
10
0/
1-
04
19
07
16
02
00
17
09
#790000
0!
0,
1$
#795000
1!
1,
0$
1?
18
1/
0-
10
#800000
0!
0,
1$
#805000
1!
1,
0$
1>
0?
19
07
01
00
08
0/
1-
12
09
17
11
10
19
02
09
#810000
0!
0,
1$
#815000
1!
1,
0$
1?
18
1/
0-
19
07
01
00
12
09
#820000
0!
0,
1$
#825000
1!
1,
0$
0;
0>
0?
1:
08
06
19
17
11
10
0/
1-
07
02
00
0+
0#
09
#830000
0!
0,
1$
#835000
1!
1,
0$
1?
1/
0-
10
#840000
0!
0,
1$
#845000
1!
1,
0$
1>
0?
01
00
0/
1-
12
11
10
19
02
09
#850000
0!
0,
1$
#855000
1!
1,
0$
1?
1/
0-
01
00
12
19
#860000
0!
0,
1$
#865000
1!
1,
0$
1=
0>
0?
13
02
11
10
0/
1-
14
09
03
12
00
04
19
#870000
0!
0,
1$
#875000
1!
1,
0$
1?
1/
0-
10
#880000
0!
0,
1$
#885000
1!
1,
0$
1>
0?
01
00
0/
1-
13
02
11
10
14
09
03
12
04
19
#890000
0!
0,
1$
#895000
1!
1,
0$
1?
1/
0-
01
00
13
02
14
09
#900000
0!
0,
1$
#905000
1!
1,
0$
0=
1<
0>
0?
03
12
05
04
11
10
0/
1-
15
14
19
16
02
00
06
17
09
07
#910000
0!
0,
1$
#915000
1!
1,
0$
1?
1/
0-
10
#920000
0!
0,
1$
#925000
1!
1,
0$
1>
0?
0:
01
00
0/
1-
12
11
10
1+
1#
19
02
09
#930000
0!
0,
1$
#935000
1!
1,
0$
1?
1/
0-
01
00
12
19
#940000
0!
0,
1$
#945000
1!
1,
0$
1=
0>
0?
13
02
11
10
0/
1-
05
04
09
03
12
00
16
15
14
19
17
06
07
#950000
0!
0,
1$
#955000
1!
1,
0$
1?
1/
0-
10
#960000
0!
0,
1$
#965000
1!
1,
0$
1>
0?
01
00
0/
1-
13
02
11
10
05
04
09
03
12
16
15
14
19
17
06
07
#970000
0!
0,
1$
#975000
1!
1,
0$
1?
1/
0-
01
00
13
02
05
04
09
16
17
#980000
0!
0,
1$
#985000
1!
1,
0$
0=
1;
0<
0>
0?
03
12
06
15
14
11
10
0/
1-
04
19
07
16
02
00
17
09
#990000
0!
0,
1$
#995000
1!
1,
0$
1?
18
1/
0-
10
