adder_subtractor_logic/simulation/qsim/adder_subtractor_logic.msim.vcd
$comment
	File created using the following command:
		vcd file adder_subtractor_logic.msim.vcd -direction
$end
$date
	Sat Oct 02 21:55:03 2021
$end
$version
	ModelSim Version 10.1d
$end
$timescale
	1ps
$end
$scope module adder_subtractor_logic_vlg_vec_tst $end
$var reg 4 ! A [3:0] $end
$var reg 1 " A_S $end
$var reg 4 # B [3:0] $end
$var wire 1 $ C_out $end
$var wire 1 % overflow $end
$var wire 1 & Sum [3] $end
$var wire 1 ' Sum [2] $end
$var wire 1 ( Sum [1] $end
$var wire 1 ) Sum [0] $end
$var wire 1 * sampler $end
$scope module i1 $end
$var wire 1 + gnd $end
$var wire 1 , vcc $end
$var wire 1 - unknown $end
$var tri1 1 . devclrn $end
$var tri1 1 / devpor $end
$var tri1 1 0 devoe $end
$var wire 1 1 Sum[0]~output_o $end
$var wire 1 2 Sum[1]~output_o $end
$var wire 1 3 Sum[2]~output_o $end
$var wire 1 4 Sum[3]~output_o $end
$var wire 1 5 C_out~output_o $end
$var wire 1 6 overflow~output_o $end
$var wire 1 7 B[0]~input_o $end
$var wire 1 8 A[0]~input_o $end
$var wire 1 9 Sum~0_combout $end
$var wire 1 : A_S~input_o $end
$var wire 1 ; C1~0_combout $end
$var wire 1 < A[1]~input_o $end
$var wire 1 = B[1]~input_o $end
$var wire 1 > Sum~1_combout $end
$var wire 1 ? B[2]~input_o $end
$var wire 1 @ A[2]~input_o $end
$var wire 1 A C2~0_combout $end
$var wire 1 B Sum~2_combout $end
$var wire 1 C C3~0_combout $end
$var wire 1 D A[3]~input_o $end
$var wire 1 E B[3]~input_o $end
$var wire 1 F Sum~3_combout $end
$var wire 1 G C4~0_combout $end
$var wire 1 H overflow~2_combout $end
$upscope $end
$upscope $end
$enddefinitions $end
#0
$dumpvars
b0 !
0"
b0 #
0$
0%
0)
0(
0'
0&
x*
0+
1,
x-
1.
1/
10
01
02
03
04
05
06
07
08
09
0:
0;
0<
0=
0>
0?
0@
0A
0B
0C
0D
0E
0F
0G
0H
$end
#10000
b1 !
18
0*
19
11
1)
#15000
b1 #
17
1*
1;
09
01
0)
1>
12
1(
#20000
b11 !
b10 !
08
1<
0*
0;
1A
19
0>
0A
11
02
1)
0(
1>
1B
12
13
1(
1'
0B
03
0'
#30000
b11 #
b10 #
b11 !
18
07
1=
1*
1A
0>
02
0(
1B
13
1'
#40000
b111 !
b101 !
b100 !
08
0<
1@
0*
0A
1C
09
1>
0B
0C
01
12
03
0)
1(
0'
1B
1H
1F
13
16
14
1'
1%
1&
0H
0F
06
04
0%
0&
#45000
b11 #
17
1*
19
11
1)
#50000
b101 !
18
0*
1;
09
1A
01
0)
0>
1C
02
0(
0B
03
0'
1H
1F
16
14
1%
1&
#60000
b111 #
b101 #
b111 !
b100 #
b110 !
08
1<
07
0=
1?
1*
0;
1B
0A
13
1'
1>
12
1(
0B
03
0'
#70000
1"
b111 !
1:
18
0*
0C
1A
1;
0H
1G
0F
1B
0>
19
1C
06
15
04
13
02
11
0%
1$
0&
1'
0(
1)
0G
1F
0B
1>
05
14
03
12
0$
1&
0'
1(
1G
0F
15
04
1$
0&
#75000
b101 #
17
1*
09
01
0)
#80000
b1111 !
b1011 !
b1001 !
b1000 !
08
0<
0@
1D
0*
0;
0C
19
0>
1B
1F
0A
11
02
13
14
1)
0(
1'
1&
1>
1H
0F
12
16
04
1(
1%
0&
0B
03
0'
#90000
b111 #
b110 #
b1001 !
18
07
1=
1*
1;
0>
02
0(
1>
12
1(
#100000
b1011 !
b1010 !
08
1<
0*
1A
09
0>
01
02
0)
0(
1B
13
1'
#105000
b111 #
17
1*
0;
19
0A
11
1)
1>
12
1(
0B
03
0'
#110000
b1011 !
18
0*
1;
09
1A
01
0)
0>
02
0(
1B
13
1'
#120000
b1111 #
b1011 #
b1111 !
b1001 #
b1101 !
b1000 #
b1100 !
08
0<
1@
07
0=
0?
1E
1*
1C
0H
0G
1F
06
05
14
0%
0$
1&
1G
0F
15
04
1$
0&
#130000
b1101 !
18
0*
19
11
1)
#135000
b1001 #
17
1*
09
01
0)
#140000
b1111 !
b1110 !
08
1<
0*
0;
19
1>
11
12
1)
1(
0>
02
0(
#150000
b1011 #
b1010 #
b1111 !
18
07
1=
1*
1;
0A
1>
1A
12
1(
0>
0B
02
03
0(
0'
1B
13
1'
#160000
b111 !
b11 !
b1 !
b0 !
08
0<
0@
0D
0*
0A
09
1>
0B
1H
0G
1F
0C
01
12
03
16
05
14
0)
1(
0'
1%
0$
1&
1B
13
1'
0H
0F
06
04
0%
0&
#165000
b1011 #
17
1*
0;
19
11
1)
0>
02
0(
#170000
b1 !
18
0*
1;
09
01
0)
1>
12
1(
#180000
b1111 #
b1101 #
b11 !
b1100 #
b10 !
08
1<
07
0=
1?
1*
1A
0B
03
0'
1B
13
1'
#190000
0"
b11 !
0:
18
0*
1C
0;
1F
0B
0>
19
0A
14
03
02
11
1&
0'
0(
1)
1G
0F
1>
0C
15
04
12
1$
0&
1(
1B
13
1'
0G
1F
05
14
0$
1&
#195000
b1101 #
17
1*
1;
09
1A
01
0)
0>
1C
02
0(
0B
03
0'
1G
0F
15
04
1$
0&
#200000
b111 !
b101 !
b100 !
08
0<
1@
0*
0;
0A
19
1>
1B
11
12
13
1)
1(
1'
0>
0B
02
03
0(
0'
#210000
b1111 #
b1110 #
b101 !
18
07
1=
1*
1>
12
1(
#220000
b111 !
b110 !
08
1<
0*
1A
09
0>
01
02
0)
0(
1B
13
1'
#225000
b1111 #
17
1*
19
11
1)
#230000
b111 !
18
0*
1;
09
01
0)
1>
12
1(
#240000
b111 #
b1111 !
b11 #
b1011 !
b1 #
b1001 !
b0 #
b1000 !
08
0<
0@
1D
07
0=
0?
0E
1*
0;
0A
0C
0>
0B
0G
1F
02
03
05
14
0(
0'
0$
1&
#250000
1"
b1001 !
1:
18
0*
1;
1H
1G
0F
1B
1>
19
1A
16
15
04
13
12
11
1%
1$
0&
1'
1(
1)
0>
1C
02
0(
0B
03
0'
0H
1F
06
14
0%
1&
#255000
b1 #
17
1*
09
01
0)
#260000
b1011 !
b1010 !
08
1<
0*
0;
19
1>
11
12
1)
1(
0>
02
0(
#270000
b11 #
b10 #
b1011 !
18
07
1=
1*
1;
0A
1>
1A
0C
12
1(
0>
1B
1C
02
13
0(
1'
0B
1H
0F
03
16
04
0'
1%
0&
0H
1F
06
14
0%
1&
#280000
b1111 !
b1101 !
b1100 !
08
0<
1@
0*
0A
09
1>
1B
01
12
13
0)
1(
1'
0B
03
0'
#285000
b11 #
17
1*
0;
19
11
1)
0>
02
0(
#290000
b1101 !
18
0*
1;
09
01
0)
1>
12
1(
#300000
b111 #
b101 #
b1111 !
b100 #
b1110 !
08
1<
07
0=
1?
1*
1A
0C
1B
1C
13
1'
0B
1H
0F
03
16
04
0'
1%
0&
0H
1F
06
14
0%
1&
#310000
b1111 !
18
0*
19
11
1)
#315000
b101 #
17
1*
09
01
0)
#320000
b111 !
0"
b11 !
b1 !
b0 !
08
0<
0@
0D
0:
0*
0;
0A
19
1H
0G
0C
11
16
05
1)
1%
0$
0>
1B
02
13
0(
1'
0H
0F
06
04
0%
0&
#330000
b111 #
b110 #
b1 !
18
07
1=
1*
1>
12
1(
#340000
b11 !
b10 !
08
1<
0*
1A
09
0>
1C
01
02
0)
0(
0B
03
0'
1H
1F
16
14
1%
1&
#345000
b111 #
17
1*
19
11
1)
#350000
b11 !
18
0*
1;
09
01
0)
1>
12
1(
#360000
b1111 #
b1011 #
b111 !
b1001 #
b101 !
b1000 #
b100 !
08
0<
1@
07
0=
0?
1E
1*
0;
0A
0H
1G
0F
0C
06
15
04
0%
1$
0&
0>
1B
02
13
0(
1'
0G
1F
05
14
0$
1&
#370000
b101 !
18
0*
19
11
1)
#375000
b1001 #
17
1*
1;
09
01
0)
1>
12
1(
#380000
b111 !
b110 !
08
1<
0*
0;
1A
19
0>
0A
1C
11
02
1)
0(
1>
0B
0C
12
03
1(
0'
1B
1G
0F
13
15
04
1'
1$
0&
0G
1F
05
14
0$
1&
#390000
b1011 #
b1010 #
b111 !
18
07
1=
1*
1A
0>
1C
02
0(
0B
03
0'
1G
0F
15
04
1$
0&
#400000
b1111 !
b1011 !
b1001 !
b1000 !
08
0<
0@
1D
0*
0A
0C
09
1>
1B
1F
01
12
13
14
0)
1(
1'
1&
0B
1H
0F
03
16
04
0'
1%
0&
#405000
b1011 #
17
1*
19
11
1)
#410000
b1001 !
18
0*
1;
09
1A
01
0)
0>
02
0(
1B
13
1'
#420000
b1111 #
b1101 #
b1011 !
b1100 #
b1010 !
08
1<
07
0=
1?
1*
0;
1C
0B
0A
03
0'
1>
0H
1F
0C
12
06
14
1(
0%
1&
1B
13
1'
1H
0F
16
04
1%
0&
#430000
b1011 !
18
0*
19
11
1)
#435000
b1101 #
17
1*
1;
09
1A
01
0)
0>
1C
02
0(
0B
03
0'
0H
1F
06
14
0%
1&
#440000
b1111 !
b1101 !
b1100 !
08
0<
1@
0*
0;
0A
19
1>
1B
11
12
13
1)
1(
1'
0>
0B
02
03
0(
0'
#450000
b1111 #
b1110 #
b1101 !
18
07
1=
1*
1>
12
1(
#460000
b1111 !
b1110 !
08
1<
0*
1A
09
0>
01
02
0)
0(
1B
13
1'
#465000
b1111 #
17
1*
19
11
1)
#470000
b1111 !
18
0*
1;
09
01
0)
1>
12
1(
#480000
b111 #
b111 !
b11 #
b11 !
b1 #
b1 !
b0 #
b0 !
08
0<
0@
0D
07
0=
0?
0E
1*
0;
0A
0C
1H
0G
16
05
1%
0$
0>
0B
0H
0F
02
03
06
04
0(
0'
0%
0&
#490000
b1 !
18
0*
19
11
1)
#495000
b1 #
17
1*
1;
09
01
0)
1>
12
1(
#500000
b11 !
b10 !
08
1<
0*
0;
1A
19
0>
0A
11
02
1)
0(
1>
1B
12
13
1(
1'
0B
03
0'
#510000
b11 #
b10 #
b11 !
18
07
1=
1*
1A
0>
02
0(
1B
13
1'
#520000
b111 !
b101 !
b100 !
08
0<
1@
0*
0A
1C
09
1>
0B
0C
01
12
03
0)
1(
0'
1B
1H
1F
13
16
14
1'
1%
1&
0H
0F
06
04
0%
0&
#525000
b11 #
17
1*
19
11
1)
#530000
b101 !
18
0*
1;
09
1A
01
0)
0>
1C
02
0(
0B
03
0'
1H
1F
16
14
1%
1&
#540000
b111 #
b101 #
b111 !
b100 #
b110 !
08
1<
07
0=
1?
1*
0;
1B
0A
13
1'
1>
12
1(
0B
03
0'
#550000
b111 !
18
0*
19
11
1)
#555000
b101 #
17
1*
1;
09
1A
01
0)
0>
02
0(
1B
13
1'
#560000
b1111 !
b1011 !
b1001 !
b1000 !
08
0<
0@
1D
0*
0;
0A
19
1>
0B
0H
1G
0F
0C
11
12
03
06
15
04
1)
1(
0'
0%
1$
0&
0>
1B
02
13
0(
1'
0G
1F
05
14
0$
1&
#570000
b111 #
b110 #
b1001 !
18
07
1=
1*
1>
12
1(
#580000
b1011 !
b1010 !
08
1<
0*
1A
09
0>
1C
01
02
0)
0(
0B
03
0'
1G
0F
15
04
1$
0&
#585000
b111 #
17
1*
19
11
1)
#590000
b1011 !
18
0*
1;
09
01
0)
1>
12
1(
#600000
b1111 #
b1011 #
b1111 !
b1001 #
b1101 !
b1000 #
b1100 !
08
0<
1@
07
0=
0?
1E
1*
0;
0A
1F
0C
14
1&
0>
1B
02
13
0(
1'
1H
0F
16
04
1%
0&
#610000
b1101 !
18
0*
19
11
1)
#615000
b1001 #
17
1*
1;
09
01
0)
1>
12
1(
#620000
b1111 !
b1110 !
08
1<
0*
0;
1A
19
0>
0A
1C
11
02
1)
0(
1>
0B
0C
12
03
1(
0'
1B
0H
1F
13
06
14
1'
0%
1&
1H
0F
16
04
1%
0&
#630000
b1011 #
b1010 #
b1111 !
18
07
1=
1*
1A
0>
1C
02
0(
0B
03
0'
0H
1F
06
14
0%
1&
#640000
b111 !
b11 !
b1 !
b0 !
08
0<
0@
0D
0*
0A
0C
09
1>
1B
0F
01
12
13
04
0)
1(
1'
0&
0B
0G
1F
03
05
14
0'
0$
1&
#645000
b1011 #
17
1*
19
11
1)
#650000
b1 !
18
0*
1;
09
1A
01
0)
0>
02
0(
1B
13
1'
#660000
b1111 #
b1101 #
b11 !
b1100 #
b10 !
08
1<
07
0=
1?
1*
0;
1C
0B
0A
03
0'
1>
1G
0F
0C
12
15
04
1(
1$
0&
1B
13
1'
0G
1F
05
14
0$
1&
#670000
b11 !
18
0*
19
11
1)
#675000
b1101 #
17
1*
1;
09
1A
01
0)
0>
1C
02
0(
0B
03
0'
1G
0F
15
04
1$
0&
#680000
b111 !
b101 !
b100 !
08
0<
1@
0*
0;
0A
19
1>
1B
11
12
13
1)
1(
1'
0>
0B
02
03
0(
0'
#690000
b1111 #
b1110 #
b101 !
18
07
1=
1*
1>
12
1(
#700000
b111 !
b110 !
08
1<
0*
1A
09
0>
01
02
0)
0(
1B
13
1'
#705000
b1111 #
17
1*
19
11
1)
#710000
b111 !
18
0*
1;
09
01
0)
1>
12
1(
#720000
b111 #
b1111 !
b11 #
b1011 !
b1 #
b1001 !
b0 #
b1000 !
08
0<
0@
1D
07
0=
0?
0E
1*
0;
0A
0C
0>
0B
0G
1F
02
03
05
14
0(
0'
0$
1&
#730000
b1001 !
18
0*
19
11
1)
#735000
b1 #
17
1*
1;
09
01
0)
1>
12
1(
#740000
b1011 !
b1010 !
08
1<
0*
0;
1A
19
0>
0A
11
02
1)
0(
1>
1B
12
13
1(
1'
0B
03
0'
#750000
b11 #
b10 #
b1011 !
18
07
1=
1*
1A
0>
02
0(
1B
13
1'
#760000
b1111 !
b1101 !
b1100 !
08
0<
1@
0*
0A
1C
09
1>
0B
0C
01
12
03
0)
1(
0'
1B
1G
0F
13
15
04
1'
1$
0&
0G
1F
05
14
0$
1&
#765000
b11 #
17
1*
19
11
1)
#770000
b1101 !
18
0*
1;
09
1A
01
0)
0>
1C
02
0(
0B
03
0'
1G
0F
15
04
1$
0&
#780000
b111 #
b101 #
b1111 !
b100 #
b1110 !
08
1<
07
0=
1?
1*
0;
1B
0A
13
1'
1>
12
1(
0B
03
0'
#790000
b1111 !
18
0*
19
11
1)
#795000
b101 #
17
1*
1;
09
1A
01
0)
0>
02
0(
1B
13
1'
#800000
b111 !
b11 !
b1 !
b0 !
08
0<
0@
0D
0*
0;
0A
19
1>
0B
1H
0G
1F
0C
11
12
03
16
05
14
1)
1(
0'
1%
0$
1&
0>
1B
02
13
0(
1'
0H
0F
06
04
0%
0&
#810000
b111 #
b110 #
b1 !
18
07
1=
1*
1>
12
1(
#820000
b11 !
b10 !
08
1<
0*
1A
09
0>
1C
01
02
0)
0(
0B
03
0'
1H
1F
16
14
1%
1&
#825000
b111 #
17
1*
19
11
1)
#830000
b11 !
18
0*
1;
09
01
0)
1>
12
1(
#840000
b1111 #
b1011 #
b111 !
b1001 #
b101 !
b1000 #
b100 !
08
0<
1@
07
0=
0?
1E
1*
0;
0A
0H
1G
0F
0C
06
15
04
0%
1$
0&
0>
1B
02
13
0(
1'
0G
1F
05
14
0$
1&
#850000
b101 !
18
0*
19
11
1)
#855000
b1001 #
17
1*
1;
09
01
0)
1>
12
1(
#860000
b111 !
b110 !
08
1<
0*
0;
1A
19
0>
0A
1C
11
02
1)
0(
1>
0B
0C
12
03
1(
0'
1B
1G
0F
13
15
04
1'
1$
0&
0G
1F
05
14
0$
1&
#870000
b1011 #
b1010 #
b111 !
18
07
1=
1*
1A
0>
1C
02
0(
0B
03
0'
1G
0F
15
04
1$
0&
#880000
b1111 !
b1011 !
b1001 !
b1000 !
08
0<
0@
1D
0*
0A
0C
09
1>
1B
1F
01
12
13
14
0)
1(
1'
1&
0B
1H
0F
03
16
04
0'
1%
0&
#885000
b1011 #
17
1*
19
11
1)
#890000
b1001 !
18
0*
1;
09
1A
01
0)
0>
02
0(
1B
13
1'
#900000
b1111 #
b1101 #
b1011 !
b1100 #
b1010 !
08
1<
07
0=
1?
1*
0;
1C
0B
0A
03
0'
1>
0H
1F
0C
12
06
14
1(
0%
1&
1B
13
1'
1H
0F
16
04
1%
0&
#910000
b1011 !
18
0*
19
11
1)
#915000
b1101 #
17
1*
1;
09
1A
01
0)
0>
1C
02
0(
0B
03
0'
0H
1F
06
14
0%
1&
#920000
b1111 !
b1101 !
b1100 !
08
0<
1@
0*
0;
0A
19
1>
1B
11
12
13
1)
1(
1'
0>
0B
02
03
0(
0'
#930000
b1111 #
b1110 #
b1101 !
18
07
1=
1*
1>
12
1(
#940000
b1111 !
b1110 !
08
1<
0*
1A
09
0>
01
02
0)
0(
1B
13
1'
#945000
b1111 #
17
1*
19
11
1)
#950000
b1111 !
18
0*
1;
09
01
0)
1>
12
1(
#960000
b111 #
b111 !
b11 #
b11 !
b1 #
b1 !
b0 #
b0 !
08
0<
0@
0D
07
0=
0?
0E
1*
0;
0A
0C
1H
0G
16
05
1%
0$
0>
0B
0H
0F
02
03
06
04
0(
0'
0%
0&
#970000
b1 !
18
0*
19
11
1)
#975000
b1 #
17
1*
1;
09
01
0)
1>
12
1(
#980000
b11 !
b10 !
08
1<
0*
0;
1A
19
0>
0A
11
02
1)
0(
1>
1B
12
13
1(
1'
0B
03
0'
#990000
b11 #
b10 #
b11 !
18
07
1=
1*
1A
0>
02
0(
1B
13
1'
