generate_demux_1to8/simulation/qsim/generate_demux_1to8.msim.vcd
$comment
	File created using the following command:
		vcd file generate_demux_1to8.msim.vcd -direction
$end
$date
	Sat Oct 30 20:48:51 2021
$end
$version
	ModelSim Version 10.1d
$end
$timescale
	1ps
$end
$scope module generate_demux_1to8_vlg_vec_tst $end
$var reg 1 ! D_in $end
$var reg 3 " sel [2:0] $end
$var wire 1 # Y [7] $end
$var wire 1 $ Y [6] $end
$var wire 1 % Y [5] $end
$var wire 1 & Y [4] $end
$var wire 1 ' Y [3] $end
$var wire 1 ( Y [2] $end
$var wire 1 ) Y [1] $end
$var wire 1 * Y [0] $end
$var wire 1 + sampler $end
$scope module i1 $end
$var wire 1 , gnd $end
$var wire 1 - vcc $end
$var wire 1 . unknown $end
$var tri1 1 / devclrn $end
$var tri1 1 0 devpor $end
$var tri1 1 1 devoe $end
$var wire 1 2 Y[0]~output_o $end
$var wire 1 3 Y[1]~output_o $end
$var wire 1 4 Y[2]~output_o $end
$var wire 1 5 Y[3]~output_o $end
$var wire 1 6 Y[4]~output_o $end
$var wire 1 7 Y[5]~output_o $end
$var wire 1 8 Y[6]~output_o $end
$var wire 1 9 Y[7]~output_o $end
$var wire 1 : D_in~input_o $end
$var wire 1 ; sel[0]~input_o $end
$var wire 1 < sel[1]~input_o $end
$var wire 1 = sel[2]~input_o $end
$var wire 1 > L3:0:demux_L3|Y[0]~0_combout $end
$var wire 1 ? L3:0:demux_L3|Y[1]~1_combout $end
$var wire 1 @ L3:1:demux_L3|Y[0]~0_combout $end
$var wire 1 A L3:1:demux_L3|Y[1]~1_combout $end
$var wire 1 B L3:2:demux_L3|Y[0]~0_combout $end
$var wire 1 C L3:2:demux_L3|Y[1]~1_combout $end
$var wire 1 D L3:3:demux_L3|Y[0]~0_combout $end
$var wire 1 E L3:3:demux_L3|Y[1]~1_combout $end
$upscope $end
$upscope $end
$enddefinitions $end
#0
$dumpvars
1!
b0 "
1*
0)
0(
0'
0&
0%
0$
0#
x+
0,
1-
x.
1/
10
11
12
03
04
05
06
07
08
09
1:
0;
0<
0=
1>
0?
0@
0A
0B
0C
0D
0E
$end
#10000
b1 "
1;
0+
1?
0>
13
02
1)
0*
#20000
b11 "
b10 "
0;
1<
1+
1@
0?
14
03
1(
0)
#30000
b11 "
1;
0+
1A
0@
15
04
1'
0(
#40000
b111 "
b101 "
b100 "
0;
0<
1=
1+
1B
0A
16
05
1&
0'
#50000
b101 "
1;
0+
1C
0B
17
06
1%
0&
#60000
b111 "
b110 "
0;
1<
1+
1D
0C
18
07
1$
0%
#70000
b111 "
1;
0+
1E
0D
19
08
1#
0$
#80000
b11 "
b1 "
b0 "
0;
0<
0=
1+
0E
1>
09
12
0#
1*
#90000
b1 "
1;
0+
1?
0>
13
02
1)
0*
#100000
b11 "
b10 "
0;
1<
1+
1@
0?
14
03
1(
0)
#110000
b11 "
1;
0+
1A
0@
15
04
1'
0(
#120000
b111 "
b101 "
b100 "
0;
0<
1=
1+
1B
0A
16
05
1&
0'
#130000
b101 "
1;
0+
1C
0B
17
06
1%
0&
#140000
b111 "
b110 "
0;
1<
1+
1D
0C
18
07
1$
0%
#150000
b111 "
1;
0+
1E
0D
19
08
1#
0$
#160000
b11 "
b1 "
b0 "
0;
0<
0=
1+
0E
1>
09
12
0#
1*
#170000
b1 "
1;
0+
1?
0>
13
02
1)
0*
#180000
b11 "
b10 "
0;
1<
1+
1@
0?
14
03
1(
0)
#190000
b11 "
1;
0+
1A
0@
15
04
1'
0(
#200000
b111 "
b101 "
b100 "
0;
0<
1=
1+
1B
0A
16
05
1&
0'
#210000
b101 "
1;
0+
1C
0B
17
06
1%
0&
#220000
b111 "
b110 "
0;
1<
1+
1D
0C
18
07
1$
0%
#230000
b111 "
1;
0+
1E
0D
19
08
1#
0$
#240000
b11 "
b1 "
b0 "
0;
0<
0=
1+
0E
1>
09
12
0#
1*
#250000
b1 "
1;
0+
1?
0>
13
02
1)
0*
#260000
b11 "
b10 "
0;
1<
1+
1@
0?
14
03
1(
0)
#270000
b11 "
1;
0+
1A
0@
15
04
1'
0(
#280000
b111 "
b101 "
b100 "
0;
0<
1=
1+
1B
0A
16
05
1&
0'
#290000
b101 "
1;
0+
1C
0B
17
06
1%
0&
#300000
b111 "
b110 "
0;
1<
1+
1D
0C
18
07
1$
0%
#310000
b111 "
1;
0+
1E
0D
19
08
1#
0$
#320000
b11 "
b1 "
b0 "
0;
0<
0=
1+
0E
1>
09
12
0#
1*
#330000
b1 "
1;
0+
1?
0>
13
02
1)
0*
#340000
b11 "
b10 "
0;
1<
1+
1@
0?
14
03
1(
0)
#350000
b11 "
1;
0+
1A
0@
15
04
1'
0(
#360000
b111 "
b101 "
b100 "
0;
0<
1=
1+
1B
0A
16
05
1&
0'
#370000
b101 "
1;
0+
1C
0B
17
06
1%
0&
#380000
b111 "
b110 "
0;
1<
1+
1D
0C
18
07
1$
0%
#390000
b111 "
1;
0+
1E
0D
19
08
1#
0$
#400000
b11 "
b1 "
b0 "
0;
0<
0=
1+
0E
1>
09
12
0#
1*
#410000
b1 "
1;
0+
1?
0>
13
02
1)
0*
#420000
b11 "
b10 "
0;
1<
1+
1@
0?
14
03
1(
0)
#430000
b11 "
1;
0+
1A
0@
15
04
1'
0(
#440000
b111 "
b101 "
b100 "
0;
0<
1=
1+
1B
0A
16
05
1&
0'
#450000
b101 "
1;
0+
1C
0B
17
06
1%
0&
#460000
b111 "
b110 "
0;
1<
1+
1D
0C
18
07
1$
0%
#470000
b111 "
1;
0+
1E
0D
19
08
1#
0$
#480000
b11 "
b1 "
b0 "
0;
0<
0=
1+
0E
1>
09
12
0#
1*
#490000
b1 "
1;
0+
1?
0>
13
02
1)
0*
#500000
b11 "
b10 "
0;
1<
1+
1@
0?
14
03
1(
0)
#510000
b11 "
1;
0+
1A
0@
15
04
1'
0(
#520000
b111 "
b101 "
b100 "
0;
0<
1=
1+
1B
0A
16
05
1&
0'
#530000
b101 "
1;
0+
1C
0B
17
06
1%
0&
#540000
b111 "
b110 "
0;
1<
1+
1D
0C
18
07
1$
0%
#550000
b111 "
1;
0+
1E
0D
19
08
1#
0$
#560000
b11 "
b1 "
b0 "
0;
0<
0=
1+
0E
1>
09
12
0#
1*
#570000
b1 "
1;
0+
1?
0>
13
02
1)
0*
#580000
b11 "
b10 "
0;
1<
1+
1@
0?
14
03
1(
0)
#590000
b11 "
1;
0+
1A
0@
15
04
1'
0(
#600000
b111 "
b101 "
b100 "
0;
0<
1=
1+
1B
0A
16
05
1&
0'
#610000
b101 "
1;
0+
1C
0B
17
06
1%
0&
#620000
b111 "
b110 "
0;
1<
1+
1D
0C
18
07
1$
0%
#630000
b111 "
1;
0+
1E
0D
19
08
1#
0$
#640000
b11 "
b1 "
b0 "
0;
0<
0=
1+
0E
1>
09
12
0#
1*
#650000
b1 "
1;
0+
1?
0>
13
02
1)
0*
#660000
b11 "
b10 "
0;
1<
1+
1@
0?
14
03
1(
0)
#670000
b11 "
1;
0+
1A
0@
15
04
1'
0(
#680000
b111 "
b101 "
b100 "
0;
0<
1=
1+
1B
0A
16
05
1&
0'
#690000
b101 "
1;
0+
1C
0B
17
06
1%
0&
#700000
b111 "
b110 "
0;
1<
1+
1D
0C
18
07
1$
0%
#710000
b111 "
1;
0+
1E
0D
19
08
1#
0$
#720000
b11 "
b1 "
b0 "
0;
0<
0=
1+
0E
1>
09
12
0#
1*
#730000
b1 "
1;
0+
1?
0>
13
02
1)
0*
#740000
b11 "
b10 "
0;
1<
1+
1@
0?
14
03
1(
0)
#750000
b11 "
1;
0+
1A
0@
15
04
1'
0(
#760000
b111 "
b101 "
b100 "
0;
0<
1=
1+
1B
0A
16
05
1&
0'
#770000
b101 "
1;
0+
1C
0B
17
06
1%
0&
#780000
b111 "
b110 "
0;
1<
1+
1D
0C
18
07
1$
0%
#790000
b111 "
1;
0+
1E
0D
19
08
1#
0$
#800000
b11 "
b1 "
b0 "
0;
0<
0=
1+
0E
1>
09
12
0#
1*
#810000
b1 "
1;
0+
1?
0>
13
02
1)
0*
#820000
b11 "
b10 "
0;
1<
1+
1@
0?
14
03
1(
0)
#830000
b11 "
1;
0+
1A
0@
15
04
1'
0(
#840000
b111 "
b101 "
b100 "
0;
0<
1=
1+
1B
0A
16
05
1&
0'
#850000
b101 "
1;
0+
1C
0B
17
06
1%
0&
#860000
b111 "
b110 "
0;
1<
1+
1D
0C
18
07
1$
0%
#870000
b111 "
1;
0+
1E
0D
19
08
1#
0$
#880000
b11 "
b1 "
b0 "
0;
0<
0=
1+
0E
1>
09
12
0#
1*
#890000
b1 "
1;
0+
1?
0>
13
02
1)
0*
#900000
b11 "
b10 "
0;
1<
1+
1@
0?
14
03
1(
0)
#910000
b11 "
1;
0+
1A
0@
15
04
1'
0(
#920000
b111 "
b101 "
b100 "
0;
0<
1=
1+
1B
0A
16
05
1&
0'
#930000
b101 "
1;
0+
1C
0B
17
06
1%
0&
#940000
b111 "
b110 "
0;
1<
1+
1D
0C
18
07
1$
0%
#950000
b111 "
1;
0+
1E
0D
19
08
1#
0$
#960000
b11 "
b1 "
b0 "
0;
0<
0=
1+
0E
1>
09
12
0#
1*
#970000
b1 "
1;
0+
1?
0>
13
02
1)
0*
#980000
b11 "
b10 "
0;
1<
1+
1@
0?
14
03
1(
0)
#990000
b11 "
1;
0+
1A
0@
15
04
1'
0(
