clk_with_number/simulation/qsim/clk_with_number.msim.vcd
$comment
	File created using the following command:
		vcd file clk_with_number.msim.vcd -direction
$end
$date
	Fri Nov 26 15:35:27 2021
$end
$version
	ModelSim Version 10.1d
$end
$timescale
	1ps
$end
$scope module clk_with_number_vlg_vec_tst $end
$var reg 1 ! clk $end
$var reg 1 " reset $end
$var wire 1 # decoded_out [7] $end
$var wire 1 $ decoded_out [6] $end
$var wire 1 % decoded_out [5] $end
$var wire 1 & decoded_out [4] $end
$var wire 1 ' decoded_out [3] $end
$var wire 1 ( decoded_out [2] $end
$var wire 1 ) decoded_out [1] $end
$var wire 1 * decoded_out [0] $end
$var wire 1 + onesec_out [9] $end
$var wire 1 , onesec_out [8] $end
$var wire 1 - onesec_out [7] $end
$var wire 1 . onesec_out [6] $end
$var wire 1 / onesec_out [5] $end
$var wire 1 0 onesec_out [4] $end
$var wire 1 1 onesec_out [3] $end
$var wire 1 2 onesec_out [2] $end
$var wire 1 3 onesec_out [1] $end
$var wire 1 4 onesec_out [0] $end
$var wire 1 5 temp $end
$var wire 1 6 sampler $end
$scope module i1 $end
$var wire 1 7 gnd $end
$var wire 1 8 vcc $end
$var wire 1 9 unknown $end
$var tri1 1 : devclrn $end
$var tri1 1 ; devpor $end
$var tri1 1 < devoe $end
$var wire 1 = onesec_out[0]~output_o $end
$var wire 1 > onesec_out[1]~output_o $end
$var wire 1 ? onesec_out[2]~output_o $end
$var wire 1 @ onesec_out[3]~output_o $end
$var wire 1 A onesec_out[4]~output_o $end
$var wire 1 B onesec_out[5]~output_o $end
$var wire 1 C onesec_out[6]~output_o $end
$var wire 1 D onesec_out[7]~output_o $end
$var wire 1 E onesec_out[8]~output_o $end
$var wire 1 F onesec_out[9]~output_o $end
$var wire 1 G decoded_out[0]~output_o $end
$var wire 1 H decoded_out[1]~output_o $end
$var wire 1 I decoded_out[2]~output_o $end
$var wire 1 J decoded_out[3]~output_o $end
$var wire 1 K decoded_out[4]~output_o $end
$var wire 1 L decoded_out[5]~output_o $end
$var wire 1 M decoded_out[6]~output_o $end
$var wire 1 N decoded_out[7]~output_o $end
$var wire 1 O temp~output_o $end
$var wire 1 P clk~input_o $end
$var wire 1 Q Add0~37 $end
$var wire 1 R Add0~38_combout $end
$var wire 1 S count~6_combout $end
$var wire 1 T Add0~39 $end
$var wire 1 U Add0~40_combout $end
$var wire 1 V count~5_combout $end
$var wire 1 W Add0~41 $end
$var wire 1 X Add0~42_combout $end
$var wire 1 Y count~4_combout $end
$var wire 1 Z Add0~43 $end
$var wire 1 [ Add0~44_combout $end
$var wire 1 \ count~3_combout $end
$var wire 1 ] Equal0~0_combout $end
$var wire 1 ^ Add0~45 $end
$var wire 1 _ Add0~46_combout $end
$var wire 1 ` count~0_combout $end
$var wire 1 a Add0~47 $end
$var wire 1 b Add0~48_combout $end
$var wire 1 c Equal0~3_combout $end
$var wire 1 d Add0~49 $end
$var wire 1 e Add0~50_combout $end
$var wire 1 f count~1_combout $end
$var wire 1 g clk~inputclkctrl_outclk $end
$var wire 1 h Add0~0_combout $end
$var wire 1 i Add0~1 $end
$var wire 1 j Add0~2_combout $end
$var wire 1 k Add0~3 $end
$var wire 1 l Add0~4_combout $end
$var wire 1 m Add0~5 $end
$var wire 1 n Add0~6_combout $end
$var wire 1 o Add0~7 $end
$var wire 1 p Add0~8_combout $end
$var wire 1 q Add0~9 $end
$var wire 1 r Add0~10_combout $end
$var wire 1 s Add0~11 $end
$var wire 1 t Add0~12_combout $end
$var wire 1 u Add0~13 $end
$var wire 1 v Add0~14_combout $end
$var wire 1 w count~8_combout $end
$var wire 1 x Add0~15 $end
$var wire 1 y Add0~16_combout $end
$var wire 1 z Add0~17 $end
$var wire 1 { Add0~18_combout $end
$var wire 1 | Add0~19 $end
$var wire 1 } Add0~20_combout $end
$var wire 1 ~ Add0~21 $end
$var wire 1 !! Add0~22_combout $end
$var wire 1 "! Add0~23 $end
$var wire 1 #! Add0~24_combout $end
$var wire 1 $! count~11_combout $end
$var wire 1 %! Add0~25 $end
$var wire 1 &! Add0~26_combout $end
$var wire 1 '! count~10_combout $end
$var wire 1 (! Add0~27 $end
$var wire 1 )! Add0~28_combout $end
$var wire 1 *! count~9_combout $end
$var wire 1 +! Equal0~2_combout $end
$var wire 1 ,! Equal0~4_combout $end
$var wire 1 -! Equal0~6_combout $end
$var wire 1 .! Equal0~5_combout $end
$var wire 1 /! Equal0~7_combout $end
$var wire 1 0! Equal0~1_combout $end
$var wire 1 1! Equal0~8_combout $end
$var wire 1 2! Add0~29 $end
$var wire 1 3! Add0~30_combout $end
$var wire 1 4! count~7_combout $end
$var wire 1 5! Add0~31 $end
$var wire 1 6! Add0~32_combout $end
$var wire 1 7! Add0~33 $end
$var wire 1 8! Add0~34_combout $end
$var wire 1 9! count~2_combout $end
$var wire 1 :! Add0~35 $end
$var wire 1 ;! Add0~36_combout $end
$var wire 1 <! LessThan0~0_combout $end
$var wire 1 =! LessThan0~1_combout $end
$var wire 1 >! LessThan0~2_combout $end
$var wire 1 ?! rtl~0_combout $end
$var wire 1 @! rtl~0clkctrl_outclk $end
$var wire 1 A! zero_to_nine_counter[0]~3_combout $end
$var wire 1 B! reset~input_o $end
$var wire 1 C! zero_to_nine_counter~1_combout $end
$var wire 1 D! zero_to_nine_counter~2_combout $end
$var wire 1 E! zero_to_nine_counter[2]~0_combout $end
$var wire 1 F! decoded_out~0_combout $end
$var wire 1 G! decoded_out~1_combout $end
$var wire 1 H! Equal10~0_combout $end
$var wire 1 I! decoded_out~2_combout $end
$var wire 1 J! decoded_out~3_combout $end
$var wire 1 K! decoded_out~4_combout $end
$var wire 1 L! decoded_out~5_combout $end
$var wire 1 M! decoded_out~6_combout $end
$var wire 1 N! zero_to_nine_counter [3] $end
$var wire 1 O! zero_to_nine_counter [2] $end
$var wire 1 P! zero_to_nine_counter [1] $end
$var wire 1 Q! zero_to_nine_counter [0] $end
$var wire 1 R! count [25] $end
$var wire 1 S! count [24] $end
$var wire 1 T! count [23] $end
$var wire 1 U! count [22] $end
$var wire 1 V! count [21] $end
$var wire 1 W! count [20] $end
$var wire 1 X! count [19] $end
$var wire 1 Y! count [18] $end
$var wire 1 Z! count [17] $end
$var wire 1 [! count [16] $end
$var wire 1 \! count [15] $end
$var wire 1 ]! count [14] $end
$var wire 1 ^! count [13] $end
$var wire 1 _! count [12] $end
$var wire 1 `! count [11] $end
$var wire 1 a! count [10] $end
$var wire 1 b! count [9] $end
$var wire 1 c! count [8] $end
$var wire 1 d! count [7] $end
$var wire 1 e! count [6] $end
$var wire 1 f! count [5] $end
$var wire 1 g! count [4] $end
$var wire 1 h! count [3] $end
$var wire 1 i! count [2] $end
$var wire 1 j! count [1] $end
$var wire 1 k! count [0] $end
$upscope $end
$upscope $end
$enddefinitions $end
#0
$dumpvars
0!
1"
0*
0)
0(
0'
0&
0%
1$
1#
14
13
12
11
10
1/
1.
1-
1,
1+
15
x6
07
18
x9
1:
1;
1<
1=
1>
1?
1@
1A
1B
1C
1D
1E
1F
0G
0H
0I
0J
0K
0L
1M
1N
1O
0P
0Q
0R
0S
1T
0U
0V
0W
0X
0Y
1Z
0[
0\
0]
0^
0_
0`
1a
0b
0c
0d
0e
0f
0g
1h
0i
0j
1k
0l
0m
0n
1o
0p
0q
0r
1s
0t
0u
0v
0w
1x
0y
0z
0{
1|
0}
0~
0!!
1"!
0#!
0$!
0%!
0&!
0'!
1(!
0)!
0*!
0+!
0,!
0-!
0.!
0/!
10!
01!
02!
03!
04!
15!
06!
07!
08!
09!
1:!
0;!
1<!
0=!
0>!
1?!
1@!
1A!
1B!
0C!
0D!
0E!
0F!
0G!
0H!
0I!
0J!
0K!
1L!
1M!
0Q!
0P!
0O!
0N!
0k!
0j!
0i!
0h!
0g!
0f!
0e!
0d!
0c!
0b!
0a!
0`!
0_!
0^!
0]!
0\!
0[!
0Z!
0Y!
0X!
0W!
0V!
0U!
0T!
0S!
0R!
$end
#50
1!
1P
1g
06
1k!
1i
0h
1j
#100
0!
0P
0g
16
#150
1!
1P
1g
06
1j!
0k!
0k
0j
0i
1h
1l
1k
1j
0l
#200
0!
0P
0g
16
#250
1!
1P
1g
06
1k!
1i
0h
0k
0j
1l
#300
0!
0P
0g
16
#350
1!
1P
1g
06
1i!
0j!
0k!
1m
0l
1k
1j
0i
1h
1n
0m
1l
0j
0n
#400
0!
0P
0g
16
#450
1!
1P
1g
06
1k!
1i
0h
1j
#500
0!
0P
0g
16
#550
1!
1P
1g
06
1j!
0k!
0k
0j
0i
1h
1m
0l
1k
1j
1n
0m
1l
0n
#600
0!
0P
0g
16
#650
1!
1P
1g
06
1k!
1i
0h
0k
0j
1m
0l
1n
#700
0!
0P
0g
16
#750
1!
1P
1g
06
1h!
0i!
0j!
0k!
0o
0n
0m
1l
1k
1j
0i
1h
1p
1o
1n
0l
0j
0p
#800
0!
0P
0g
16
#850
1!
1P
1g
06
1k!
1i
0h
1j
#900
0!
0P
0g
16
#950
1!
1P
1g
06
1j!
0k!
0k
0j
0i
1h
1l
1k
1j
0l
#1000
0!
0P
0g
16
#1050
1!
1P
1g
06
1k!
1i
0h
0k
0j
1l
#1100
0!
0P
0g
16
#1150
1!
1P
1g
06
1i!
0j!
0k!
1m
0l
1k
1j
0i
1h
0o
0n
0m
1l
0j
1p
1o
1n
0p
#1200
0!
0P
0g
16
#1250
1!
1P
1g
06
1k!
1i
0h
1j
#1300
0!
0P
0g
16
#1350
1!
1P
1g
06
1j!
0k!
0k
0j
0i
1h
1m
0l
1k
1j
0o
0n
0m
1l
1p
1o
1n
0p
#1400
0!
0P
0g
16
#1450
1!
1P
1g
06
1k!
1i
0h
0k
0j
1m
0l
0o
0n
1p
#1500
0!
0P
0g
16
#1550
1!
1P
1g
06
1g!
0h!
0i!
0j!
0k!
1q
0p
1o
1n
0m
1l
1k
1j
0i
1h
1r
0q
1p
0n
0l
0j
0r
#1600
0!
0P
0g
16
#1650
1!
1P
1g
06
1k!
1i
0h
1j
#1700
0!
0P
0g
16
#1750
1!
1P
1g
06
1j!
0k!
0k
0j
0i
1h
1l
1k
1j
0l
#1800
0!
0P
0g
16
#1850
1!
1P
1g
06
1k!
1i
0h
0k
0j
1l
#1900
0!
0P
0g
16
#1950
1!
1P
1g
06
1i!
0j!
0k!
1m
0l
1k
1j
0i
1h
1n
0m
1l
0j
0n
#2000
0!
0P
0g
16
#2050
1!
1P
1g
06
1k!
1i
0h
1j
#2100
0!
0P
0g
16
#2150
1!
1P
1g
06
1j!
0k!
0k
0j
0i
1h
1m
0l
1k
1j
1n
0m
1l
0n
#2200
0!
0P
0g
16
#2250
1!
1P
1g
06
1k!
1i
0h
0k
0j
1m
0l
1n
#2300
0!
0P
0g
16
#2350
1!
1P
1g
06
1h!
0i!
0j!
0k!
0o
0n
0m
1l
1k
1j
0i
1h
1q
0p
1o
1n
0l
0j
1r
0q
1p
0r
#2400
0!
0P
0g
16
#2450
1!
1P
1g
06
1k!
1i
0h
1j
#2500
0!
0P
0g
16
#2550
1!
1P
1g
06
1j!
0k!
0k
0j
0i
1h
1l
1k
1j
0l
#2600
0!
0P
0g
16
#2650
1!
1P
1g
06
1k!
1i
0h
0k
0j
1l
#2700
0!
0P
0g
16
#2750
1!
1P
1g
06
1i!
0j!
0k!
1m
0l
1k
1j
0i
1h
0o
0n
0m
1l
0j
1q
0p
1o
1n
1r
0q
1p
0r
#2800
0!
0P
0g
16
#2850
1!
1P
1g
06
1k!
1i
0h
1j
#2900
0!
0P
0g
16
#2950
1!
1P
1g
06
1j!
0k!
0k
0j
0i
1h
1m
0l
1k
1j
0o
0n
0m
1l
1q
0p
1o
1n
1r
0q
1p
0r
#3000
0!
0P
0g
16
#3050
1!
1P
1g
06
1k!
1i
0h
0k
0j
1m
0l
0o
0n
1q
0p
1r
#3100
0!
0P
0g
16
#3150
1!
1P
1g
06
1f!
0g!
0h!
0i!
0j!
0k!
0s
0r
0q
1p
1o
1n
0m
1l
1k
1j
0i
1h
1t
1s
1r
0p
0n
0l
0j
0t
#3200
0!
0P
0g
16
#3250
1!
1P
1g
06
1k!
1i
0h
1j
#3300
0!
0P
0g
16
#3350
1!
1P
1g
06
1j!
0k!
0k
0j
0i
1h
1l
1k
1j
0l
#3400
0!
0P
0g
16
#3450
1!
1P
1g
06
1k!
1i
0h
0k
0j
1l
#3500
0!
0P
0g
16
#3550
1!
1P
1g
06
1i!
0j!
0k!
1m
0l
1k
1j
0i
1h
1n
0m
1l
0j
0n
#3600
0!
0P
0g
16
#3650
1!
1P
1g
06
1k!
1i
0h
1j
#3700
0!
0P
0g
16
#3750
1!
1P
1g
06
1j!
0k!
0k
0j
0i
1h
1m
0l
1k
1j
1n
0m
1l
0n
#3800
0!
0P
0g
16
#3850
1!
1P
1g
06
1k!
1i
0h
0k
0j
1m
0l
1n
#3900
0!
0P
0g
16
#3950
1!
1P
1g
06
1h!
0i!
0j!
0k!
0o
0n
0m
1l
1k
1j
0i
1h
1p
1o
1n
0l
0j
0p
#4000
0!
0P
0g
16
#4050
1!
1P
1g
06
1k!
1i
0h
1j
#4100
0!
0P
0g
16
#4150
1!
1P
1g
06
1j!
0k!
0k
0j
0i
1h
1l
1k
1j
0l
#4200
0!
0P
0g
16
#4250
1!
1P
1g
06
1k!
1i
0h
0k
0j
1l
#4300
0!
0P
0g
16
#4350
1!
1P
1g
06
1i!
0j!
0k!
1m
0l
1k
1j
0i
1h
0o
0n
0m
1l
0j
1p
1o
1n
0p
#4400
0!
0P
0g
16
#4450
1!
1P
1g
06
1k!
1i
0h
1j
#4500
0!
0P
0g
16
#4550
1!
1P
1g
06
1j!
0k!
0k
0j
0i
1h
1m
0l
1k
1j
0o
0n
0m
1l
1p
1o
1n
0p
#4600
0!
0P
0g
16
#4650
1!
1P
1g
06
1k!
1i
0h
0k
0j
1m
0l
0o
0n
1p
#4700
0!
0P
0g
16
#4750
1!
1P
1g
06
1g!
0h!
0i!
0j!
0k!
1q
0p
1o
1n
0m
1l
1k
1j
0i
1h
0s
0r
0q
1p
0n
0l
0j
1t
1s
1r
0t
#4800
0!
0P
0g
16
#4850
1!
1P
1g
06
1k!
1i
0h
1j
#4900
0!
0P
0g
16
#4950
1!
1P
1g
06
1j!
0k!
0k
0j
0i
1h
1l
1k
1j
0l
#5000
0!
0P
0g
16
#5050
1!
1P
1g
06
1k!
1i
0h
0k
0j
1l
#5100
0!
0P
0g
16
#5150
1!
1P
1g
06
1i!
0j!
0k!
1m
0l
1k
1j
0i
1h
1n
0m
1l
0j
0n
#5200
0!
0P
0g
16
#5250
1!
1P
1g
06
1k!
1i
0h
1j
#5300
0!
0P
0g
16
#5350
1!
1P
1g
06
1j!
0k!
0k
0j
0i
1h
1m
0l
1k
1j
1n
0m
1l
0n
#5400
0!
0P
0g
16
#5450
1!
1P
1g
06
1k!
1i
0h
0k
0j
1m
0l
1n
#5500
0!
0P
0g
16
#5550
1!
1P
1g
06
1h!
0i!
0j!
0k!
0o
0n
0m
1l
1k
1j
0i
1h
1q
0p
1o
1n
0l
0j
0s
0r
0q
1p
1t
1s
1r
0t
#5600
0!
0P
0g
16
#5650
1!
1P
1g
06
1k!
1i
0h
1j
#5700
0!
0P
0g
16
#5750
1!
1P
1g
06
1j!
0k!
0k
0j
0i
1h
1l
1k
1j
0l
#5800
0!
0P
0g
16
#5850
1!
1P
1g
06
1k!
1i
0h
0k
0j
1l
#5900
0!
0P
0g
16
#5950
1!
1P
1g
06
1i!
0j!
0k!
1m
0l
1k
1j
0i
1h
0o
0n
0m
1l
0j
1q
0p
1o
1n
0s
0r
0q
1p
1t
1s
1r
0t
#6000
0!
0P
0g
16
#6050
1!
1P
1g
06
1k!
1i
0h
1j
#6100
0!
0P
0g
16
#6150
1!
1P
1g
06
1j!
0k!
0k
0j
0i
1h
1m
0l
1k
1j
0o
0n
0m
1l
1q
0p
1o
1n
0s
0r
0q
1p
1t
1s
1r
0t
#6200
0!
0P
0g
16
#6250
1!
1P
1g
06
1k!
1i
0h
0k
0j
1m
0l
0o
0n
1q
0p
0s
0r
1t
#6300
0!
0P
0g
16
#6350
1!
1P
1g
06
1e!
0f!
0g!
0h!
0i!
0j!
0k!
1u
0t
1s
1r
0q
1p
1o
1n
0m
1l
1k
1j
0i
1h
1v
0u
1t
0r
0p
0n
0l
0j
1w
0v
0w
#6400
0!
0P
0g
16
#6450
1!
1P
1g
06
1k!
1i
0h
1j
#6500
0!
0P
0g
16
#6550
1!
1P
1g
06
1j!
0k!
0k
0j
0i
1h
1l
1k
1j
0l
#6600
0!
0P
0g
16
#6650
1!
1P
1g
06
1k!
1i
0h
0k
0j
1l
#6700
0!
0P
0g
16
#6750
1!
1P
1g
06
1i!
0j!
0k!
1m
0l
1k
1j
0i
1h
1n
0m
1l
0j
0n
#6800
0!
0P
0g
16
#6850
1!
1P
1g
06
1k!
1i
0h
1j
#6900
0!
0P
0g
16
#6950
1!
1P
1g
06
1j!
0k!
0k
0j
0i
1h
1m
0l
1k
1j
1n
0m
1l
0n
#7000
0!
0P
0g
16
#7050
1!
1P
1g
06
1k!
1i
0h
0k
0j
1m
0l
1n
#7100
0!
0P
0g
16
#7150
1!
1P
1g
06
1h!
0i!
0j!
0k!
0o
0n
0m
1l
1k
1j
0i
1h
1p
1o
1n
0l
0j
0p
#7200
0!
0P
0g
16
#7250
1!
1P
1g
06
1k!
1i
0h
1j
#7300
0!
0P
0g
16
#7350
1!
1P
1g
06
1j!
0k!
0k
0j
0i
1h
1l
1k
1j
0l
#7400
0!
0P
0g
16
#7450
1!
1P
1g
06
1k!
1i
0h
0k
0j
1l
#7500
0!
0P
0g
16
#7550
1!
1P
1g
06
1i!
0j!
0k!
1m
0l
1k
1j
0i
1h
0o
0n
0m
1l
0j
1p
1o
1n
0p
#7600
0!
0P
0g
16
#7650
1!
1P
1g
06
1k!
1i
0h
1j
#7700
0!
0P
0g
16
#7750
1!
1P
1g
06
1j!
0k!
0k
0j
0i
1h
1m
0l
1k
1j
0o
0n
0m
1l
1p
1o
1n
0p
#7800
0!
0P
0g
16
#7850
1!
1P
1g
06
1k!
1i
0h
0k
0j
1m
0l
0o
0n
1p
#7900
0!
0P
0g
16
#7950
1!
1P
1g
06
1g!
0h!
0i!
0j!
0k!
1q
0p
1o
1n
0m
1l
1k
1j
0i
1h
1r
0q
1p
0n
0l
0j
0r
#8000
0!
0P
0g
16
#8050
1!
1P
1g
06
1k!
1i
0h
1j
#8100
0!
0P
0g
16
#8150
1!
1P
1g
06
1j!
0k!
0k
0j
0i
1h
1l
1k
1j
0l
#8200
0!
0P
0g
16
#8250
1!
1P
1g
06
1k!
1i
0h
0k
0j
1l
#8300
0!
0P
0g
16
#8350
1!
1P
1g
06
1i!
0j!
0k!
1m
0l
1k
1j
0i
1h
1n
0m
1l
0j
0n
#8400
0!
0P
0g
16
#8450
1!
1P
1g
06
1k!
1i
0h
1j
#8500
0!
0P
0g
16
#8550
1!
1P
1g
06
1j!
0k!
0k
0j
0i
1h
1m
0l
1k
1j
1n
0m
1l
0n
#8600
0!
0P
0g
16
#8650
1!
1P
1g
06
1k!
1i
0h
0k
0j
1m
0l
1n
#8700
0!
0P
0g
16
#8750
1!
1P
1g
06
1h!
0i!
0j!
0k!
0o
0n
0m
1l
1k
1j
0i
1h
1q
0p
1o
1n
0l
0j
1r
0q
1p
0r
#8800
0!
0P
0g
16
#8850
1!
1P
1g
06
1k!
1i
0h
1j
#8900
0!
0P
0g
16
#8950
1!
1P
1g
06
1j!
0k!
0k
0j
0i
1h
1l
1k
1j
0l
#9000
0!
0P
0g
16
#9050
1!
1P
1g
06
1k!
1i
0h
0k
0j
1l
#9100
0!
0P
0g
16
#9150
1!
1P
1g
06
1i!
0j!
0k!
1m
0l
1k
1j
0i
1h
0o
0n
0m
1l
0j
1q
0p
1o
1n
1r
0q
1p
0r
#9200
0!
0P
0g
16
#9250
1!
1P
1g
06
1k!
1i
0h
1j
#9300
0!
0P
0g
16
#9350
1!
1P
1g
06
1j!
0k!
0k
0j
0i
1h
1m
0l
1k
1j
0o
0n
0m
1l
1q
0p
1o
1n
1r
0q
1p
0r
#9400
0!
0P
0g
16
#9450
1!
1P
1g
06
1k!
1i
0h
0k
0j
1m
0l
0o
0n
1q
0p
1r
#9500
0!
0P
0g
16
#9550
1!
1P
1g
06
1f!
0g!
0h!
0i!
0j!
0k!
0s
0r
0q
1p
1o
1n
0m
1l
1k
1j
0i
1h
1u
0t
1s
1r
0p
0n
0l
0j
1v
0u
1t
1w
0v
0w
#9600
0!
0P
0g
16
#9650
1!
1P
1g
06
1k!
1i
0h
1j
#9700
0!
0P
0g
16
#9750
1!
1P
1g
06
1j!
0k!
0k
0j
0i
1h
1l
1k
1j
0l
#9800
0!
0P
0g
16
#9850
1!
1P
1g
06
1k!
1i
0h
0k
0j
1l
#9900
0!
0P
0g
16
#9950
1!
1P
1g
06
1i!
0j!
0k!
1m
0l
1k
1j
0i
1h
1n
0m
1l
0j
0n
#10000
0!
0P
0g
16
#10050
1!
1P
1g
06
1k!
1i
0h
1j
#10100
0!
0P
0g
16
#10150
1!
1P
1g
06
1j!
0k!
0k
0j
0i
1h
1m
0l
1k
1j
1n
0m
1l
0n
#10200
0!
0P
0g
16
#10250
1!
1P
1g
06
1k!
1i
0h
0k
0j
1m
0l
1n
#10300
0!
0P
0g
16
#10350
1!
1P
1g
06
1h!
0i!
0j!
0k!
0o
0n
0m
1l
1k
1j
0i
1h
1p
1o
1n
0l
0j
0p
#10400
0!
0P
0g
16
#10450
1!
1P
1g
06
1k!
1i
0h
1j
#10500
0!
0P
0g
16
#10550
1!
1P
1g
06
1j!
0k!
0k
0j
0i
1h
1l
1k
1j
0l
#10600
0!
0P
0g
16
#10650
1!
1P
1g
06
1k!
1i
0h
0k
0j
1l
#10700
0!
0P
0g
16
#10750
1!
1P
1g
06
1i!
0j!
0k!
1m
0l
1k
1j
0i
1h
0o
0n
0m
1l
0j
1p
1o
1n
0p
#10800
0!
0P
0g
16
#10850
1!
1P
1g
06
1k!
1i
0h
1j
#10900
0!
0P
0g
16
#10950
1!
1P
1g
06
1j!
0k!
0k
0j
0i
1h
1m
0l
1k
1j
0o
0n
0m
1l
1p
1o
1n
0p
#11000
0!
0P
0g
16
#11050
1!
1P
1g
06
1k!
1i
0h
0k
0j
1m
0l
0o
0n
1p
#11100
0!
0P
0g
16
#11150
1!
1P
1g
06
1g!
0h!
0i!
0j!
0k!
1-!
1q
0p
1o
1n
0m
1l
1k
1j
0i
1h
0s
0r
0q
1p
0n
0l
0j
1u
0t
1s
1r
1v
0u
1t
1w
0v
0w
#11200
0!
0P
0g
16
#11250
1!
1P
1g
06
1k!
1i
0h
1j
#11300
0!
0P
0g
16
#11350
1!
1P
1g
06
1j!
0k!
0k
0j
0i
1h
1l
1k
1j
0l
#11400
0!
0P
0g
16
#11450
1!
1P
1g
06
1k!
1i
0h
0k
0j
1l
#11500
0!
0P
0g
16
#11550
1!
1P
1g
06
1i!
0j!
0k!
1m
0l
1k
1j
0i
1h
1n
0m
1l
0j
0n
#11600
0!
0P
0g
16
#11650
1!
1P
1g
06
1k!
1i
0h
1j
#11700
0!
0P
0g
16
#11750
1!
1P
1g
06
1j!
0k!
0k
0j
0i
1h
1m
0l
1k
1j
1n
0m
1l
0n
#11800
0!
0P
0g
16
#11850
1!
1P
1g
06
1k!
1i
0h
0k
0j
1m
0l
1n
#11900
0!
0P
0g
16
#11950
1!
1P
1g
06
1h!
0i!
0j!
0k!
0o
0n
0m
1l
1k
1j
0i
1h
1q
0p
1o
1n
0l
0j
0s
0r
0q
1p
1u
0t
1s
1r
1v
0u
1t
1w
0v
0w
#12000
0!
0P
0g
16
#12050
1!
1P
1g
06
1k!
1i
0h
1j
#12100
0!
0P
0g
16
#12150
1!
1P
1g
06
1j!
0k!
0k
0j
0i
1h
1l
1k
1j
0l
#12200
0!
0P
0g
16
#12250
1!
1P
1g
06
1k!
1i
0h
0k
0j
1l
#12300
0!
0P
0g
16
#12350
1!
1P
1g
06
1i!
0j!
0k!
1m
0l
1k
1j
0i
1h
0o
0n
0m
1l
0j
1q
0p
1o
1n
0s
0r
0q
1p
1u
0t
1s
1r
1v
0u
1t
1w
0v
0w
#12400
0!
0P
0g
16
#12450
1!
1P
1g
06
1k!
1i
0h
1j
#12500
0!
0P
0g
16
#12550
1!
1P
1g
06
1j!
0k!
0k
0j
0i
1h
1m
0l
1k
1j
0o
0n
0m
1l
1q
0p
1o
1n
0s
0r
0q
1p
1u
0t
1s
1r
1v
0u
1t
1w
0v
0w
#12600
0!
0P
0g
16
#12650
1!
1P
1g
06
1k!
1i
0h
0k
0j
1m
0l
0o
0n
1q
0p
0s
0r
1u
0t
1v
1w
#12700
0!
0P
0g
16
#12750
1!
1P
1g
06
1d!
0e!
0f!
0g!
0h!
0i!
0j!
0k!
00!
0x
0v
0-!
0u
1t
1s
1r
0q
1p
1o
1n
0m
1l
1k
1j
0i
1h
1y
0w
1x
1v
0t
0r
0p
0n
0l
0j
0y
1w
#12800
0!
0P
0g
16
#12850
1!
1P
1g
06
1k!
1i
0h
1j
#12900
0!
0P
0g
16
#12950
1!
1P
1g
06
1j!
0k!
0k
0j
0i
1h
1l
1k
1j
0l
#13000
0!
0P
0g
16
#13050
1!
1P
1g
06
1k!
1i
0h
0k
0j
1l
#13100
0!
0P
0g
16
#13150
1!
1P
1g
06
1i!
0j!
0k!
1m
0l
1k
1j
0i
1h
1n
0m
1l
0j
0n
#13200
0!
0P
0g
16
#13250
1!
1P
1g
06
1k!
1i
0h
1j
#13300
0!
0P
0g
16
#13350
1!
1P
1g
06
1j!
0k!
0k
0j
0i
1h
1m
0l
1k
1j
1n
0m
1l
0n
#13400
0!
0P
0g
16
#13450
1!
1P
1g
06
1k!
1i
0h
0k
0j
1m
0l
1n
#13500
0!
0P
0g
16
#13550
1!
1P
1g
06
1h!
0i!
0j!
0k!
0o
0n
0m
1l
1k
1j
0i
1h
1p
1o
1n
0l
0j
0p
#13600
0!
0P
0g
16
#13650
1!
1P
1g
06
1k!
1i
0h
1j
#13700
0!
0P
0g
16
#13750
1!
1P
1g
06
1j!
0k!
0k
0j
0i
1h
1l
1k
1j
0l
#13800
0!
0P
0g
16
#13850
1!
1P
1g
06
1k!
1i
0h
0k
0j
1l
#13900
0!
0P
0g
16
#13950
1!
1P
1g
06
1i!
0j!
0k!
1m
0l
1k
1j
0i
1h
0o
0n
0m
1l
0j
1p
1o
1n
0p
#14000
0!
0P
0g
16
#14050
1!
1P
1g
06
1k!
1i
0h
1j
#14100
0!
0P
0g
16
#14150
1!
1P
1g
06
1j!
0k!
0k
0j
0i
1h
1m
0l
1k
1j
0o
0n
0m
1l
1p
1o
1n
0p
#14200
0!
0P
0g
16
#14250
1!
1P
1g
06
1k!
1i
0h
0k
0j
1m
0l
0o
0n
1p
#14300
0!
0P
0g
16
#14350
1!
1P
1g
06
1g!
0h!
0i!
0j!
0k!
1q
0p
1o
1n
0m
1l
1k
1j
0i
1h
1r
0q
1p
0n
0l
0j
0r
#14400
0!
0P
0g
16
#14450
1!
1P
1g
06
1k!
1i
0h
1j
#14500
0!
0P
0g
16
#14550
1!
1P
1g
06
1j!
0k!
0k
0j
0i
1h
1l
1k
1j
0l
#14600
0!
0P
0g
16
#14650
1!
1P
1g
06
1k!
1i
0h
0k
0j
1l
#14700
0!
0P
0g
16
#14750
1!
1P
1g
06
1i!
0j!
0k!
1m
0l
1k
1j
0i
1h
1n
0m
1l
0j
0n
#14800
0!
0P
0g
16
#14850
1!
1P
1g
06
1k!
1i
0h
1j
#14900
0!
0P
0g
16
#14950
1!
1P
1g
06
1j!
0k!
0k
0j
0i
1h
1m
0l
1k
1j
1n
0m
1l
0n
#15000
0!
0P
0g
16
#15050
1!
1P
1g
06
1k!
1i
0h
0k
0j
1m
0l
1n
#15100
0!
0P
0g
16
#15150
1!
1P
1g
06
1h!
0i!
0j!
0k!
0o
0n
0m
1l
1k
1j
0i
1h
1q
0p
1o
1n
0l
0j
1r
0q
1p
0r
#15200
0!
0P
0g
16
#15250
1!
1P
1g
06
1k!
1i
0h
1j
#15300
0!
0P
0g
16
#15350
1!
1P
1g
06
1j!
0k!
0k
0j
0i
1h
1l
1k
1j
0l
#15400
0!
0P
0g
16
#15450
1!
1P
1g
06
1k!
1i
0h
0k
0j
1l
#15500
0!
0P
0g
16
#15550
1!
1P
1g
06
1i!
0j!
0k!
1m
0l
1k
1j
0i
1h
0o
0n
0m
1l
0j
1q
0p
1o
1n
1r
0q
1p
0r
#15600
0!
0P
0g
16
#15650
1!
1P
1g
06
1k!
1i
0h
1j
#15700
0!
0P
0g
16
#15750
1!
1P
1g
06
1j!
0k!
0k
0j
0i
1h
1m
0l
1k
1j
0o
0n
0m
1l
1q
0p
1o
1n
1r
0q
1p
0r
#15800
0!
0P
0g
16
#15850
1!
1P
1g
06
1k!
1i
0h
0k
0j
1m
0l
0o
0n
1q
0p
1r
#15900
0!
0P
0g
16
#15950
1!
1P
1g
06
1f!
0g!
0h!
0i!
0j!
0k!
0s
0r
0q
1p
1o
1n
0m
1l
1k
1j
0i
1h
1t
1s
1r
0p
0n
0l
0j
0t
#16000
0!
0P
0g
16
#16050
1!
1P
1g
06
1k!
1i
0h
1j
#16100
0!
0P
0g
16
#16150
1!
1P
1g
06
1j!
0k!
0k
0j
0i
1h
1l
1k
1j
0l
#16200
0!
0P
0g
16
#16250
1!
1P
1g
06
1k!
1i
0h
0k
0j
1l
#16300
0!
0P
0g
16
#16350
1!
1P
1g
06
1i!
0j!
0k!
1m
0l
1k
1j
0i
1h
1n
0m
1l
0j
0n
#16400
0!
0P
0g
16
