generic_shift_register_8bit_ex/simulation/qsim/generic_shift_register_8bit_ex.msim.vcd
$comment
	File created using the following command:
		vcd file generic_shift_register_8bit_ex.msim.vcd -direction
$end
$date
	Fri Nov 05 18:12:29 2021
$end
$version
	ModelSim Version 10.1d
$end
$timescale
	1ps
$end
$scope module generic_shift_register_8bit_ex_vlg_vec_tst $end
$var reg 1 ! clk $end
$var reg 1 " D_in $end
$var reg 1 # L_R $end
$var reg 1 $ reset $end
$var wire 1 % Q [7] $end
$var wire 1 & Q [6] $end
$var wire 1 ' Q [5] $end
$var wire 1 ( Q [4] $end
$var wire 1 ) Q [3] $end
$var wire 1 * Q [2] $end
$var wire 1 + Q [1] $end
$var wire 1 , Q [0] $end
$var wire 1 - sampler $end
$scope module i1 $end
$var wire 1 . gnd $end
$var wire 1 / vcc $end
$var wire 1 0 unknown $end
$var tri1 1 1 devclrn $end
$var tri1 1 2 devpor $end
$var tri1 1 3 devoe $end
$var wire 1 4 Q[0]~output_o $end
$var wire 1 5 Q[1]~output_o $end
$var wire 1 6 Q[2]~output_o $end
$var wire 1 7 Q[3]~output_o $end
$var wire 1 8 Q[4]~output_o $end
$var wire 1 9 Q[5]~output_o $end
$var wire 1 : Q[6]~output_o $end
$var wire 1 ; Q[7]~output_o $end
$var wire 1 < clk~input_o $end
$var wire 1 = D_in~input_o $end
$var wire 1 > L_R~input_o $end
$var wire 1 ? sft_reg_1|DFFs:7:De:D|D_out~0_combout $end
$var wire 1 @ reset~input_o $end
$var wire 1 A sft_reg_1|DFFs:7:De:D|D_out~q $end
$var wire 1 B sft_reg_1|DFFs:6:Dx:D|D_out~0_combout $end
$var wire 1 C sft_reg_1|DFFs:6:Dx:D|D_out~q $end
$var wire 1 D sft_reg_1|DFFs:5:Dx:D|D_out~0_combout $end
$var wire 1 E sft_reg_1|DFFs:5:Dx:D|D_out~q $end
$var wire 1 F sft_reg_1|DFFs:4:Dx:D|D_out~0_combout $end
$var wire 1 G sft_reg_1|DFFs:4:Dx:D|D_out~q $end
$var wire 1 H sft_reg_1|DFFs:3:Dx:D|D_out~0_combout $end
$var wire 1 I sft_reg_1|DFFs:3:Dx:D|D_out~q $end
$var wire 1 J sft_reg_1|DFFs:2:Dx:D|D_out~0_combout $end
$var wire 1 K sft_reg_1|DFFs:2:Dx:D|D_out~q $end
$var wire 1 L sft_reg_1|DFFs:1:Dx:D|D_out~0_combout $end
$var wire 1 M sft_reg_1|DFFs:1:Dx:D|D_out~q $end
$var wire 1 N sft_reg_1|DFFs:0:D0:D|D_out~0_combout $end
$var wire 1 O sft_reg_1|DFFs:0:D0:D|D_out~q $end
$upscope $end
$upscope $end
$enddefinitions $end
#0
$dumpvars
0!
0"
0#
1$
0,
0+
0*
0)
0(
0'
0&
0%
x-
0.
1/
x0
11
12
13
04
05
06
07
08
09
0:
0;
0<
0=
0>
0?
1@
0A
0B
0C
0D
0E
0F
0G
0H
0I
0J
0K
0L
0M
0N
0O
$end
#5000
1!
1<
0-
#10000
1"
0!
1=
0<
1-
1N
#15000
1!
1<
0-
#20000
0$
0!
0@
0<
1-
#25000
1!
1<
0-
1O
1L
14
1,
#30000
0!
0<
1-
#35000
1!
1<
0-
1M
1J
15
1+
#40000
0!
0<
1-
#45000
1!
1<
0-
1K
1H
16
1*
#50000
0"
0!
0=
0<
1-
0N
#55000
1!
1<
0-
0O
1I
0L
1F
04
17
0,
1)
#60000
0!
0<
1-
#65000
1!
1<
0-
0M
1G
0J
1D
05
18
0+
1(
#70000
0!
0<
1-
#75000
1!
1<
0-
0K
1E
0H
1B
06
19
0*
1'
#80000
0!
0<
1-
#85000
1!
1<
0-
0I
1C
0F
1?
07
1:
0)
1&
#90000
0!
0<
1-
#95000
1!
1<
0-
0G
1A
0D
08
1;
0(
1%
#100000
1"
0!
1=
0<
1-
1N
#105000
1!
1<
0-
1O
0E
1L
0B
14
09
1,
0'
#110000
0!
0<
1-
#115000
1!
1<
0-
1M
0C
1J
0?
15
0:
1+
0&
#120000
0!
0<
1-
#125000
1!
1<
0-
1K
0A
1H
16
0;
1*
0%
#130000
0!
0<
1-
#135000
1!
1<
0-
1I
1F
17
1)
#140000
0!
0<
1-
#145000
1!
1<
0-
1G
1D
18
1(
#150000
0!
0<
1-
#155000
1!
1<
0-
1E
1B
19
1'
#160000
1#
0!
1>
0<
1-
0D
0B
1?
#165000
1!
1<
0-
0E
1A
0F
1B
09
1;
0'
1%
#170000
0!
0<
1-
#175000
1!
1<
0-
0G
1C
0H
1D
08
1:
0(
1&
#180000
0!
0<
1-
#185000
1!
1<
0-
0I
1E
0J
1F
07
19
0)
1'
#190000
0!
0<
1-
#195000
1!
1<
0-
0K
1G
0L
1H
06
18
0*
1(
#200000
0"
0!
0=
0<
1-
0?
#205000
1!
1<
0-
0M
1I
0A
0N
1J
0B
05
17
0;
0+
1)
0%
#210000
0!
0<
1-
#215000
1!
1<
0-
0O
1K
0C
1L
0D
04
16
0:
0,
1*
0&
#220000
0!
0<
1-
#225000
1!
1<
0-
1M
0E
1N
0F
15
09
1+
0'
#230000
0!
0<
1-
#235000
1!
1<
0-
1O
0G
0H
14
08
1,
0(
#240000
0!
0<
1-
#245000
1!
1<
0-
0I
0J
07
0)
#250000
0!
0<
1-
#255000
1!
1<
0-
0K
0L
06
0*
#260000
0!
0<
1-
#265000
1!
1<
0-
0M
0N
05
0+
#270000
0!
0<
1-
#275000
1!
1<
0-
0O
04
0,
#280000
0!
0<
1-
#285000
1!
1<
0-
#290000
1"
0!
1=
0<
1-
1?
#295000
1!
1<
0-
1A
1B
1;
1%
#300000
0!
0<
1-
#305000
1!
1<
0-
1C
1D
1:
1&
#310000
0!
0<
1-
#315000
1!
1<
0-
1E
1F
19
1'
#320000
0!
0<
1-
#325000
1!
1<
0-
1G
1H
18
1(
#330000
0"
0!
0=
0<
1-
0?
#335000
1!
1<
0-
1I
0A
1J
0B
17
0;
1)
0%
#340000
0!
0<
1-
#345000
1!
1<
0-
1K
0C
1L
0D
16
0:
1*
0&
#350000
0!
0<
1-
#355000
1!
1<
0-
1M
0E
1N
0F
15
09
1+
0'
#360000
0!
0<
1-
#365000
1!
1<
0-
1O
0G
0H
14
08
1,
0(
#370000
0!
0<
1-
#375000
1!
1<
0-
0I
0J
07
0)
#380000
0!
0<
1-
#385000
1!
1<
0-
0K
0L
06
0*
#390000
0!
0<
1-
#395000
1!
1<
0-
0M
0N
05
0+
#400000
0!
0<
1-
#405000
1!
1<
0-
0O
04
0,
#410000
0!
0<
1-
#415000
1!
1<
0-
#420000
0!
0<
1-
#425000
1!
1<
0-
#430000
0!
0<
1-
#435000
1!
1<
0-
#440000
0!
0<
1-
#445000
1!
1<
0-
#450000
0!
0<
1-
#455000
1!
1<
0-
#460000
0!
0<
1-
#465000
1!
1<
0-
#470000
0#
0!
0>
0<
1-
#475000
1!
1<
0-
#480000
0!
0<
1-
#485000
1!
1<
0-
#490000
0!
0<
1-
#495000
1!
1<
0-
#500000
0!
0<
1-
#505000
1!
1<
0-
#510000
0!
0<
1-
#515000
1!
1<
0-
#520000
0!
0<
1-
#525000
1!
1<
0-
#530000
0!
0<
1-
#535000
1!
1<
0-
#540000
0!
0<
1-
#545000
1!
1<
0-
#550000
0!
0<
1-
#555000
1!
1<
0-
#560000
0!
0<
1-
#565000
1!
1<
0-
#570000
0!
0<
1-
#575000
1!
1<
0-
#580000
0!
0<
1-
#585000
1!
1<
0-
#590000
0!
0<
1-
#595000
1!
1<
0-
#600000
0!
0<
1-
#605000
1!
1<
0-
#610000
0!
0<
1-
#615000
1!
1<
0-
#620000
0!
0<
1-
#625000
1!
1<
0-
#630000
0!
0<
1-
#635000
1!
1<
0-
#640000
0!
0<
1-
#645000
1!
1<
0-
#650000
0!
0<
1-
#655000
1!
1<
0-
#660000
0!
0<
1-
#665000
1!
1<
0-
#670000
0!
0<
1-
#675000
1!
1<
0-
#680000
0!
0<
1-
#685000
1!
1<
0-
#690000
0!
0<
1-
#695000
1!
1<
0-
#700000
0!
0<
1-
#705000
1!
1<
0-
#710000
0!
0<
1-
#715000
1!
1<
0-
#720000
0!
0<
1-
#725000
1!
1<
0-
#730000
0!
0<
1-
#735000
1!
1<
0-
#740000
0!
0<
1-
#745000
1!
1<
0-
#750000
0!
0<
1-
#755000
1!
1<
0-
#760000
0!
0<
1-
#765000
1!
1<
0-
#770000
0!
0<
1-
#775000
1!
1<
0-
#780000
0!
0<
1-
#785000
1!
1<
0-
#790000
0!
0<
1-
#795000
1!
1<
0-
#800000
0!
0<
1-
#805000
1!
1<
0-
#810000
0!
0<
1-
#815000
1!
1<
0-
#820000
0!
0<
1-
#825000
1!
1<
0-
#830000
0!
0<
1-
#835000
1!
1<
0-
#840000
0!
0<
1-
#845000
1!
1<
0-
#850000
0!
0<
1-
#855000
1!
1<
0-
#860000
0!
0<
1-
#865000
1!
1<
0-
#870000
0!
0<
1-
#875000
1!
1<
0-
#880000
0!
0<
1-
#885000
1!
1<
0-
#890000
0!
0<
1-
#895000
1!
1<
0-
#900000
0!
0<
1-
#905000
1!
1<
0-
#910000
0!
0<
1-
#915000
1!
1<
0-
#920000
0!
0<
1-
#925000
1!
1<
0-
#930000
0!
0<
1-
#935000
1!
1<
0-
#940000
0!
0<
1-
#945000
1!
1<
0-
#950000
0!
0<
1-
#955000
1!
1<
0-
#960000
0!
0<
1-
#965000
1!
1<
0-
#970000
0!
0<
1-
#975000
1!
1<
0-
#980000
0!
0<
1-
#985000
1!
1<
0-
#990000
0!
0<
1-
#995000
1!
1<
0-
